<?xml version="1.0"?>
<VTKFile type="PolyData" version="0.1" byte_order="LittleEndian">
  <PolyData>
    <Piece NumberOfPoints="     19" NumberOfVerts="  0" NumberOfLines="     18"
           NumberOfStrips="  0" NumberOfPolys="      0">
      <Points>
        <DataArray type="Float32" NumberOfComponents="3" format="ascii">
                      -5.15155                       1.12410                      89.01845
                      -5.28878                       2.15084                      88.12624
                      -5.57095                       4.26660                      86.41383
                      -5.84638                       6.41246                      84.73369
                      -6.16823                       9.11369                      82.64981
                      -6.46349                      12.26274                      80.03030
                      -6.68194                      15.32618                      77.30477
                      -6.83374                      18.38721                      74.57142
                      -6.91263                      21.44395                      71.82959
                      -6.91808                      24.49702                      69.08189
                      -6.85319                      27.54840                      66.33238
                      -6.72264                      30.59674                      63.58115
                      -6.53594                      33.64198                      60.82937
                      -6.30643                      36.68435                      58.07793
                      -6.04897                      39.72438                      55.32754
                      -5.82800                      42.25667                      53.03641
                      -5.65736                      44.27703                      51.19810
                      -5.49783                      46.26113                      49.31902
                      -5.42960                      47.28129                      48.41031
        </DataArray>
      </Points>
      <PointData>
        <DataArray type="Float32" Name="TranslationalVelocity" NumberOfComponents="3" format="ascii">
                       0.30779                       3.11339                       3.51801
                       0.58854                       5.94303                       6.73099
                       1.16451                      11.37802                      13.35166
                       1.74626                      16.70893                      20.06550
                       2.47819                      23.31381                      28.51399
                       3.33761                      31.58398                      38.35778
                       4.19035                      40.16106                      47.92796
                       5.07005                      48.74012                      57.48517
                       5.98549                      57.32103                      67.02473
                       6.94330                      65.89519                      76.55026
                       7.94598                      74.45096                      86.06964
                       8.98904                      82.98980                      95.58036
                      10.06067                      91.51185                     105.08344
                      11.13987                     100.01973                     114.58022
                      12.19479                     108.51781                     124.07227
                      13.02210                     115.59849                     131.97981
                      13.62717                     121.28545                     138.28844
                      14.15483                     127.10774                     144.48279
                      14.38957                     129.92832                     147.66636
        </DataArray>
        <DataArray type="Float32" Name="RotationalVelocity" NumberOfComponents="3" format="ascii">
                       3.12964                      -0.00000                      -0.27381
                       3.12943                       0.00015                      -0.27363
                       3.12889                       0.00048                      -0.27313
                       3.12820                       0.00064                      -0.27277
                       3.12715                       0.00026                      -0.27297
                       3.12569                      -0.00155                      -0.27465
                       3.12412                      -0.00520                      -0.27808
                       3.12255                      -0.01086                      -0.28306
                       3.12111                      -0.01842                      -0.28901
                       3.11987                      -0.02755                      -0.29505
                       3.11890                      -0.03760                      -0.30006
                       3.11821                      -0.04767                      -0.30269
                       3.11776                      -0.05653                      -0.30144
                       3.11745                      -0.06265                      -0.29475
                       3.11708                      -0.06417                      -0.28097
                       3.11655                      -0.06055                      -0.26313
                       3.11582                      -0.05324                      -0.24380
                       3.11466                      -0.04112                      -0.21954
                       3.11387                      -0.03301                      -0.20545
        </DataArray>
        <DataArray type="Float32" Name="TranslationalAcceleration" NumberOfComponents="3" format="ascii">
                       0.85247                     -11.09438                       9.74379
                       1.03504                     -13.44127                      11.75566
                       2.86749                     -39.08553                      32.92655
                       4.51822                     -63.01164                      51.98573
                       6.50571                     -91.19211                      73.92323
                       9.09342                    -122.36878                      99.77892
                      12.06891                    -151.88357                     125.85457
                      15.47027                    -181.26651                     151.83943
                      19.31690                    -210.87707                     178.08772
                      23.52411                    -240.84377                     204.70388
                      27.89337                    -271.12033                     231.61653
                      32.10784                    -301.51197                     258.68880
                      35.71883                    -331.78923                     285.73151
                      38.13698                    -361.74989                     312.57498
                      38.62184                    -391.28903                     339.12544
                      36.84054                    -415.61696                     361.05094
                      33.62248                    -434.94167                     378.60076
                      28.41939                    -453.98488                     396.62736
                      24.93341                    -463.87642                     405.43701
        </DataArray>
        <DataArray type="Float32" Name="OrientationX" NumberOfComponents="3" format="ascii">
                       0.99273                       0.03272                      -0.11581
                       0.99286                       0.03177                      -0.11497
                       0.99327                       0.02881                      -0.11221
                       0.99383                       0.02455                      -0.10813
                       0.99468                       0.01775                      -0.10148
                       0.99577                       0.00796                      -0.09149
                       0.99683                      -0.00285                      -0.07956
                       0.99773                      -0.01387                      -0.06586
                       0.99843                      -0.02428                      -0.05050
                       0.99888                      -0.03326                      -0.03359
                       0.99908                      -0.04001                      -0.01533
                       0.99903                      -0.04377                       0.00399
                       0.99875                      -0.04383                       0.02385
                       0.99827                      -0.03954                       0.04351
                       0.99762                      -0.03035                       0.06192
                       0.99698                      -0.01874                       0.07540
                       0.99643                      -0.00656                       0.08415
                       0.99587                       0.00824                       0.09042
                       0.99558                       0.01663                       0.09241
        </DataArray>
        <DataArray type="Float32" Name="OrientationY" NumberOfComponents="3" format="ascii">
                      -0.06538                      -0.66131                      -0.74726
                      -0.06537                      -0.66134                      -0.74723
                      -0.06522                      -0.66143                      -0.74717
                      -0.06494                      -0.66153                      -0.74710
                      -0.06441                      -0.66167                      -0.74702
                      -0.06334                      -0.66182                      -0.74698
                      -0.06151                      -0.66196                      -0.74701
                      -0.05852                      -0.66210                      -0.74713
                      -0.05390                      -0.66230                      -0.74730
                      -0.04720                      -0.66260                      -0.74749
                      -0.03802                      -0.66305                      -0.74761
                      -0.02609                      -0.66368                      -0.74756
                      -0.01132                      -0.66447                      -0.74723
                       0.00618                      -0.66535                      -0.74651
                       0.02600                      -0.66617                      -0.74535
                       0.04374                      -0.66666                      -0.74408
                       0.05835                      -0.66683                      -0.74292
                       0.07286                      -0.66672                      -0.74174
                       0.07993                      -0.66654                      -0.74118
        </DataArray>
        <DataArray type="Float32" Name="OrientationZ" NumberOfComponents="3" format="ascii">
                      -0.10104                       0.74940                      -0.65437
                      -0.09977                       0.74941                      -0.65454
                      -0.09574                       0.74945                      -0.65510
                      -0.08987                       0.74951                      -0.65586
                      -0.08041                       0.74958                      -0.65701
                      -0.06650                       0.74962                      -0.65852
                      -0.05053                       0.74954                      -0.66003
                      -0.03324                       0.74929                      -0.66141
                      -0.01530                       0.74885                      -0.66256
                       0.00260                       0.74824                      -0.66342
                       0.01975                       0.74751                      -0.66396
                       0.03537                       0.74674                      -0.66418
                       0.04859                       0.74603                      -0.66414
                       0.05847                       0.74548                      -0.66395
                       0.06388                       0.74518                      -0.66379
                       0.06421                       0.74512                      -0.66383
                       0.06099                       0.74518                      -0.66407
                       0.05417                       0.74526                      -0.66457
                       0.04927                       0.74529                      -0.66492
        </DataArray>
        <DataArray type="Float32" Name="Force" NumberOfComponents="3" format="ascii">
                      -0.77548                      -7.84435                      -8.86381
                     382.42006                     -85.18989                    -155.83760
                     531.78929                    -279.70412                    -397.82178
                     504.92001                    -433.72151                    -565.15888
                    6711.64663                     819.47087                     114.33528
                    8746.18815                     782.87581                       9.13857
                   10839.65403                     669.00320                     -68.81500
                   14290.42580                     525.37882                    -121.54325
                   15256.82752                     178.41827                    -149.59685
                   16840.98983                     -95.64861                     -41.09653
                   19514.63001                    -457.78411                      65.20913
                   20188.36907                    -717.26205                     268.01491
                   19531.19657                    -760.60472                     573.36171
                   18231.41538                    -821.59359                     680.95861
                   15124.36515                    -712.69602                     653.30796
                   11041.36090                    -571.62943                     425.18313
                    6780.86964                    -408.88294                     163.64256
                    1913.18532                    -201.31928                     -69.80955
                  -16570.06587                    1130.65338                      38.84589
        </DataArray>
        <DataArray type="Float32" Name="Moment" NumberOfComponents="3" format="ascii">
                       0.00000                       0.00000                       0.00000
                       0.00000                       0.00000                       0.00000
                       0.00000                       0.00000                       0.00000
                       0.00000                       0.00000                       0.00000
                     166.28323                   -1551.43126                    1358.44741
                     275.54019                   -3110.14763                    2728.33119
                     282.89849                   -4203.60342                    3695.38074
                     266.90026                   -6030.49085                    5313.55063
                     169.60944                   -8332.82914                    7359.60016
                     -32.90409                   -9349.99261                    8277.49346
                    -264.56482                  -10012.49753                    8884.06889
                    -498.48797                  -10531.67178                    9363.99657
                    -553.46938                   -8503.13031                    7573.57555
                    -641.57612                   -8185.89479                    7300.53483
                    -654.44313                   -7638.78029                    6817.47174
                    -611.62183                   -7100.23237                    6337.11787
                    -508.48453                   -6213.94319                    5543.74080
                    -222.75558                   -3063.90205                    2730.99972
                    -185.48455                   -2804.15116                    2497.86296
        </DataArray>
      </PointData>
      <Lines>
        <DataArray type="Int32" Name="connectivity" format="ascii">
      0      1
      1      2
      2      3
      3      4
      4      5
      5      6
      6      7
      7      8
      8      9
      9     10
     10     11
     11     12
     12     13
     13     14
     14     15
     15     16
     16     17
     17     18
        </DataArray>
        <DataArray type="Int32" Name="offsets" format="ascii">
      2
      4
      6
      8
     10
     12
     14
     16
     18
     20
     22
     24
     26
     28
     30
     32
     34
     36
        </DataArray>
      </Lines>
    </Piece>
  </PolyData>
</VTKFile>
