<?xml version="1.0"?>
<VTKFile type="PolyData" version="0.1" byte_order="LittleEndian">
  <PolyData>
    <Piece NumberOfPoints="     19" NumberOfVerts="  0" NumberOfLines="     18"
           NumberOfStrips="  0" NumberOfPolys="      0">
      <Points>
        <DataArray type="Float32" NumberOfComponents="3" format="ascii">
                      -4.93645                      -0.25301                      91.47714
                      -4.87763                      -0.48718                      92.82281
                      -4.77351                      -1.04985                      95.49869
                      -4.66295                      -1.65837                      98.16697
                      -4.49817                      -2.44812                     101.49710
                      -4.18652                      -3.25911                     105.51053
                      -3.77261                      -3.94654                     109.53721
                      -3.27411                      -4.63587                     113.55439
                      -2.68243                      -5.32516                     117.55926
                      -1.99540                      -6.01604                     121.54899
                      -1.21510                      -6.71182                     125.52117
                      -0.34538                      -7.41068                     129.47477
                       0.60429                      -8.11226                     133.40991
                       1.61988                      -8.81624                     137.32815
                       2.68496                      -9.52253                     141.23207
                       3.59407                     -10.11277                     144.47792
                       4.32386                     -10.57817                     147.07397
                       5.05289                     -10.99061                     149.67925
                       5.40449                     -11.23791                     150.97728
        </DataArray>
      </Points>
      <PointData>
        <DataArray type="Float32" Name="TranslationalVelocity" NumberOfComponents="3" format="ascii">
                      -0.06928                      -4.64032                      -0.79183
                      -0.13331                      -8.86896                      -1.52488
                      -0.28638                     -17.27878                      -3.28732
                      -0.45100                     -25.67343                      -5.19527
                      -0.66354                     -36.16872                      -7.67483
                      -0.87940                     -48.86576                     -10.22612
                      -1.05900                     -61.65242                     -12.39322
                      -1.23698                     -74.45240                     -14.56992
                      -1.41264                     -87.25816                     -16.75000
                      -1.58610                    -100.05972                     -18.93856
                      -1.75765                    -112.84679                     -21.14601
                      -1.92566                    -125.61283                     -23.36672
                      -2.08839                    -138.35323                     -25.59976
                      -2.24339                    -151.06693                     -27.84445
                      -2.38746                    -163.75579                     -30.10110
                      -2.49582                    -174.31671                     -31.99126
                      -2.57080                    -182.76660                     -33.48502
                      -2.61974                    -191.24783                     -34.81414
                      -2.65144                    -195.47108                     -35.61033
        </DataArray>
        <DataArray type="Float32" Name="RotationalVelocity" NumberOfComponents="3" format="ascii">
                       3.12964                      -0.00000                      -0.27381
                       3.13040                       0.00012                      -0.27389
                       3.13250                       0.00049                      -0.27419
                       3.13517                       0.00101                      -0.27478
                       3.13892                       0.00181                      -0.27604
                       3.14358                       0.00292                      -0.27842
                       3.14803                       0.00411                      -0.28157
                       3.15204                       0.00533                      -0.28521
                       3.15552                       0.00657                      -0.28890
                       3.15850                       0.00783                      -0.29219
                       3.16110                       0.00917                      -0.29465
                       3.16344                       0.01066                      -0.29593
                       3.16566                       0.01243                      -0.29583
                       3.16787                       0.01465                      -0.29437
                       3.17008                       0.01752                      -0.29186
                       3.17186                       0.02058                      -0.28941
                       3.17315                       0.02361                      -0.28762
                       3.17422                       0.02726                      -0.28642
                       3.17462                       0.02935                      -0.28619
        </DataArray>
        <DataArray type="Float32" Name="TranslationalAcceleration" NumberOfComponents="3" format="ascii">
                      -1.27056                       2.49710                     -14.52252
                      -1.53794                       3.05858                     -17.56638
                      -4.38803                       9.69530                     -50.13196
                      -7.00807                      16.34842                     -80.03271
                     -10.08439                      24.56009                    -114.95673
                     -13.65585                      32.72798                    -154.99731
                     -17.23796                      39.53842                    -194.32059
                     -20.91688                      46.38849                    -233.60763
                     -24.74935                      53.32731                    -273.31273
                     -28.74996                      60.37806                    -313.55202
                     -32.89535                      67.53631                    -354.20528
                     -37.12890                      74.71979                    -395.02676
                     -41.36467                      81.85246                    -435.73804
                     -45.49190                      88.86833                    -476.13097
                     -49.37927                      95.73093                    -516.16424
                     -52.32106                     101.33639                    -549.41034
                     -54.41818                     105.69205                    -576.15486
                     -56.20957                     109.49303                    -603.40200
                     -57.00545                     111.82493                    -617.22137
        </DataArray>
        <DataArray type="Float32" Name="OrientationX" NumberOfComponents="3" format="ascii">
                       0.99899                      -0.00736                      -0.04424
                       0.99893                      -0.00713                      -0.04577
                       0.99869                      -0.00648                      -0.05067
                       0.99831                      -0.00562                      -0.05785
                       0.99757                      -0.00440                      -0.06949
                       0.99623                      -0.00297                      -0.08675
                       0.99428                      -0.00198                      -0.10681
                       0.99165                      -0.00190                      -0.12893
                       0.98831                      -0.00318                      -0.15243
                       0.98426                      -0.00630                      -0.17660
                       0.97959                      -0.01167                      -0.20069
                       0.97443                      -0.01965                      -0.22383
                       0.96904                      -0.03046                      -0.24501
                       0.96377                      -0.04424                      -0.26302
                       0.95910                      -0.06094                      -0.27643
                       0.95603                      -0.07687                      -0.28301
                       0.95443                      -0.09086                      -0.28425
                       0.95381                      -0.10575                      -0.28120
                       0.95391                      -0.11346                      -0.27783
        </DataArray>
        <DataArray type="Float32" Name="OrientationY" NumberOfComponents="3" format="ascii">
                       0.01471                       0.98564                       0.16819
                       0.01475                       0.98561                       0.16836
                       0.01496                       0.98554                       0.16879
                       0.01536                       0.98544                       0.16932
                       0.01619                       0.98530                       0.17006
                       0.01782                       0.98512                       0.17096
                       0.02042                       0.98493                       0.17176
                       0.02428                       0.98475                       0.17229
                       0.02976                       0.98458                       0.17240
                       0.03715                       0.98441                       0.17191
                       0.04669                       0.98422                       0.17066
                       0.05855                       0.98396                       0.16852
                       0.07274                       0.98354                       0.16539
                       0.08913                       0.98288                       0.16126
                       0.10742                       0.98186                       0.15625
                       0.12373                       0.98067                       0.15161
                       0.13725                       0.97946                       0.14775
                       0.15088                       0.97802                       0.14395
                       0.15763                       0.97721                       0.14214
        </DataArray>
        <DataArray type="Float32" Name="OrientationZ" NumberOfComponents="3" format="ascii">
                       0.04237                      -0.16867                       0.98476
                       0.04391                      -0.16886                       0.98466
                       0.04884                      -0.16933                       0.98435
                       0.05606                      -0.16992                       0.98386
                       0.06772                      -0.17077                       0.98298
                       0.08495                      -0.17186                       0.98145
                       0.10486                      -0.17295                       0.97933
                       0.12664                      -0.17398                       0.97657
                       0.14953                      -0.17492                       0.97316
                       0.17277                      -0.17577                       0.96915
                       0.19553                      -0.17655                       0.96467
                       0.21693                      -0.17731                       0.95995
                       0.23594                      -0.17809                       0.95531
                       0.25139                      -0.17886                       0.95122
                       0.26189                      -0.17956                       0.94825
                       0.26588                      -0.17996                       0.94706
                       0.26499                      -0.18003                       0.94730
                       0.25979                      -0.17973                       0.94879
                       0.25537                      -0.17939                       0.95006
        </DataArray>
        <DataArray type="Float32" Name="Force" NumberOfComponents="3" format="ascii">
                       0.39955                      26.76287                       4.56683
                     485.70807                     216.69786                      15.46243
                     651.93529                     557.71766                      63.23241
                     617.20710                     775.65773                      97.84831
                    7128.19412                   -1110.12219                    -681.67557
                    9656.26141                   -1344.32075                   -1066.89806
                   11709.02379                   -1251.23613                   -1469.05581
                   15171.37280                   -1256.69134                   -2183.60792
                   16039.87820                    -969.93455                   -2631.04448
                   17667.82355                    -901.98302                   -3303.60562
                   20429.24480                    -822.62556                   -4279.88046
                   21402.34249                    -807.00820                   -4971.42953
                   21629.28427                   -1067.88106                   -5520.83898
                   20685.84669                   -1065.85520                   -5644.29894
                   17766.48371                    -907.63659                   -5056.83279
                   13967.15624                    -673.25682                   -4031.62513
                    9976.33517                    -416.90822                   -2858.39802
                    4542.65672                    -110.20039                   -1260.86952
                  -17668.78442                    -214.97411                    4703.56067
        </DataArray>
        <DataArray type="Float32" Name="Moment" NumberOfComponents="3" format="ascii">
                       0.00000                       0.00000                       0.00000
                       0.00000                       0.00000                       0.00000
                       0.00000                       0.00000                       0.00000
                       0.00000                       0.00000                       0.00000
                    -126.27141                     314.63370                   -1832.79115
                    -356.39975                     707.97942                   -4117.76973
                    -610.73280                     982.56985                   -5704.69258
                   -1068.18518                    1422.02157                   -8239.97646
                   -1747.12764                    1967.36633                  -11376.44435
                   -2271.85434                    2210.16721                  -12753.41543
                   -2760.95601                    2367.73722                  -13634.02740
                   -3235.78250                    2494.47271                  -14335.18968
                   -2907.13588                    2054.72121                  -11786.87993
                   -3007.55655                    1989.89415                  -11398.19017
                   -2898.52108                    1837.27161                  -10513.32023
                   -2703.63454                    1686.72738                   -9648.14076
                   -2357.15313                    1475.76269                   -8442.14387
                   -1139.63462                     728.50718                   -4169.54376
                    -986.72285                     642.21776                   -3677.24250
        </DataArray>
      </PointData>
      <Lines>
        <DataArray type="Int32" Name="connectivity" format="ascii">
      0      1
      1      2
      2      3
      3      4
      4      5
      5      6
      6      7
      7      8
      8      9
      9     10
     10     11
     11     12
     12     13
     13     14
     14     15
     15     16
     16     17
     17     18
        </DataArray>
        <DataArray type="Int32" Name="offsets" format="ascii">
      2
      4
      6
      8
     10
     12
     14
     16
     18
     20
     22
     24
     26
     28
     30
     32
     34
     36
        </DataArray>
      </Lines>
    </Piece>
  </PolyData>
</VTKFile>
