<?xml version="1.0"?>
<VTKFile type="PolyData" version="0.1" byte_order="LittleEndian">
  <PolyData>
    <Piece NumberOfPoints="    625" NumberOfVerts="  0" NumberOfLines="      0"
           NumberOfStrips="  0" NumberOfPolys="    600">
      <Points>
        <DataArray type="Float32" NumberOfComponents="3" format="ascii">
                      -5.12446                       0.45904                      88.57740
                      -5.12446                       0.45904                      88.57740
                      -5.12446                       0.45904                      88.57740
                      -5.12446                       0.45904                      88.57740
                      -5.12446                       0.45904                      88.57740
                      -5.12446                       0.45904                      88.57740
                      -5.12446                       0.45904                      88.57740
                      -5.12446                       0.45904                      88.57740
                      -5.12446                       0.45904                      88.57740
                      -5.12446                       0.45904                      88.57740
                      -5.12446                       0.45904                      88.57740
                      -5.12446                       0.45904                      88.57740
                      -5.12446                       0.45904                      88.57740
                      -5.12446                       0.45904                      88.57740
                      -5.12446                       0.45904                      88.57740
                      -5.12446                       0.45904                      88.57740
                      -5.12446                       0.45904                      88.57740
                      -5.12446                       0.45904                      88.57740
                      -5.12446                       0.45904                      88.57740
                      -5.12446                       0.45904                      88.57740
                      -5.12446                       0.45904                      88.57740
                      -5.12446                       0.45904                      88.57740
                      -5.12446                       0.45904                      88.57740
                      -5.12446                       0.45904                      88.57740
                      -5.12446                       0.45904                      88.57740
                      -4.51689                       0.42079                      88.64371
                      -4.53168                       0.56272                      88.69080
                      -4.58306                       0.69573                      88.73821
                      -4.66781                       0.81147                      88.78297
                      -4.78060                       0.90266                      88.82227
                      -4.91434                       0.96357                      88.85362
                      -5.06063                       0.99038                      88.87507
                      -5.21029                       0.98140                      88.88527
                      -5.35390                       0.93719                      88.88356
                      -5.48244                       0.86053                      88.87008
                      -5.58784                       0.75625                      88.84565
                      -5.66346                       0.63088                      88.81181
                      -5.70458                       0.49232                      88.77070
                      -5.70858                       0.34926                      88.72488
                      -5.67524                       0.21069                      88.67725
                      -5.60663                       0.08533                      88.63080
                      -5.50708                      -0.01896                      88.58844
                      -5.38283                      -0.09561                      88.55283
                      -5.24170                      -0.13982                      88.52622
                      -5.09255                      -0.14880                      88.51027
                      -4.94475                      -0.12200                      88.50599
                      -4.80760                      -0.06108                      88.51365
                      -4.68970                       0.03010                      88.53276
                      -4.59847                       0.14584                      88.56212
                      -4.53963                       0.27886                      88.59990
                      -4.27772                       0.38253                      88.74224
                      -4.29817                       0.57884                      88.80737
                      -4.36923                       0.76282                      88.87295
                      -4.48645                       0.92290                      88.93486
                      -4.64245                       1.04903                      88.98921
                      -4.82744                       1.13328                      89.03258
                      -5.02978                       1.17035                      89.06225
                      -5.23677                       1.15793                      89.07635
                      -5.43540                       1.09678                      89.07399
                      -5.61319                       0.99076                      89.05534
                      -5.75897                       0.84652                      89.02155
                      -5.86357                       0.67312                      88.97475
                      -5.92043                       0.48147                      88.91788
                      -5.92598                       0.28360                      88.85452
                      -5.87986                       0.09195                      88.78864
                      -5.78497                      -0.08145                      88.72439
                      -5.64727                      -0.22569                      88.66580
                      -5.47542                      -0.33171                      88.61655
                      -5.28022                      -0.39286                      88.57974
                      -5.07393                      -0.40528                      88.55769
                      -4.86950                      -0.36821                      88.55176
                      -4.67980                      -0.28396                      88.56235
                      -4.51673                      -0.15783                      88.58878
                      -4.39054                       0.00225                      88.62940
                      -4.30917                       0.18622                      88.68164
                      -4.10497                       0.34428                      88.84658
                      -4.12944                       0.57918                      88.92452
                      -4.21447                       0.79932                      89.00299
                      -4.35473                       0.99087                      89.07707
                      -4.54140                       1.14180                      89.14210
                      -4.76275                       1.24261                      89.19400
                      -5.00488                       1.28697                      89.22950
                      -5.25256                       1.27211                      89.24637
                      -5.49023                       1.19894                      89.24356
                      -5.70297                       1.07207                      89.22123
                      -5.87741                       0.89948                      89.18080
                      -6.00258                       0.69200                      89.12480
                      -6.07062                       0.46267                      89.05675
                      -6.07725                       0.22590                      88.98093
                      -6.02206                      -0.00343                      88.90211
                      -5.90852                      -0.21091                      88.82522
                      -5.74375                      -0.38351                      88.75511
                      -5.53812                      -0.51038                      88.69619
                      -5.30455                      -0.58354                      88.65214
                      -5.05770                      -0.59841                      88.62575
                      -4.81309                      -0.55404                      88.61866
                      -4.58609                      -0.45323                      88.63133
                      -4.39096                      -0.30231                      88.66296
                      -4.23997                      -0.11076                      88.71156
                      -4.14260                       0.10938                      88.77408
                      -3.96920                       0.30603                      88.95416
                      -3.99677                       0.57073                      89.04199
                      -4.09260                       0.81880                      89.13042
                      -4.25065                       1.03466                      89.21390
                      -4.46100                       1.20472                      89.28718
                      -4.71044                       1.31833                      89.34566
                      -4.98328                       1.36832                      89.38566
                      -5.26238                       1.35157                      89.40467
                      -5.53022                       1.26912                      89.40150
                      -5.76995                       1.12616                      89.37634
                      -5.96651                       0.93166                      89.33078
                      -6.10756                       0.69786                      89.26768
                      -6.18423                       0.43943                      89.19100
                      -6.19171                       0.17262                      89.10556
                      -6.12952                      -0.08580                      89.01673
                      -6.00157                      -0.31961                      88.93009
                      -5.81590                      -0.51410                      88.85109
                      -5.58418                      -0.65706                      88.78468
                      -5.32097                      -0.73951                      88.73505
                      -5.04280                      -0.75627                      88.70531
                      -4.76716                      -0.70627                      88.69733
                      -4.51136                      -0.59267                      88.71160
                      -4.29148                      -0.42260                      88.74724
                      -4.12133                      -0.20675                      88.80201
                      -4.01160                       0.04132                      88.87246
                      -3.85889                       0.26777                      89.06397
                      -3.88894                       0.55623                      89.15967
                      -3.99336                       0.82656                      89.25604
                      -4.16560                       1.06178                      89.34701
                      -4.39483                       1.24711                      89.42686
                      -4.66664                       1.37090                      89.49059
                      -4.96396                       1.42538                      89.53418
                      -5.26811                       1.40713                      89.55490
                      -5.55997                       1.31728                      89.55144
                      -5.82121                       1.16149                      89.52403
                      -6.03542                       0.94954                      89.47438
                      -6.18912                       0.69476                      89.40562
                      -6.27267                       0.41315                      89.32205
                      -6.28082                       0.12240                      89.22895
                      -6.21305                      -0.15921                      89.13215
                      -6.07362                      -0.41400                      89.03774
                      -5.87129                      -0.62594                      88.95165
                      -5.61878                      -0.78173                      88.87929
                      -5.33195                      -0.87158                      88.82520
                      -5.02883                      -0.88983                      88.79279
                      -4.72845                      -0.83535                      88.78409
                      -4.44970                      -0.71156                      88.79965
                      -4.21009                      -0.52623                      88.83849
                      -4.02467                      -0.29101                      88.89816
                      -3.90510                      -0.02068                      88.97493
                      -3.76814                       0.22952                      89.17548
                      -3.80018                       0.53708                      89.27753
                      -3.91152                       0.82531                      89.38028
                      -4.09516                       1.07611                      89.47727
                      -4.33957                       1.27371                      89.56242
                      -4.62938                       1.40571                      89.63036
                      -4.94639                       1.46379                      89.67684
                      -5.27069                       1.44433                      89.69893
                      -5.58188                       1.34853                      89.69525
                      -5.86042                       1.18242                      89.66602
                      -6.08881                       0.95644                      89.61308
                      -6.25270                       0.68479                      89.53976
                      -6.34178                       0.38452                      89.45066
                      -6.35046                       0.07452                      89.35139
                      -6.27821                      -0.22574                      89.24818
                      -6.12954                      -0.49740                      89.14752
                      -5.91382                      -0.72338                      89.05573
                      -5.64458                      -0.88949                      88.97857
                      -5.33876                      -0.98529                      88.92090
                      -5.01555                      -1.00475                      88.88635
                      -4.69529                      -0.94666                      88.87707
                      -4.39808                      -0.81467                      88.89366
                      -4.14260                      -0.61707                      88.93507
                      -3.94490                      -0.36627                      88.99870
                      -3.81741                      -0.07804                      89.08055
                      -3.69346                       0.19127                      89.28841
                      -3.72709                       0.51411                      89.39552
                      -3.84396                       0.81666                      89.50338
                      -4.03673                       1.07992                      89.60519
                      -4.29328                       1.28735                      89.69457
                      -4.59750                       1.42590                      89.76589
                      -4.93027                       1.48687                      89.81468
                      -5.27067                       1.46644                      89.83787
                      -5.59733                       1.36588                      89.83400
                      -5.88971                       1.19152                      89.80332
                      -6.12945                       0.95431                      89.74775
                      -6.30148                       0.66915                      89.67078
                      -6.39499                       0.35397                      89.57726
                      -6.40411                       0.02856                      89.47306
                      -6.32826                      -0.28662                      89.36472
                      -6.17221                      -0.57178                      89.25905
                      -5.94576                      -0.80899                      89.16270
                      -5.66315                      -0.98335                      89.08171
                      -5.34212                      -1.08391                      89.02118
                      -5.00286                      -1.10434                      88.98490
                      -4.66668                      -1.04336                      88.97517
                      -4.35470                      -0.90481                      88.99258
                      -4.08653                      -0.69739                      89.03605
                      -3.87901                      -0.43413                      89.10284
                      -3.74518                      -0.13157                      89.18876
                      -3.63266                       0.15301                      89.40255
                      -3.66754                       0.48784                      89.51364
                      -3.78875                       0.80163                      89.62550
                      -3.98867                       1.07466                      89.73109
                      -4.25475                       1.28979                      89.82378
                      -4.57026                       1.43348                      89.89776
                      -4.91538                       1.49672                      89.94835
                      -5.26842                       1.47553                      89.97240
                      -5.60721                       1.37124                      89.96839
                      -5.91045                       1.19040                      89.93657
                      -6.15909                       0.94439                      89.87894
                      -6.33750                       0.64864                      89.79912
                      -6.43448                       0.32176                      89.70212
                      -6.44394                      -0.01573                      89.59405
                      -6.36527                      -0.34262                      89.48169
                      -6.20343                      -0.63836                      89.37210
                      -5.96857                      -0.88438                      89.27217
                      -5.67547                      -1.06521                      89.18818
                      -5.34253                      -1.16950                      89.12539
                      -4.99067                      -1.19069                      89.08777
                      -4.64201                      -1.12745                      89.07768
                      -4.31845                      -0.98376                      89.09573
                      -4.04031                      -0.76864                      89.14082
                      -3.82509                      -0.49560                      89.21009
                      -3.68630                      -0.18181                      89.29920
                      -3.58427                       0.11476                      89.51777
                      -3.62010                       0.45862                      89.63186
                      -3.74458                       0.78088                      89.74674
                      -3.94990                       1.06128                      89.85518
                      -4.22315                       1.28220                      89.95037
                      -4.54718                       1.42977                      90.02634
                      -4.90161                       1.49472                      90.07831
                      -5.26418                       1.47296                      90.10300
                      -5.61210                       1.36585                      90.09888
                      -5.92352                       1.18014                      90.06620
                      -6.17887                       0.92748                      90.00702
                      -6.36210                       0.62376                      89.92504
                      -6.46169                       0.28806                      89.82543
                      -6.47140                      -0.05854                      89.71444
                      -6.39062                      -0.39424                      89.59905
                      -6.22441                      -0.69796                      89.48650
                      -5.98322                      -0.95062                      89.38388
                      -5.68220                      -1.13633                      89.29762
                      -5.34028                      -1.24344                      89.23314
                      -4.97893                      -1.26520                      89.19451
                      -4.62086                      -1.20025                      89.18413
                      -4.28857                      -1.05268                      89.20268
                      -4.00293                      -0.83175                      89.24898
                      -3.78190                      -0.55135                      89.32012
                      -3.63936                      -0.22910                      89.41163
                      -3.54735                       0.07651                      89.63400
                      -3.58383                       0.42668                      89.75018
                      -3.71060                       0.75485                      89.86717
                      -3.91968                       1.04039                      89.97760
                      -4.19795                       1.26537                      90.07454
                      -4.52792                       1.41565                      90.15190
                      -4.88886                       1.48179                      90.20482
                      -5.25808                       1.45963                      90.22997
                      -5.61239                       1.35056                      90.22577
                      -5.92952                       1.16144                      90.19249
                      -6.18956                       0.90414                      90.13222
                      -6.37615                       0.59485                      90.04874
                      -6.47757                       0.25298                      89.94730
                      -6.48746                      -0.09997                      89.83428
                      -6.40519                      -0.44183                      89.71677
                      -6.23593                      -0.75113                      89.60216
                      -5.99031                      -1.00842                      89.49765
                      -5.68378                      -1.19754                      89.40980
                      -5.33558                      -1.30661                      89.34415
                      -4.96760                      -1.32878                      89.30480
                      -4.60296                      -1.26264                      89.29424
                      -4.26457                      -1.11236                      89.31313
                      -3.97369                      -0.88738                      89.36027
                      -3.74861                      -0.60183                      89.43272
                      -3.60345                      -0.27366                      89.52591
                      -3.52128                       0.03825                      89.75117
                      -3.55815                       0.39216                      89.86860
                      -3.68626                       0.72382                      89.98683
                      -3.89758                       1.01241                      90.09844
                      -4.17881                       1.23979                      90.19641
                      -4.51230                       1.39167                      90.27460
                      -4.87708                       1.45851                      90.32808
                      -5.25024                       1.43611                      90.35350
                      -5.60832                       1.32588                      90.34926
                      -5.92884                       1.13475                      90.31562
                      -6.19164                       0.87471                      90.25471
                      -6.38022                       0.56212                      90.17034
                      -6.48273                       0.21661                      90.06782
                      -6.49272                      -0.14010                      89.95359
                      -6.40957                      -0.48561                      89.83483
                      -6.23851                      -0.79820                      89.71900
                      -5.99028                      -1.05824                      89.61337
                      -5.68047                      -1.24938                      89.52459
                      -5.32856                      -1.35961                      89.45823
                      -4.95666                      -1.38201                      89.41847
                      -4.58813                      -1.31516                      89.40779
                      -4.24614                      -1.16328                      89.42688
                      -3.95216                      -0.93590                      89.47453
                      -3.72468                      -0.64731                      89.54775
                      -3.57798                      -0.31565                      89.64194
                      -3.50571                       0.00000                      89.86927
                      -3.54271                       0.35514                      89.98710
                      -3.67127                       0.68796                      90.10574
                      -3.88332                       0.97756                      90.21774
                      -4.16554                       1.20573                      90.31606
                      -4.50019                       1.35814                      90.39452
                      -4.86624                       1.42522                      90.44819
                      -5.24070                       1.40274                      90.47370
                      -5.60004                       1.29212                      90.46944
                      -5.92167                       1.10032                      90.43569
                      -6.18539                       0.83938                      90.37456
                      -6.37463                       0.52569                      90.28990
                      -6.47750                       0.17898                      90.18702
                      -6.48752                      -0.17898                      90.07239
                      -6.40409                      -0.52569                      89.95322
                      -6.23242                      -0.83938                      89.83698
                      -5.98332                      -1.10032                      89.73098
                      -5.67244                      -1.29212                      89.64189
                      -5.31930                      -1.40274                      89.57531
                      -4.94610                      -1.42522                      89.53540
                      -4.57629                      -1.35814                      89.52469
                      -4.23310                      -1.20573                      89.54385
                      -3.93810                      -0.97756                      89.59166
                      -3.70982                      -0.68796                      89.66514
                      -3.56260                      -0.35514                      89.75965
                      -3.50053                      -0.03825                      89.98827
                      -3.53740                       0.31565                      90.10570
                      -3.66552                       0.64731                      90.22393
                      -3.87683                       0.93590                      90.33554
                      -4.15807                       1.16328                      90.43351
                      -4.49156                       1.31516                      90.51170
                      -4.85634                       1.38201                      90.56518
                      -5.22949                       1.35961                      90.59060
                      -5.58758                       1.24938                      90.58636
                      -5.90809                       1.05824                      90.55272
                      -6.17090                       0.79820                      90.49181
                      -6.35948                       0.48561                      90.40744
                      -6.46198                       0.14010                      90.30492
                      -6.47198                      -0.21661                      90.19069
                      -6.38883                      -0.56212                      90.07193
                      -6.21777                      -0.87471                      89.95610
                      -5.96953                      -1.13475                      89.85047
                      -5.65973                      -1.32588                      89.76169
                      -5.30782                      -1.43611                      89.69533
                      -4.93592                      -1.45851                      89.65557
                      -4.56739                      -1.39167                      89.64489
                      -4.22540                      -1.23979                      89.66398
                      -3.93142                      -1.01241                      89.71163
                      -3.70393                      -0.72382                      89.78485
                      -3.55723                      -0.39216                      89.87904
                      -3.50587                      -0.07651                      90.10820
                      -3.54234                       0.27366                      90.22438
                      -3.66911                       0.60183                      90.34136
                      -3.87820                       0.88738                      90.45180
                      -4.15647                       1.11236                      90.54874
                      -4.48644                       1.26264                      90.62610
                      -4.84737                       1.32878                      90.67902
                      -5.21659                       1.30661                      90.70417
                      -5.57090                       1.19754                      90.69997
                      -5.88804                       1.00842                      90.66669
                      -6.14807                       0.75113                      90.60642
                      -6.33466                       0.44183                      90.52294
                      -6.43609                       0.09997                      90.42150
                      -6.44598                      -0.25298                      90.30848
                      -6.36370                      -0.59485                      90.19097
                      -6.19444                      -0.90414                      90.07636
                      -5.94883                      -1.16144                      89.97185
                      -5.64229                      -1.35056                      89.88400
                      -5.29409                      -1.45963                      89.81835
                      -4.92611                      -1.48179                      89.77900
                      -4.56147                      -1.41565                      89.76844
                      -4.22308                      -1.26537                      89.78733
                      -3.93221                      -1.04039                      89.83447
                      -3.70712                      -0.75485                      89.90692
                      -3.56197                      -0.42668                      90.00011
                      -3.52204                      -0.11476                      90.22907
                      -3.55786                       0.22910                      90.34316
                      -3.68235                       0.55135                      90.45804
                      -3.88767                       0.83175                      90.56648
                      -4.16092                       1.05268                      90.66167
                      -4.48495                       1.20025                      90.73764
                      -4.83938                       1.26520                      90.78961
                      -5.20195                       1.24344                      90.81430
                      -5.54987                       1.13633                      90.81018
                      -5.86129                       0.95062                      90.77750
                      -6.11664                       0.69796                      90.71832
                      -6.29986                       0.39424                      90.63634
                      -6.39946                       0.05854                      90.53673
                      -6.40917                      -0.28806                      90.42574
                      -6.32839                      -0.62376                      90.31035
                      -6.16217                      -0.92748                      90.19780
                      -5.92098                      -1.18014                      90.09518
                      -5.61997                      -1.36585                      90.00892
                      -5.27805                      -1.47296                      89.94444
                      -4.91670                      -1.49472                      89.90581
                      -4.55863                      -1.42977                      89.89543
                      -4.22634                      -1.28220                      89.91398
                      -3.94070                      -1.06128                      89.96028
                      -3.71967                      -0.78088                      90.03142
                      -3.57713                      -0.45862                      90.12293
                      -3.54968                      -0.15301                      90.35095
                      -3.58456                       0.18181                      90.46204
                      -3.70577                       0.49560                      90.57390
                      -3.90570                       0.76864                      90.67949
                      -4.17178                       0.98376                      90.77218
                      -4.48729                       1.12745                      90.84615
                      -4.83241                       1.19069                      90.89675
                      -5.18545                       1.16950                      90.92080
                      -5.52424                       1.06521                      90.91679
                      -5.82747                       0.88438                      90.88497
                      -6.07611                       0.63836                      90.82734
                      -6.25453                       0.34262                      90.74752
                      -6.35151                       0.01573                      90.65052
                      -6.36096                      -0.32176                      90.54245
                      -6.28230                      -0.64864                      90.43009
                      -6.12045                      -0.94439                      90.32050
                      -5.88560                      -1.19040                      90.22057
                      -5.59250                      -1.37124                      90.13658
                      -5.25955                      -1.47553                      90.07379
                      -4.90770                      -1.49672                      90.03617
                      -4.55903                      -1.43348                      90.02608
                      -4.23547                      -1.28979                      90.04413
                      -3.95734                      -1.07466                      90.08922
                      -3.74212                      -0.80163                      90.15849
                      -3.60332                      -0.48784                      90.24760
                      -3.58974                      -0.19127                      90.47391
                      -3.62337                       0.13157                      90.58102
                      -3.74025                       0.43413                      90.68888
                      -3.93301                       0.69739                      90.79069
                      -4.18957                       0.90481                      90.88007
                      -4.49378                       1.04336                      90.95139
                      -4.82655                       1.10434                      91.00018
                      -5.16696                       1.08391                      91.02337
                      -5.49361                       0.98335                      91.01950
                      -5.78600                       0.80899                      90.98882
                      -6.02573                       0.57178                      90.93325
                      -6.19776                       0.28662                      90.85628
                      -6.29127                      -0.02856                      90.76276
                      -6.30039                      -0.35397                      90.65856
                      -6.22454                      -0.66915                      90.55022
                      -6.06849                      -0.95431                      90.44455
                      -5.84204                      -1.19152                      90.34820
                      -5.55943                      -1.36588                      90.26721
                      -5.23841                      -1.46644                      90.20668
                      -4.89915                      -1.48687                      90.17040
                      -4.56296                      -1.42590                      90.16067
                      -4.25098                      -1.28735                      90.17808
                      -3.98281                      -1.07992                      90.22155
                      -3.77529                      -0.81666                      90.28834
                      -3.64146                      -0.51411                      90.37426
                      -3.64368                      -0.22952                      90.59808
                      -3.67572                       0.07804                      90.70013
                      -3.78705                       0.36627                      90.80288
                      -3.97070                       0.61707                      90.89987
                      -4.21511                       0.81467                      90.98502
                      -4.50492                       0.94666                      91.05296
                      -4.82193                       1.00475                      91.09944
                      -5.14623                       0.98529                      91.12153
                      -5.45742                       0.88949                      91.11785
                      -5.73596                       0.72338                      91.08862
                      -5.96435                       0.49740                      91.03568
                      -6.12823                       0.22574                      90.96236
                      -6.21732                      -0.07452                      90.87326
                      -6.22600                      -0.38452                      90.77399
                      -6.15374                      -0.68479                      90.67078
                      -6.00508                      -0.95644                      90.57012
                      -5.78935                      -1.18243                      90.47833
                      -5.52012                      -1.34853                      90.40117
                      -5.21429                      -1.44433                      90.34350
                      -4.89109                      -1.46379                      90.30895
                      -4.57082                      -1.40571                      90.29967
                      -4.27361                      -1.27371                      90.31626
                      -4.01813                      -1.07611                      90.35767
                      -3.82044                      -0.82531                      90.42130
                      -3.69295                      -0.53708                      90.50315
                      -3.71369                      -0.26777                      90.72367
                      -3.74373                       0.02068                      90.81937
                      -3.84816                       0.29101                      90.91574
                      -4.02039                       0.52623                      91.00671
                      -4.24962                       0.71156                      91.08656
                      -4.52143                       0.83535                      91.15029
                      -4.81876                       0.88983                      91.19388
                      -5.12291                       0.87158                      91.21460
                      -5.41477                       0.78173                      91.21114
                      -5.67601                       0.62594                      91.18373
                      -5.89021                       0.41400                      91.13408
                      -6.04392                       0.15921                      91.06532
                      -6.12747                      -0.12240                      90.98175
                      -6.13561                      -0.41315                      90.88865
                      -6.06784                      -0.69476                      90.79185
                      -5.92841                      -0.94954                      90.69744
                      -5.72609                      -1.16149                      90.61135
                      -5.47358                      -1.31728                      90.53899
                      -5.18675                      -1.40713                      90.48490
                      -4.88362                      -1.42538                      90.45249
                      -4.58325                      -1.37090                      90.44379
                      -4.30450                      -1.24711                      90.45935
                      -4.06488                      -1.06178                      90.49819
                      -3.87947                      -0.82656                      90.55786
                      -3.75990                      -0.55623                      90.63463
                      -3.80325                      -0.30603                      90.85096
                      -3.83082                      -0.04132                      90.93879
                      -3.92665                       0.20675                      91.02722
                      -4.08470                       0.42260                      91.11070
                      -4.29506                       0.59267                      91.18398
                      -4.54449                       0.70627                      91.24246
                      -4.81733                       0.75627                      91.28246
                      -5.09644                       0.73951                      91.30147
                      -5.36427                       0.65706                      91.29830
                      -5.60400                       0.51410                      91.27314
                      -5.80057                       0.31961                      91.22758
                      -5.94161                       0.08580                      91.16448
                      -6.01829                      -0.17262                      91.08780
                      -6.02576                      -0.43943                      91.00236
                      -5.96357                      -0.69786                      90.91353
                      -5.83562                      -0.93166                      90.82689
                      -5.64995                      -1.12616                      90.74789
                      -5.41823                      -1.26912                      90.68148
                      -5.15502                      -1.35157                      90.63185
                      -4.87685                      -1.36832                      90.60211
                      -4.60121                      -1.31833                      90.59413
                      -4.34541                      -1.20473                      90.60840
                      -4.12553                      -1.03466                      90.64404
                      -3.95538                      -0.81880                      90.69881
                      -3.84565                      -0.57073                      90.76926
                      -3.91827                      -0.34428                      90.98048
                      -3.94274                      -0.10938                      91.05842
                      -4.02778                       0.11076                      91.13689
                      -4.16804                       0.30231                      91.21097
                      -4.35471                       0.45323                      91.27600
                      -4.57606                       0.55404                      91.32790
                      -4.81818                       0.59841                      91.36340
                      -5.06586                       0.58354                      91.38027
                      -5.30354                       0.51038                      91.37746
                      -5.51628                       0.38351                      91.35513
                      -5.69072                       0.21091                      91.31470
                      -5.81589                       0.00343                      91.25870
                      -5.88393                      -0.22590                      91.19065
                      -5.89056                      -0.46267                      91.11483
                      -5.83537                      -0.69200                      91.03601
                      -5.72183                      -0.89948                      90.95912
                      -5.55706                      -1.07207                      90.88901
                      -5.35143                      -1.19894                      90.83009
                      -5.11785                      -1.27211                      90.78604
                      -4.87100                      -1.28697                      90.75965
                      -4.62640                      -1.24261                      90.75256
                      -4.39940                      -1.14180                      90.76523
                      -4.20427                      -0.99087                      90.79686
                      -4.05328                      -0.79932                      90.84546
                      -3.95591                      -0.57918                      90.90798
                      -4.07028                      -0.38253                      91.11324
                      -4.09073                      -0.18622                      91.17837
                      -4.16180                      -0.00225                      91.24395
                      -4.27902                       0.15783                      91.30586
                      -4.43502                       0.28396                      91.36021
                      -4.62000                       0.36821                      91.40358
                      -4.82235                       0.40528                      91.43325
                      -5.02934                       0.39286                      91.44735
                      -5.22797                       0.33171                      91.44499
                      -5.40576                       0.22569                      91.42634
                      -5.55153                       0.08145                      91.39255
                      -5.65614                      -0.09195                      91.34575
                      -5.71300                      -0.28360                      91.28888
                      -5.71854                      -0.48147                      91.22552
                      -5.67242                      -0.67312                      91.15964
                      -5.57753                      -0.84652                      91.09539
                      -5.43984                      -0.99076                      91.03680
                      -5.26799                      -1.09678                      90.98755
                      -5.07278                      -1.15793                      90.95074
                      -4.86649                      -1.17035                      90.92869
                      -4.66207                      -1.13328                      90.92276
                      -4.47236                      -1.04903                      90.93335
                      -4.30929                      -0.92290                      90.95978
                      -4.18311                      -0.76282                      91.00040
                      -4.10173                      -0.57884                      91.05264
                      -4.28871                      -0.42079                      91.25181
                      -4.30350                      -0.27886                      91.29890
                      -4.35488                      -0.14584                      91.34631
                      -4.43963                      -0.03010                      91.39107
                      -4.55242                       0.06108                      91.43037
                      -4.68616                       0.12200                      91.46172
                      -4.83246                       0.14880                      91.48317
                      -4.98211                       0.13982                      91.49337
                      -5.12572                       0.09561                      91.49166
                      -5.25426                       0.01896                      91.47818
                      -5.35966                      -0.08533                      91.45375
                      -5.43529                      -0.21069                      91.41991
                      -5.47640                      -0.34926                      91.37880
                      -5.48040                      -0.49232                      91.33298
                      -5.44706                      -0.63088                      91.28535
                      -5.37845                      -0.75625                      91.23890
                      -5.27890                      -0.86053                      91.19654
                      -5.15465                      -0.93719                      91.16093
                      -5.01352                      -0.98140                      91.13432
                      -4.86437                      -0.99038                      91.11837
                      -4.71657                      -0.96357                      91.11409
                      -4.57942                      -0.90266                      91.12175
                      -4.46152                      -0.81147                      91.14086
                      -4.37029                      -0.69573                      91.17022
                      -4.31145                      -0.56272                      91.20800
                      -4.87554                      -0.45904                      91.42260
                      -4.87554                      -0.45904                      91.42260
                      -4.87554                      -0.45904                      91.42260
                      -4.87554                      -0.45904                      91.42260
                      -4.87554                      -0.45904                      91.42260
                      -4.87554                      -0.45904                      91.42260
                      -4.87554                      -0.45904                      91.42260
                      -4.87554                      -0.45904                      91.42260
                      -4.87554                      -0.45904                      91.42260
                      -4.87554                      -0.45904                      91.42260
                      -4.87554                      -0.45904                      91.42260
                      -4.87554                      -0.45904                      91.42260
                      -4.87554                      -0.45904                      91.42260
                      -4.87554                      -0.45904                      91.42260
                      -4.87554                      -0.45904                      91.42260
                      -4.87554                      -0.45904                      91.42260
                      -4.87554                      -0.45904                      91.42260
                      -4.87554                      -0.45904                      91.42260
                      -4.87554                      -0.45904                      91.42260
                      -4.87554                      -0.45904                      91.42260
                      -4.87554                      -0.45904                      91.42260
                      -4.87554                      -0.45904                      91.42260
                      -4.87554                      -0.45904                      91.42260
                      -4.87554                      -0.45904                      91.42260
                      -4.87554                      -0.45904                      91.42260
        </DataArray>
      </Points>
      <Polys>
        <DataArray type="Int32" Name="connectivity" format="ascii">
      0      1     26     25
      1      2     27     26
      2      3     28     27
      3      4     29     28
      4      5     30     29
      5      6     31     30
      6      7     32     31
      7      8     33     32
      8      9     34     33
      9     10     35     34
     10     11     36     35
     11     12     37     36
     12     13     38     37
     13     14     39     38
     14     15     40     39
     15     16     41     40
     16     17     42     41
     17     18     43     42
     18     19     44     43
     19     20     45     44
     20     21     46     45
     21     22     47     46
     22     23     48     47
     23     24     49     48
     24      0     25     49
     25     26     51     50
     26     27     52     51
     27     28     53     52
     28     29     54     53
     29     30     55     54
     30     31     56     55
     31     32     57     56
     32     33     58     57
     33     34     59     58
     34     35     60     59
     35     36     61     60
     36     37     62     61
     37     38     63     62
     38     39     64     63
     39     40     65     64
     40     41     66     65
     41     42     67     66
     42     43     68     67
     43     44     69     68
     44     45     70     69
     45     46     71     70
     46     47     72     71
     47     48     73     72
     48     49     74     73
     49     25     50     74
     50     51     76     75
     51     52     77     76
     52     53     78     77
     53     54     79     78
     54     55     80     79
     55     56     81     80
     56     57     82     81
     57     58     83     82
     58     59     84     83
     59     60     85     84
     60     61     86     85
     61     62     87     86
     62     63     88     87
     63     64     89     88
     64     65     90     89
     65     66     91     90
     66     67     92     91
     67     68     93     92
     68     69     94     93
     69     70     95     94
     70     71     96     95
     71     72     97     96
     72     73     98     97
     73     74     99     98
     74     50     75     99
     75     76    101    100
     76     77    102    101
     77     78    103    102
     78     79    104    103
     79     80    105    104
     80     81    106    105
     81     82    107    106
     82     83    108    107
     83     84    109    108
     84     85    110    109
     85     86    111    110
     86     87    112    111
     87     88    113    112
     88     89    114    113
     89     90    115    114
     90     91    116    115
     91     92    117    116
     92     93    118    117
     93     94    119    118
     94     95    120    119
     95     96    121    120
     96     97    122    121
     97     98    123    122
     98     99    124    123
     99     75    100    124
    100    101    126    125
    101    102    127    126
    102    103    128    127
    103    104    129    128
    104    105    130    129
    105    106    131    130
    106    107    132    131
    107    108    133    132
    108    109    134    133
    109    110    135    134
    110    111    136    135
    111    112    137    136
    112    113    138    137
    113    114    139    138
    114    115    140    139
    115    116    141    140
    116    117    142    141
    117    118    143    142
    118    119    144    143
    119    120    145    144
    120    121    146    145
    121    122    147    146
    122    123    148    147
    123    124    149    148
    124    100    125    149
    125    126    151    150
    126    127    152    151
    127    128    153    152
    128    129    154    153
    129    130    155    154
    130    131    156    155
    131    132    157    156
    132    133    158    157
    133    134    159    158
    134    135    160    159
    135    136    161    160
    136    137    162    161
    137    138    163    162
    138    139    164    163
    139    140    165    164
    140    141    166    165
    141    142    167    166
    142    143    168    167
    143    144    169    168
    144    145    170    169
    145    146    171    170
    146    147    172    171
    147    148    173    172
    148    149    174    173
    149    125    150    174
    150    151    176    175
    151    152    177    176
    152    153    178    177
    153    154    179    178
    154    155    180    179
    155    156    181    180
    156    157    182    181
    157    158    183    182
    158    159    184    183
    159    160    185    184
    160    161    186    185
    161    162    187    186
    162    163    188    187
    163    164    189    188
    164    165    190    189
    165    166    191    190
    166    167    192    191
    167    168    193    192
    168    169    194    193
    169    170    195    194
    170    171    196    195
    171    172    197    196
    172    173    198    197
    173    174    199    198
    174    150    175    199
    175    176    201    200
    176    177    202    201
    177    178    203    202
    178    179    204    203
    179    180    205    204
    180    181    206    205
    181    182    207    206
    182    183    208    207
    183    184    209    208
    184    185    210    209
    185    186    211    210
    186    187    212    211
    187    188    213    212
    188    189    214    213
    189    190    215    214
    190    191    216    215
    191    192    217    216
    192    193    218    217
    193    194    219    218
    194    195    220    219
    195    196    221    220
    196    197    222    221
    197    198    223    222
    198    199    224    223
    199    175    200    224
    200    201    226    225
    201    202    227    226
    202    203    228    227
    203    204    229    228
    204    205    230    229
    205    206    231    230
    206    207    232    231
    207    208    233    232
    208    209    234    233
    209    210    235    234
    210    211    236    235
    211    212    237    236
    212    213    238    237
    213    214    239    238
    214    215    240    239
    215    216    241    240
    216    217    242    241
    217    218    243    242
    218    219    244    243
    219    220    245    244
    220    221    246    245
    221    222    247    246
    222    223    248    247
    223    224    249    248
    224    200    225    249
    225    226    251    250
    226    227    252    251
    227    228    253    252
    228    229    254    253
    229    230    255    254
    230    231    256    255
    231    232    257    256
    232    233    258    257
    233    234    259    258
    234    235    260    259
    235    236    261    260
    236    237    262    261
    237    238    263    262
    238    239    264    263
    239    240    265    264
    240    241    266    265
    241    242    267    266
    242    243    268    267
    243    244    269    268
    244    245    270    269
    245    246    271    270
    246    247    272    271
    247    248    273    272
    248    249    274    273
    249    225    250    274
    250    251    276    275
    251    252    277    276
    252    253    278    277
    253    254    279    278
    254    255    280    279
    255    256    281    280
    256    257    282    281
    257    258    283    282
    258    259    284    283
    259    260    285    284
    260    261    286    285
    261    262    287    286
    262    263    288    287
    263    264    289    288
    264    265    290    289
    265    266    291    290
    266    267    292    291
    267    268    293    292
    268    269    294    293
    269    270    295    294
    270    271    296    295
    271    272    297    296
    272    273    298    297
    273    274    299    298
    274    250    275    299
    275    276    301    300
    276    277    302    301
    277    278    303    302
    278    279    304    303
    279    280    305    304
    280    281    306    305
    281    282    307    306
    282    283    308    307
    283    284    309    308
    284    285    310    309
    285    286    311    310
    286    287    312    311
    287    288    313    312
    288    289    314    313
    289    290    315    314
    290    291    316    315
    291    292    317    316
    292    293    318    317
    293    294    319    318
    294    295    320    319
    295    296    321    320
    296    297    322    321
    297    298    323    322
    298    299    324    323
    299    275    300    324
    300    301    326    325
    301    302    327    326
    302    303    328    327
    303    304    329    328
    304    305    330    329
    305    306    331    330
    306    307    332    331
    307    308    333    332
    308    309    334    333
    309    310    335    334
    310    311    336    335
    311    312    337    336
    312    313    338    337
    313    314    339    338
    314    315    340    339
    315    316    341    340
    316    317    342    341
    317    318    343    342
    318    319    344    343
    319    320    345    344
    320    321    346    345
    321    322    347    346
    322    323    348    347
    323    324    349    348
    324    300    325    349
    325    326    351    350
    326    327    352    351
    327    328    353    352
    328    329    354    353
    329    330    355    354
    330    331    356    355
    331    332    357    356
    332    333    358    357
    333    334    359    358
    334    335    360    359
    335    336    361    360
    336    337    362    361
    337    338    363    362
    338    339    364    363
    339    340    365    364
    340    341    366    365
    341    342    367    366
    342    343    368    367
    343    344    369    368
    344    345    370    369
    345    346    371    370
    346    347    372    371
    347    348    373    372
    348    349    374    373
    349    325    350    374
    350    351    376    375
    351    352    377    376
    352    353    378    377
    353    354    379    378
    354    355    380    379
    355    356    381    380
    356    357    382    381
    357    358    383    382
    358    359    384    383
    359    360    385    384
    360    361    386    385
    361    362    387    386
    362    363    388    387
    363    364    389    388
    364    365    390    389
    365    366    391    390
    366    367    392    391
    367    368    393    392
    368    369    394    393
    369    370    395    394
    370    371    396    395
    371    372    397    396
    372    373    398    397
    373    374    399    398
    374    350    375    399
    375    376    401    400
    376    377    402    401
    377    378    403    402
    378    379    404    403
    379    380    405    404
    380    381    406    405
    381    382    407    406
    382    383    408    407
    383    384    409    408
    384    385    410    409
    385    386    411    410
    386    387    412    411
    387    388    413    412
    388    389    414    413
    389    390    415    414
    390    391    416    415
    391    392    417    416
    392    393    418    417
    393    394    419    418
    394    395    420    419
    395    396    421    420
    396    397    422    421
    397    398    423    422
    398    399    424    423
    399    375    400    424
    400    401    426    425
    401    402    427    426
    402    403    428    427
    403    404    429    428
    404    405    430    429
    405    406    431    430
    406    407    432    431
    407    408    433    432
    408    409    434    433
    409    410    435    434
    410    411    436    435
    411    412    437    436
    412    413    438    437
    413    414    439    438
    414    415    440    439
    415    416    441    440
    416    417    442    441
    417    418    443    442
    418    419    444    443
    419    420    445    444
    420    421    446    445
    421    422    447    446
    422    423    448    447
    423    424    449    448
    424    400    425    449
    425    426    451    450
    426    427    452    451
    427    428    453    452
    428    429    454    453
    429    430    455    454
    430    431    456    455
    431    432    457    456
    432    433    458    457
    433    434    459    458
    434    435    460    459
    435    436    461    460
    436    437    462    461
    437    438    463    462
    438    439    464    463
    439    440    465    464
    440    441    466    465
    441    442    467    466
    442    443    468    467
    443    444    469    468
    444    445    470    469
    445    446    471    470
    446    447    472    471
    447    448    473    472
    448    449    474    473
    449    425    450    474
    450    451    476    475
    451    452    477    476
    452    453    478    477
    453    454    479    478
    454    455    480    479
    455    456    481    480
    456    457    482    481
    457    458    483    482
    458    459    484    483
    459    460    485    484
    460    461    486    485
    461    462    487    486
    462    463    488    487
    463    464    489    488
    464    465    490    489
    465    466    491    490
    466    467    492    491
    467    468    493    492
    468    469    494    493
    469    470    495    494
    470    471    496    495
    471    472    497    496
    472    473    498    497
    473    474    499    498
    474    450    475    499
    475    476    501    500
    476    477    502    501
    477    478    503    502
    478    479    504    503
    479    480    505    504
    480    481    506    505
    481    482    507    506
    482    483    508    507
    483    484    509    508
    484    485    510    509
    485    486    511    510
    486    487    512    511
    487    488    513    512
    488    489    514    513
    489    490    515    514
    490    491    516    515
    491    492    517    516
    492    493    518    517
    493    494    519    518
    494    495    520    519
    495    496    521    520
    496    497    522    521
    497    498    523    522
    498    499    524    523
    499    475    500    524
    500    501    526    525
    501    502    527    526
    502    503    528    527
    503    504    529    528
    504    505    530    529
    505    506    531    530
    506    507    532    531
    507    508    533    532
    508    509    534    533
    509    510    535    534
    510    511    536    535
    511    512    537    536
    512    513    538    537
    513    514    539    538
    514    515    540    539
    515    516    541    540
    516    517    542    541
    517    518    543    542
    518    519    544    543
    519    520    545    544
    520    521    546    545
    521    522    547    546
    522    523    548    547
    523    524    549    548
    524    500    525    549
    525    526    551    550
    526    527    552    551
    527    528    553    552
    528    529    554    553
    529    530    555    554
    530    531    556    555
    531    532    557    556
    532    533    558    557
    533    534    559    558
    534    535    560    559
    535    536    561    560
    536    537    562    561
    537    538    563    562
    538    539    564    563
    539    540    565    564
    540    541    566    565
    541    542    567    566
    542    543    568    567
    543    544    569    568
    544    545    570    569
    545    546    571    570
    546    547    572    571
    547    548    573    572
    548    549    574    573
    549    525    550    574
    550    551    576    575
    551    552    577    576
    552    553    578    577
    553    554    579    578
    554    555    580    579
    555    556    581    580
    556    557    582    581
    557    558    583    582
    558    559    584    583
    559    560    585    584
    560    561    586    585
    561    562    587    586
    562    563    588    587
    563    564    589    588
    564    565    590    589
    565    566    591    590
    566    567    592    591
    567    568    593    592
    568    569    594    593
    569    570    595    594
    570    571    596    595
    571    572    597    596
    572    573    598    597
    573    574    599    598
    574    550    575    599
    575    576    601    600
    576    577    602    601
    577    578    603    602
    578    579    604    603
    579    580    605    604
    580    581    606    605
    581    582    607    606
    582    583    608    607
    583    584    609    608
    584    585    610    609
    585    586    611    610
    586    587    612    611
    587    588    613    612
    588    589    614    613
    589    590    615    614
    590    591    616    615
    591    592    617    616
    592    593    618    617
    593    594    619    618
    594    595    620    619
    595    596    621    620
    596    597    622    621
    597    598    623    622
    598    599    624    623
    599    575    600    624
        </DataArray>
        <DataArray type="Int32" Name="offsets" format="ascii">
      4
      8
     12
     16
     20
     24
     28
     32
     36
     40
     44
     48
     52
     56
     60
     64
     68
     72
     76
     80
     84
     88
     92
     96
    100
    104
    108
    112
    116
    120
    124
    128
    132
    136
    140
    144
    148
    152
    156
    160
    164
    168
    172
    176
    180
    184
    188
    192
    196
    200
    204
    208
    212
    216
    220
    224
    228
    232
    236
    240
    244
    248
    252
    256
    260
    264
    268
    272
    276
    280
    284
    288
    292
    296
    300
    304
    308
    312
    316
    320
    324
    328
    332
    336
    340
    344
    348
    352
    356
    360
    364
    368
    372
    376
    380
    384
    388
    392
    396
    400
    404
    408
    412
    416
    420
    424
    428
    432
    436
    440
    444
    448
    452
    456
    460
    464
    468
    472
    476
    480
    484
    488
    492
    496
    500
    504
    508
    512
    516
    520
    524
    528
    532
    536
    540
    544
    548
    552
    556
    560
    564
    568
    572
    576
    580
    584
    588
    592
    596
    600
    604
    608
    612
    616
    620
    624
    628
    632
    636
    640
    644
    648
    652
    656
    660
    664
    668
    672
    676
    680
    684
    688
    692
    696
    700
    704
    708
    712
    716
    720
    724
    728
    732
    736
    740
    744
    748
    752
    756
    760
    764
    768
    772
    776
    780
    784
    788
    792
    796
    800
    804
    808
    812
    816
    820
    824
    828
    832
    836
    840
    844
    848
    852
    856
    860
    864
    868
    872
    876
    880
    884
    888
    892
    896
    900
    904
    908
    912
    916
    920
    924
    928
    932
    936
    940
    944
    948
    952
    956
    960
    964
    968
    972
    976
    980
    984
    988
    992
    996
   1000
   1004
   1008
   1012
   1016
   1020
   1024
   1028
   1032
   1036
   1040
   1044
   1048
   1052
   1056
   1060
   1064
   1068
   1072
   1076
   1080
   1084
   1088
   1092
   1096
   1100
   1104
   1108
   1112
   1116
   1120
   1124
   1128
   1132
   1136
   1140
   1144
   1148
   1152
   1156
   1160
   1164
   1168
   1172
   1176
   1180
   1184
   1188
   1192
   1196
   1200
   1204
   1208
   1212
   1216
   1220
   1224
   1228
   1232
   1236
   1240
   1244
   1248
   1252
   1256
   1260
   1264
   1268
   1272
   1276
   1280
   1284
   1288
   1292
   1296
   1300
   1304
   1308
   1312
   1316
   1320
   1324
   1328
   1332
   1336
   1340
   1344
   1348
   1352
   1356
   1360
   1364
   1368
   1372
   1376
   1380
   1384
   1388
   1392
   1396
   1400
   1404
   1408
   1412
   1416
   1420
   1424
   1428
   1432
   1436
   1440
   1444
   1448
   1452
   1456
   1460
   1464
   1468
   1472
   1476
   1480
   1484
   1488
   1492
   1496
   1500
   1504
   1508
   1512
   1516
   1520
   1524
   1528
   1532
   1536
   1540
   1544
   1548
   1552
   1556
   1560
   1564
   1568
   1572
   1576
   1580
   1584
   1588
   1592
   1596
   1600
   1604
   1608
   1612
   1616
   1620
   1624
   1628
   1632
   1636
   1640
   1644
   1648
   1652
   1656
   1660
   1664
   1668
   1672
   1676
   1680
   1684
   1688
   1692
   1696
   1700
   1704
   1708
   1712
   1716
   1720
   1724
   1728
   1732
   1736
   1740
   1744
   1748
   1752
   1756
   1760
   1764
   1768
   1772
   1776
   1780
   1784
   1788
   1792
   1796
   1800
   1804
   1808
   1812
   1816
   1820
   1824
   1828
   1832
   1836
   1840
   1844
   1848
   1852
   1856
   1860
   1864
   1868
   1872
   1876
   1880
   1884
   1888
   1892
   1896
   1900
   1904
   1908
   1912
   1916
   1920
   1924
   1928
   1932
   1936
   1940
   1944
   1948
   1952
   1956
   1960
   1964
   1968
   1972
   1976
   1980
   1984
   1988
   1992
   1996
   2000
   2004
   2008
   2012
   2016
   2020
   2024
   2028
   2032
   2036
   2040
   2044
   2048
   2052
   2056
   2060
   2064
   2068
   2072
   2076
   2080
   2084
   2088
   2092
   2096
   2100
   2104
   2108
   2112
   2116
   2120
   2124
   2128
   2132
   2136
   2140
   2144
   2148
   2152
   2156
   2160
   2164
   2168
   2172
   2176
   2180
   2184
   2188
   2192
   2196
   2200
   2204
   2208
   2212
   2216
   2220
   2224
   2228
   2232
   2236
   2240
   2244
   2248
   2252
   2256
   2260
   2264
   2268
   2272
   2276
   2280
   2284
   2288
   2292
   2296
   2300
   2304
   2308
   2312
   2316
   2320
   2324
   2328
   2332
   2336
   2340
   2344
   2348
   2352
   2356
   2360
   2364
   2368
   2372
   2376
   2380
   2384
   2388
   2392
   2396
   2400
        </DataArray>
      </Polys>
    </Piece>
  </PolyData>
</VTKFile>
