<?xml version="1.0"?>
<VTKFile type="PolyData" version="0.1" byte_order="LittleEndian">
  <PolyData>
    <Piece NumberOfPoints="     19" NumberOfVerts="  0" NumberOfLines="     18"
           NumberOfStrips="  0" NumberOfPolys="      0">
      <Points>
        <DataArray type="Float32" NumberOfComponents="3" format="ascii">
                      -5.08467                       1.48180                      89.78298
                      -5.16070                       2.83285                      89.58828
                      -5.31797                       5.54878                      89.29275
                      -5.46632                       8.27232                      89.03982
                      -5.62626                      11.68287                      88.74602
                      -5.72578                      15.75744                      88.24037
                      -5.74601                      19.81301                      87.59614
                      -5.69436                      23.86692                      86.94111
                      -5.56508                      27.91748                      86.27385
                      -5.35845                      31.96372                      85.59723
                      -5.07874                      36.00527                      84.91608
                      -4.73225                      40.04127                      84.23020
                      -4.33038                      44.07170                      83.54095
                      -3.88863                      48.09724                      82.84962
                      -3.42425                      52.11915                      82.15739
                      -3.03692                      55.46973                      81.58042
                      -2.73827                      58.14953                      81.11124
                      -2.45714                      60.82216                      80.58807
                      -2.32954                      62.16665                      80.36756
        </DataArray>
      </Points>
      <PointData>
        <DataArray type="Float32" Name="TranslationalVelocity" NumberOfComponents="3" format="ascii">
                       0.40573                       0.70237                       4.63750
                       0.77596                       1.33253                       8.86568
                       1.52069                       2.30027                      17.36475
                       2.26987                       3.13229                      25.88688
                       3.21508                       4.09580                      36.55743
                       4.36036                       5.70588                      49.30366
                       5.52463                       7.72709                      61.98838
                       6.71916                       9.76049                      74.66576
                       7.94743                      11.80751                      87.33051
                       9.21026                      13.85807                      99.97945
                      10.50489                      15.89738                     112.61123
                      11.82375                      17.92767                     125.22272
                      13.15410                      19.94866                     137.81331
                      14.47720                      21.96261                     150.38439
                      15.76743                      23.97390                     162.93872
                      16.79234                      25.65465                     173.39229
                      17.56314                      27.03163                     181.74904
                      18.26867                      28.58997                     190.07887
                      18.60014                      29.24804                     194.26770
        </DataArray>
        <DataArray type="Float32" Name="RotationalVelocity" NumberOfComponents="3" format="ascii">
                       3.12964                       0.00000                      -0.27381
                       3.12950                      -0.00005                      -0.27399
                       3.12927                      -0.00006                      -0.27471
                       3.12904                      -0.00009                      -0.27604
                       3.12871                      -0.00025                      -0.27869
                       3.12820                      -0.00060                      -0.28346
                       3.12759                      -0.00093                      -0.28988
                       3.12693                      -0.00084                      -0.29765
                       3.12630                       0.00019                      -0.30625
                       3.12582                       0.00272                      -0.31496
                       3.12556                       0.00727                      -0.32284
                       3.12560                       0.01429                      -0.32881
                       3.12593                       0.02407                      -0.33161
                       3.12650                       0.03663                      -0.32981
                       3.12715                       0.05175                      -0.32187
                       3.12757                       0.06583                      -0.30955
                       3.12766                       0.07771                      -0.29501
                       3.12739                       0.08968                      -0.27574
                       3.12706                       0.09554                      -0.26417
        </DataArray>
        <DataArray type="Float32" Name="TranslationalAcceleration" NumberOfComponents="3" format="ascii">
                       0.19232                     -14.62479                       2.19817
                       0.21264                     -17.68807                       2.63312
                       0.51509                     -50.76099                       6.64436
                       0.66117                     -81.26025                       9.86941
                       0.58361                    -116.93805                      13.33449
                       0.24516                    -157.29020                      18.62636
                      -0.31039                    -196.35742                      25.07665
                      -1.02072                    -235.26403                      31.54937
                      -1.64365                    -274.50333                      38.09207
                      -1.90504                    -314.24779                      44.67056
                      -1.52806                    -354.43603                      51.20756
                      -0.25924                    -394.85334                      57.66834
                       2.09389                    -435.23871                      64.01816
                       5.63207                    -475.37562                      70.25618
                      10.33109                    -515.18566                      76.43277
                      15.02045                    -548.21080                      81.62237
                      19.11735                    -574.68260                      85.95967
                      23.43066                    -601.36538                      91.01930
                      25.53176                    -614.97995                      93.25369
        </DataArray>
        <DataArray type="Float32" Name="OrientationX" NumberOfComponents="3" format="ascii">
                       0.99468                       0.04313                      -0.09356
                       0.99476                       0.04177                      -0.09335
                       0.99500                       0.03742                      -0.09260
                       0.99533                       0.03109                      -0.09143
                       0.99577                       0.02091                      -0.08945
                       0.99626                       0.00602                      -0.08624
                       0.99658                      -0.01086                      -0.08194
                       0.99667                      -0.02885                      -0.07622
                       0.99652                      -0.04705                      -0.06873
                       0.99616                      -0.06462                      -0.05912
                       0.99563                      -0.08067                      -0.04712
                       0.99501                      -0.09431                      -0.03258
                       0.99439                      -0.10460                      -0.01559
                       0.99386                      -0.11057                       0.00353
                       0.99351                      -0.11119                       0.02411
                       0.99339                      -0.10696                       0.04165
                       0.99347                      -0.09980                       0.05535
                       0.99371                      -0.08890                       0.06816
                       0.99388                      -0.08194                       0.07403
        </DataArray>
        <DataArray type="Float32" Name="OrientationY" NumberOfComponents="3" format="ascii">
                      -0.08618                      -0.14919                      -0.98505
                      -0.08617                      -0.14930                      -0.98503
                      -0.08604                      -0.14959                      -0.98500
                      -0.08579                      -0.14996                      -0.98496
                      -0.08531                      -0.15046                      -0.98493
                      -0.08435                      -0.15107                      -0.98492
                      -0.08264                      -0.15165                      -0.98497
                      -0.07975                      -0.15223                      -0.98512
                      -0.07518                      -0.15285                      -0.98538
                      -0.06847                      -0.15364                      -0.98575
                      -0.05920                      -0.15468                      -0.98619
                      -0.04710                      -0.15609                      -0.98662
                      -0.03208                      -0.15791                      -0.98693
                      -0.01431                      -0.16012                      -0.98699
                       0.00575                      -0.16258                      -0.98668
                       0.02361                      -0.16465                      -0.98607
                       0.03821                      -0.16616                      -0.98536
                       0.05255                      -0.16737                      -0.98449
                       0.05946                      -0.16783                      -0.98402
        </DataArray>
        <DataArray type="Float32" Name="OrientationZ" NumberOfComponents="3" format="ascii">
                      -0.05644                       0.98787                      -0.14468
                      -0.05508                       0.98791                      -0.14492
                      -0.05071                       0.98804                      -0.14562
                      -0.04433                       0.98820                      -0.14659
                      -0.03405                       0.98839                      -0.14804
                      -0.01896                       0.98850                      -0.15000
                      -0.00172                       0.98837                      -0.15203
                       0.01681                       0.98792                      -0.15402
                       0.03586                       0.98713                      -0.15586
                       0.05462                       0.98601                      -0.15747
                       0.07227                       0.98467                      -0.15878
                       0.08796                       0.98323                      -0.15975
                       0.10077                       0.98190                      -0.16038
                       0.10970                       0.98088                      -0.16072
                       0.11362                       0.98041                      -0.16089
                       0.11232                       0.98054                      -0.16104
                       0.10753                       0.98104                      -0.16126
                       0.09893                       0.98188                      -0.16165
                       0.09306                       0.98240                      -0.16193
        </DataArray>
        <DataArray type="Float32" Name="Force" NumberOfComponents="3" format="ascii">
                      -0.83303                      -1.44209                      -9.52156
                     439.56525                      -5.86596                    -207.17923
                     552.69976                     -48.65540                    -523.92120
                     499.37174                     -85.18952                    -728.99313
                    7234.90988                     333.31011                     572.07663
                    9037.22578                     232.73947                     406.53514
                   11000.57624                      49.43597                     214.82268
                   14297.83915                    -244.31781                      15.19452
                   15101.33099                    -589.11506                    -238.38965
                   16544.10409                    -973.09888                    -337.42012
                   19081.61700                   -1482.85710                    -494.70693
                   19704.58246                   -1842.54901                    -475.97624
                   19200.85981                   -2009.70776                    -222.89682
                   18130.77577                   -2049.72306                    -119.18522
                   15174.64023                   -1766.28946                     -33.13793
                   11258.61528                   -1302.79264                     -68.89626
                    7149.76061                    -807.91732                    -140.46712
                    2539.44840                    -282.78733                    -163.03652
                  -17356.41620                    1809.99441                     998.03112
        </DataArray>
        <DataArray type="Float32" Name="Moment" NumberOfComponents="3" format="ascii">
                       0.00000                       0.00000                       0.00000
                       0.00000                       0.00000                       0.00000
                       0.00000                       0.00000                       0.00000
                       0.00000                       0.00000                       0.00000
                      71.08545                   -2070.56733                     307.37878
                      75.61153                   -3976.38905                     595.62918
                       8.40201                   -5459.71306                     826.16621
                    -136.33738                   -7903.47834                    1208.94994
                    -401.39586                  -10976.26842                    1697.52922
                    -688.21250                  -12371.19178                    1933.89066
                    -979.31491                  -13302.70802                    2100.44169
                   -1258.26670                  -14033.65083                    2235.55181
                   -1167.10392                  -11352.60040                    1821.51739
                   -1227.25326                  -10958.38910                    1767.07447
                   -1188.08448                  -10238.17665                    1654.56781
                   -1090.79543                   -9507.75366                    1535.42985
                    -911.55434                   -8299.31594                    1336.72425
                    -413.11011                   -4087.50992                     655.21660
                    -351.35943                   -3694.76806                     590.33137
        </DataArray>
      </PointData>
      <Lines>
        <DataArray type="Int32" Name="connectivity" format="ascii">
      0      1
      1      2
      2      3
      3      4
      4      5
      5      6
      6      7
      7      8
      8      9
      9     10
     10     11
     11     12
     12     13
     13     14
     14     15
     15     16
     16     17
     17     18
        </DataArray>
        <DataArray type="Int32" Name="offsets" format="ascii">
      2
      4
      6
      8
     10
     12
     14
     16
     18
     20
     22
     24
     26
     28
     30
     32
     34
     36
        </DataArray>
      </Lines>
    </Piece>
  </PolyData>
</VTKFile>
