<?xml version="1.0"?>
<VTKFile type="PolyData" version="0.1" byte_order="LittleEndian">
  <PolyData>
    <Piece NumberOfPoints="    625" NumberOfVerts="  0" NumberOfLines="      0"
           NumberOfStrips="  0" NumberOfPolys="    600">
      <Points>
        <DataArray type="Float32" NumberOfComponents="3" format="ascii">
                      -4.86937                       0.05889                      91.49314
                      -4.86937                       0.05889                      91.49314
                      -4.86937                       0.05889                      91.49314
                      -4.86937                       0.05889                      91.49314
                      -4.86937                       0.05889                      91.49314
                      -4.86937                       0.05889                      91.49314
                      -4.86937                       0.05889                      91.49314
                      -4.86937                       0.05889                      91.49314
                      -4.86937                       0.05889                      91.49314
                      -4.86937                       0.05889                      91.49314
                      -4.86937                       0.05889                      91.49314
                      -4.86937                       0.05889                      91.49314
                      -4.86937                       0.05889                      91.49314
                      -4.86937                       0.05889                      91.49314
                      -4.86937                       0.05889                      91.49314
                      -4.86937                       0.05889                      91.49314
                      -4.86937                       0.05889                      91.49314
                      -4.86937                       0.05889                      91.49314
                      -4.86937                       0.05889                      91.49314
                      -4.86937                       0.05889                      91.49314
                      -4.86937                       0.05889                      91.49314
                      -4.86937                       0.05889                      91.49314
                      -4.86937                       0.05889                      91.49314
                      -4.86937                       0.05889                      91.49314
                      -4.86937                       0.05889                      91.49314
                      -4.28306                       0.05398                      91.31647
                      -4.30131                      -0.09499                      91.32394
                      -4.35594                      -0.23460                      91.33422
                      -4.44351                      -0.35607                      91.34668
                      -4.55853                      -0.45178                      91.36052
                      -4.69376                      -0.51572                      91.37487
                      -4.84071                      -0.54385                      91.38883
                      -4.99014                      -0.53442                      91.40154
                      -5.13267                      -0.48802                      91.41218
                      -5.25934                      -0.40757                      91.42008
                      -5.36219                      -0.29811                      91.42477
                      -5.43476                      -0.16653                      91.42593
                      -5.47249                      -0.02109                      91.42349
                      -5.47300                       0.12906                      91.41761
                      -5.43627                       0.27450                      91.40866
                      -5.36460                       0.40608                      91.39720
                      -5.26250                       0.51553                      91.38395
                      -5.13638                       0.59599                      91.36975
                      -4.99417                       0.64239                      91.35547
                      -4.84480                       0.65182                      91.34203
                      -4.69766                       0.62368                      91.33027
                      -4.56199                       0.55975                      91.32092
                      -4.44632                       0.46404                      91.31458
                      -4.35791                       0.34256                      91.31163
                      -4.30233                       0.20295                      91.31228
                      -4.06514                       0.04907                      91.17202
                      -4.09038                      -0.15697                      91.18236
                      -4.16594                      -0.35007                      91.19658
                      -4.28707                      -0.51808                      91.21381
                      -4.44615                      -0.65047                      91.23295
                      -4.63319                      -0.73889                      91.25280
                      -4.83644                      -0.77781                      91.27211
                      -5.04313                      -0.76477                      91.28968
                      -5.24027                      -0.70059                      91.30440
                      -5.41547                      -0.58931                      91.31534
                      -5.55772                      -0.43792                      91.32181
                      -5.65809                      -0.25592                      91.32342
                      -5.71027                      -0.05477                      91.32005
                      -5.71098                       0.15292                      91.31192
                      -5.66018                       0.35407                      91.29954
                      -5.56106                       0.53606                      91.28369
                      -5.41984                       0.68746                      91.26536
                      -5.24540                       0.79874                      91.24571
                      -5.04870                       0.86292                      91.22597
                      -4.84211                       0.87596                      91.20738
                      -4.63859                       0.83704                      91.19111
                      -4.45094                       0.74861                      91.17818
                      -4.29095                       0.61623                      91.16941
                      -4.16868                       0.44822                      91.16534
                      -4.09180                       0.25512                      91.16623
                      -3.91364                       0.04417                      91.03339
                      -3.94385                      -0.20238                      91.04575
                      -4.03427                      -0.43344                      91.06278
                      -4.17920                      -0.63449                      91.08339
                      -4.36956                      -0.79289                      91.10629
                      -4.59337                      -0.89870                      91.13004
                      -4.83658                      -0.94527                      91.15316
                      -5.08390                      -0.92966                      91.17418
                      -5.31979                      -0.85287                      91.19179
                      -5.52943                      -0.71971                      91.20488
                      -5.69965                      -0.53856                      91.21262
                      -5.81975                      -0.32079                      91.21454
                      -5.88219                      -0.08009                      91.21051
                      -5.88304                       0.16842                      91.20079
                      -5.82225                       0.40912                      91.18597
                      -5.70364                       0.62689                      91.16701
                      -5.53466                       0.80805                      91.14508
                      -5.32593                       0.94121                      91.12157
                      -5.09057                       1.01800                      91.09795
                      -4.84335                       1.03360                      91.07570
                      -4.59983                       0.98704                      91.05623
                      -4.37529                       0.88123                      91.04076
                      -4.18385                       0.72282                      91.03026
                      -4.03754                       0.52177                      91.02539
                      -3.94554                       0.29072                      91.02645
                      -3.79913                       0.03926                      90.89799
                      -3.83317                      -0.23857                      90.91192
                      -3.93506                      -0.49894                      90.93111
                      -4.09838                      -0.72550                      90.95433
                      -4.31289                      -0.90400                      90.98014
                      -4.56510                      -1.02323                      91.00691
                      -4.83916                      -1.07571                      91.03295
                      -5.11786                      -1.05812                      91.05664
                      -5.38368                      -0.97159                      91.07648
                      -5.61991                      -0.82154                      91.09123
                      -5.81173                      -0.61740                      91.09997
                      -5.94707                      -0.37200                      91.10213
                      -6.01743                      -0.10076                      91.09759
                      -6.01839                       0.17928                      91.08662
                      -5.94989                       0.45052                      91.06993
                      -5.81623                       0.69592                      91.04856
                      -5.62581                       0.90006                      91.02385
                      -5.39060                       1.05011                      90.99735
                      -5.12537                       1.13664                      90.97074
                      -4.84680                       1.15423                      90.94567
                      -4.57237                       1.10175                      90.92373
                      -4.31935                       0.98252                      90.90630
                      -4.10362                       0.80402                      90.89446
                      -3.93874                       0.57746                      90.88897
                      -3.83508                       0.31709                      90.89017
                      -3.71009                       0.03435                      90.76482
                      -3.74718                      -0.26841                      90.78000
                      -3.85821                      -0.55214                      90.80091
                      -4.03619                      -0.79902                      90.82621
                      -4.26994                      -0.99354                      90.85434
                      -4.54478                      -1.12347                      90.88351
                      -4.84343                      -1.18066                      90.91189
                      -5.14713                      -1.16149                      90.93771
                      -5.43680                      -1.06719                      90.95933
                      -5.69424                      -0.90368                      90.97540
                      -5.90326                      -0.68122                      90.98492
                      -6.05075                      -0.41381                      90.98727
                      -6.12742                      -0.11823                      90.98232
                      -6.12846                       0.18693                      90.97038
                      -6.05381                       0.48251                      90.95219
                      -5.90816                       0.74993                      90.92890
                      -5.70066                       0.97238                      90.90197
                      -5.44434                       1.13590                      90.87310
                      -5.15532                       1.23020                      90.84409
                      -4.85175                       1.24936                      90.81678
                      -4.55271                       1.19218                      90.79287
                      -4.27698                       1.06225                      90.77387
                      -4.04189                       0.86773                      90.76098
                      -3.86222                       0.62084                      90.75499
                      -3.74925                       0.33711                      90.75630
                      -3.64059                       0.02944                      90.63335
                      -3.68014                      -0.29336                      90.64955
                      -3.79852                      -0.59589                      90.67184
                      -3.98829                      -0.85912                      90.69882
                      -4.23752                      -1.06652                      90.72880
                      -4.53056                      -1.20506                      90.75991
                      -4.84899                      -1.26603                      90.79017
                      -5.17281                      -1.24560                      90.81769
                      -5.48166                      -1.14505                      90.84075
                      -5.75615                      -0.97071                      90.85789
                      -5.97902                      -0.73352                      90.86803
                      -6.13627                      -0.44839                      90.87054
                      -6.21802                      -0.13324                      90.86527
                      -6.21913                       0.19213                      90.85253
                      -6.13954                       0.50728                      90.83314
                      -5.98424                       0.79241                      90.80831
                      -5.76300                       1.02960                      90.77959
                      -5.48971                       1.20394                      90.74881
                      -5.18154                       1.30449                      90.71788
                      -4.85786                       1.32492                      90.68876
                      -4.53901                       1.26395                      90.66327
                      -4.24503                       1.12541                      90.64301
                      -3.99437                       0.91801                      90.62926
                      -3.80280                       0.65478                      90.62288
                      -3.68235                       0.35225                      90.62428
                      -3.58717                       0.02454                      90.50330
                      -3.62869                      -0.31431                      90.52030
                      -3.75295                      -0.63187                      90.54369
                      -3.95215                      -0.90818                      90.57202
                      -4.21376                      -1.12589                      90.60349
                      -4.52136                      -1.27131                      90.63614
                      -4.85562                      -1.33531                      90.66791
                      -5.19553                      -1.31387                      90.69680
                      -5.51973                      -1.20832                      90.72100
                      -5.80785                      -1.02532                      90.73899
                      -6.04180                      -0.77634                      90.74964
                      -6.20686                      -0.47705                      90.75228
                      -6.29267                      -0.14623                      90.74674
                      -6.29384                       0.19531                      90.73337
                      -6.21030                       0.52612                      90.71301
                      -6.04728                       0.82542                      90.68695
                      -5.81504                       1.07439                      90.65681
                      -5.52817                       1.25740                      90.62449
                      -5.20469                       1.36294                      90.59203
                      -4.86493                       1.38439                      90.56146
                      -4.53024                       1.32039                      90.53470
                      -4.22164                       1.17497                      90.51344
                      -3.95853                       0.95726                      90.49900
                      -3.75744                       0.68094                      90.49231
                      -3.63101                       0.36339                      90.49377
                      -3.54762                       0.01963                      90.37446
                      -3.59068                      -0.33180                      90.39209
                      -3.71956                      -0.66115                      90.41635
                      -3.92615                      -0.94772                      90.44573
                      -4.19748                      -1.17351                      90.47837
                      -4.51650                      -1.32433                      90.51223
                      -4.86317                      -1.39070                      90.54518
                      -5.21569                      -1.36846                      90.57514
                      -5.55193                      -1.25900                      90.60024
                      -5.85075                      -1.06920                      90.61890
                      -6.09338                      -0.81098                      90.62994
                      -6.26457                      -0.50058                      90.63268
                      -6.35357                      -0.15748                      90.62693
                      -6.35479                       0.19674                      90.61307
                      -6.26814                       0.53984                      90.59196
                      -6.09907                       0.85024                      90.56492
                      -5.85821                       1.10846                      90.53367
                      -5.56069                       1.29826                      90.50015
                      -5.22520                       1.40772                      90.46648
                      -4.87282                       1.42996                      90.43478
                      -4.52571                       1.36359                      90.40702
                      -4.20565                       1.21277                      90.38497
                      -3.93277                       0.98698                      90.37000
                      -3.72422                       0.70041                      90.36306
                      -3.59309                       0.37106                      90.36458
                      -3.52050                       0.01472                      90.24671
                      -3.56472                      -0.34619                      90.26481
                      -3.69707                      -0.68442                      90.28973
                      -3.90924                      -0.97873                      90.31990
                      -4.18789                      -1.21061                      90.35342
                      -4.51552                      -1.36550                      90.38819
                      -4.87153                      -1.43366                      90.42203
                      -5.23357                      -1.41082                      90.45280
                      -5.57888                      -1.29841                      90.47858
                      -5.88577                      -1.10348                      90.49774
                      -6.13494                      -0.83830                      90.50908
                      -6.31075                      -0.51952                      90.51189
                      -6.40215                      -0.16717                      90.50599
                      -6.40340                       0.19661                      90.49175
                      -6.31441                       0.54896                      90.47007
                      -6.14078                       0.86775                      90.44231
                      -5.89342                       1.13293                      90.41021
                      -5.58787                       1.32785                      90.37579
                      -5.24334                       1.44027                      90.34121
                      -4.88145                       1.46311                      90.30865
                      -4.52497                       1.39494                      90.28015
                      -4.19628                       1.24005                      90.25750
                      -3.91604                       1.00817                      90.24213
                      -3.70186                       0.71387                      90.23500
                      -3.56719                       0.37563                      90.23656
                      -3.50484                       0.00981                      90.11996
                      -3.54987                      -0.35772                      90.13839
                      -3.68465                      -0.70216                      90.16377
                      -3.90071                      -1.00186                      90.19449
                      -4.18447                      -1.23800                      90.22863
                      -4.51811                      -1.39573                      90.26404
                      -4.88066                      -1.46515                      90.29850
                      -5.24934                      -1.44189                      90.32983
                      -5.60099                      -1.32741                      90.35609
                      -5.91350                      -1.12891                      90.37560
                      -6.16725                      -0.85886                      90.38715
                      -6.34629                      -0.53423                      90.39001
                      -6.43937                      -0.17541                      90.38400
                      -6.44064                       0.19504                      90.36950
                      -6.35002                       0.55386                      90.34742
                      -6.17320                       0.87849                      90.31915
                      -5.92130                       1.14854                      90.28646
                      -5.61015                       1.34704                      90.25141
                      -5.25929                       1.46152                      90.21619
                      -4.89076                       1.48478                      90.18304
                      -4.52774                       1.41536                      90.15401
                      -4.19302                       1.25763                      90.13095
                      -3.90764                       1.02149                      90.11529
                      -3.68952                       0.72179                      90.10803
                      -3.55238                       0.37735                      90.10962
                      -3.50002                       0.00491                      89.99415
                      -3.54553                      -0.36654                      90.01278
                      -3.68175                      -0.71465                      90.03843
                      -3.90011                      -1.01755                      90.06948
                      -4.18690                      -1.25621                      90.10399
                      -4.52409                      -1.41562                      90.13977
                      -4.89051                      -1.48578                      90.17460
                      -5.26312                      -1.46227                      90.20627
                      -5.61851                      -1.34657                      90.23280
                      -5.93436                      -1.14595                      90.25252
                      -6.19081                      -0.87303                      90.26419
                      -6.37176                      -0.54493                      90.26708
                      -6.46583                      -0.18229                      90.26101
                      -6.46711                       0.19211                      90.24636
                      -6.37552                       0.55475                      90.22404
                      -6.19682                       0.88284                      90.19547
                      -5.94224                       1.15577                      90.16243
                      -5.62777                       1.35638                      90.12700
                      -5.27317                       1.47208                      90.09142
                      -4.90072                       1.49559                      90.05791
                      -4.53382                       1.42543                      90.02857
                      -4.19554                       1.26602                      90.00526
                      -3.90711                       1.02737                      89.98944
                      -3.68668                       0.72447                      89.98210
                      -3.54807                       0.37636                      89.98371
                      -3.50571                       0.00000                      89.86927
                      -3.55138                      -0.37275                      89.88797
                      -3.68807                      -0.72207                      89.91370
                      -3.90720                      -1.02603                      89.94486
                      -4.19499                      -1.26552                      89.97949
                      -4.53336                      -1.42548                      90.01540
                      -4.90105                      -1.49589                      90.05034
                      -5.27496                      -1.47229                      90.08213
                      -5.63160                      -1.35619                      90.10875
                      -5.94854                      -1.15488                      90.12854
                      -6.20589                      -0.88100                      90.14025
                      -6.38747                      -0.55176                      90.14315
                      -6.48187                      -0.18785                      90.13706
                      -6.48315                       0.18785                      90.12235
                      -6.39125                       0.55176                      90.09996
                      -6.21193                       0.88100                      90.07129
                      -5.95645                       1.15488                      90.03813
                      -5.64088                       1.35619                      90.00258
                      -5.28504                       1.47229                      89.96687
                      -4.91130                       1.49589                      89.93324
                      -4.54312                       1.42548                      89.90381
                      -4.20365                       1.26552                      89.88042
                      -3.91422                       1.02603                      89.86454
                      -3.69302                       0.72207                      89.85718
                      -3.55393                       0.37275                      89.85879
                      -3.52179                      -0.00491                      89.74530
                      -3.56730                      -0.37636                      89.76393
                      -3.70352                      -0.72447                      89.78957
                      -3.92188                      -1.02737                      89.82063
                      -4.20867                      -1.26602                      89.85513
                      -4.54587                      -1.42543                      89.89092
                      -4.91228                      -1.49559                      89.92574
                      -5.28489                      -1.47208                      89.95741
                      -5.64028                      -1.35638                      89.98394
                      -5.95613                      -1.15577                      90.00366
                      -6.21258                      -0.88284                      90.01534
                      -6.39353                      -0.55475                      90.01823
                      -6.48760                      -0.19211                      90.01215
                      -6.48888                       0.18229                      89.99750
                      -6.39729                       0.54493                      89.97518
                      -6.21860                       0.87303                      89.94661
                      -5.96401                       1.14595                      89.91357
                      -5.64954                       1.34657                      89.87815
                      -5.29494                       1.46227                      89.84256
                      -4.92249                       1.48578                      89.80905
                      -4.55560                       1.41562                      89.77972
                      -4.21731                       1.25621                      89.75641
                      -3.92889                       1.01755                      89.74059
                      -3.70845                       0.71465                      89.73325
                      -3.56985                       0.36654                      89.73485
                      -3.54838                      -0.00981                      89.62224
                      -3.59341                      -0.37735                      89.64068
                      -3.72819                      -0.72179                      89.66605
                      -3.94425                      -1.02149                      89.69678
                      -4.22802                      -1.25763                      89.73092
                      -4.56166                      -1.41536                      89.76633
                      -4.92421                      -1.48478                      89.80078
                      -5.29289                      -1.46152                      89.83212
                      -5.64453                      -1.34704                      89.85837
                      -5.95705                      -1.14854                      89.87788
                      -6.21080                      -0.87849                      89.88943
                      -6.38984                      -0.55386                      89.89229
                      -6.48291                      -0.19504                      89.88629
                      -6.48418                       0.17541                      89.87179
                      -6.39356                       0.53423                      89.84971
                      -6.21675                       0.85886                      89.82143
                      -5.96485                       1.12891                      89.78874
                      -5.65369                       1.32741                      89.75369
                      -5.30283                       1.44189                      89.71848
                      -4.93431                       1.46515                      89.68532
                      -4.57128                       1.39573                      89.65630
                      -4.23656                       1.23800                      89.63324
                      -3.95118                       1.00186                      89.61758
                      -3.73307                       0.70216                      89.61032
                      -3.59593                       0.35772                      89.61191
                      -3.58582                      -0.01472                      89.50014
                      -3.63004                      -0.37563                      89.51824
                      -3.76239                      -0.71387                      89.54316
                      -3.97455                      -1.00817                      89.57333
                      -4.25321                      -1.24005                      89.60685
                      -4.58083                      -1.39494                      89.64162
                      -4.93685                      -1.46311                      89.67546
                      -5.29889                      -1.44027                      89.70623
                      -5.64420                      -1.32785                      89.73201
                      -5.95108                      -1.13293                      89.75117
                      -6.20026                      -0.86775                      89.76251
                      -6.37607                      -0.54896                      89.76532
                      -6.46747                      -0.19661                      89.75942
                      -6.46872                       0.16717                      89.74518
                      -6.37973                       0.51952                      89.72350
                      -6.20610                       0.83830                      89.69574
                      -5.95874                       1.10348                      89.66364
                      -5.65319                       1.29841                      89.62922
                      -5.30865                       1.41082                      89.59464
                      -4.94677                       1.43366                      89.56208
                      -4.59029                       1.36550                      89.53358
                      -4.26160                       1.21061                      89.51093
                      -3.98136                       0.97873                      89.49556
                      -3.76718                       0.68442                      89.48843
                      -3.63251                       0.34619                      89.48999
                      -3.63471                      -0.01963                      89.37903
                      -3.67777                      -0.37106                      89.39666
                      -3.80665                      -0.70041                      89.42093
                      -4.01324                      -0.98698                      89.45030
                      -4.28457                      -1.21277                      89.48295
                      -4.60359                      -1.36359                      89.51680
                      -4.95025                      -1.42996                      89.54975
                      -5.30278                      -1.40772                      89.57972
                      -5.63902                      -1.29826                      89.60482
                      -5.93784                      -1.10846                      89.62347
                      -6.18047                      -0.85024                      89.63452
                      -6.35166                      -0.53984                      89.63725
                      -6.44066                      -0.19674                      89.63151
                      -6.44187                       0.15748                      89.61764
                      -6.35523                       0.50058                      89.59653
                      -6.18616                       0.81098                      89.56950
                      -5.94530                       1.06920                      89.53824
                      -5.64778                       1.25900                      89.50472
                      -5.31229                       1.36846                      89.47106
                      -4.95991                       1.39070                      89.43935
                      -4.61279                       1.32433                      89.41160
                      -4.29274                       1.17351                      89.38955
                      -4.01986                       0.94772                      89.37458
                      -3.81131                       0.66115                      89.36763
                      -3.68018                       0.33180                      89.36915
                      -3.69603                      -0.02454                      89.25902
                      -3.73755                      -0.36339                      89.27601
                      -3.86181                      -0.68094                      89.29941
                      -4.06101                      -0.95726                      89.32774
                      -4.32262                      -1.17497                      89.35921
                      -4.63022                      -1.32039                      89.39186
                      -4.96448                      -1.38439                      89.42362
                      -5.30439                      -1.36294                      89.45252
                      -5.62859                      -1.25740                      89.47672
                      -5.91671                      -1.07439                      89.49471
                      -6.15066                      -0.82542                      89.50536
                      -6.31572                      -0.52612                      89.50799
                      -6.40154                      -0.19531                      89.50245
                      -6.40270                       0.14623                      89.48909
                      -6.31916                       0.47705                      89.46873
                      -6.15614                       0.77634                      89.44266
                      -5.92390                       1.02532                      89.41252
                      -5.63703                       1.20832                      89.38021
                      -5.31355                       1.31387                      89.34775
                      -4.97379                       1.33531                      89.31717
                      -4.63910                       1.27131                      89.29042
                      -4.33050                       1.12589                      89.26915
                      -4.06739                       0.90818                      89.25472
                      -3.86630                       0.63187                      89.24803
                      -3.73987                       0.31431                      89.24949
                      -3.77122                      -0.02944                      89.14021
                      -3.81077                      -0.35225                      89.15641
                      -3.92915                      -0.65478                      89.17870
                      -4.11892                      -0.91801                      89.20568
                      -4.36815                      -1.12541                      89.23566
                      -4.66119                      -1.26395                      89.26677
                      -4.97962                      -1.32492                      89.29703
                      -5.30344                      -1.30449                      89.32455
                      -5.61229                      -1.20394                      89.34761
                      -5.88678                      -1.02960                      89.36475
                      -6.10965                      -0.79241                      89.37489
                      -6.26690                      -0.50728                      89.37740
                      -6.34865                      -0.19213                      89.37213
                      -6.34976                       0.13324                      89.35939
                      -6.27017                       0.44839                      89.34000
                      -6.11487                       0.73352                      89.31517
                      -5.89363                       0.97071                      89.28645
                      -5.62034                       1.14505                      89.25567
                      -5.31217                       1.24560                      89.22474
                      -4.98850                       1.26603                      89.19562
                      -4.66965                       1.20506                      89.17013
                      -4.37566                       1.06652                      89.14987
                      -4.12501                       0.85912                      89.13612
                      -3.93343                       0.59589                      89.12974
                      -3.81298                       0.29336                      89.13114
                      -3.86249                      -0.03435                      89.02282
                      -3.89958                      -0.33711                      89.03801
                      -4.01061                      -0.62084                      89.05891
                      -4.18859                      -0.86773                      89.08422
                      -4.42234                      -1.06225                      89.11234
                      -4.69718                      -1.19218                      89.14151
                      -4.99583                      -1.24936                      89.16989
                      -5.29954                      -1.23020                      89.19571
                      -5.58921                      -1.13590                      89.21733
                      -5.84664                      -0.97238                      89.23341
                      -6.05567                      -0.74993                      89.24292
                      -6.20315                      -0.48251                      89.24528
                      -6.27982                      -0.18693                      89.24033
                      -6.28087                       0.11823                      89.22838
                      -6.20622                       0.41381                      89.21019
                      -6.06057                       0.68122                      89.18690
                      -5.85307                       0.90368                      89.15998
                      -5.59675                       1.06719                      89.13110
                      -5.30773                       1.16149                      89.10210
                      -5.00415                       1.18066                      89.07478
                      -4.70511                       1.12347                      89.05087
                      -4.42938                       0.99354                      89.03188
                      -4.19430                       0.79902                      89.01898
                      -4.01463                       0.55214                      89.01300
                      -3.90166                       0.26841                      89.01430
                      -3.97331                      -0.03926                      88.90713
                      -4.00735                      -0.31709                      88.92107
                      -4.10923                      -0.57746                      88.94025
                      -4.27256                      -0.80402                      88.96348
                      -4.48707                      -0.98252                      88.98928
                      -4.73927                      -1.10175                      89.01605
                      -5.01334                      -1.15423                      89.04210
                      -5.29203                      -1.13664                      89.06579
                      -5.55785                      -1.05011                      89.08563
                      -5.79409                      -0.90006                      89.10038
                      -5.98591                      -0.69592                      89.10911
                      -6.12125                      -0.45052                      89.11127
                      -6.19161                      -0.17928                      89.10673
                      -6.19257                       0.10076                      89.09577
                      -6.12406                       0.37200                      89.07908
                      -5.99040                       0.61740                      89.05771
                      -5.79999                       0.82154                      89.03300
                      -5.56478                       0.97159                      89.00650
                      -5.29955                       1.05812                      88.97988
                      -5.02097                       1.07571                      88.95482
                      -4.74655                       1.02323                      88.93288
                      -4.49353                       0.90400                      88.91544
                      -4.27780                       0.72550                      88.90361
                      -4.11292                       0.49894                      88.89812
                      -4.00925                       0.23857                      88.89932
                      -4.10959                      -0.04417                      88.79368
                      -4.13980                      -0.29072                      88.80604
                      -4.23021                      -0.52177                      88.82307
                      -4.37515                      -0.72282                      88.84368
                      -4.56551                      -0.88123                      88.86658
                      -4.78932                      -0.98704                      88.89033
                      -5.03253                      -1.03360                      88.91345
                      -5.27984                      -1.01800                      88.93447
                      -5.51574                      -0.94121                      88.95208
                      -5.72538                      -0.80805                      88.96517
                      -5.89560                      -0.62689                      88.97291
                      -6.01570                      -0.40912                      88.97483
                      -6.07814                      -0.16842                      88.97080
                      -6.07899                       0.08009                      88.96108
                      -6.01820                       0.32079                      88.94626
                      -5.89959                       0.53856                      88.92730
                      -5.73061                       0.71971                      88.90537
                      -5.52188                       0.85287                      88.88186
                      -5.28651                       0.92966                      88.85824
                      -5.03930                       0.94527                      88.83599
                      -4.79578                       0.89870                      88.81652
                      -4.57124                       0.79289                      88.80105
                      -4.37980                       0.63449                      88.79055
                      -4.23349                       0.43344                      88.78568
                      -4.14149                       0.20238                      88.78674
                      -4.28286                      -0.04907                      88.68345
                      -4.30811                      -0.25512                      88.69379
                      -4.38366                      -0.44822                      88.70802
                      -4.50479                      -0.61623                      88.72524
                      -4.66387                      -0.74861                      88.74438
                      -4.85091                      -0.83704                      88.76423
                      -5.05416                      -0.87596                      88.78355
                      -5.26085                      -0.86292                      88.80112
                      -5.45799                      -0.79874                      88.81583
                      -5.63319                      -0.68746                      88.82677
                      -5.77544                      -0.53606                      88.83325
                      -5.87581                      -0.35407                      88.83485
                      -5.92799                      -0.15292                      88.83148
                      -5.92870                       0.05477                      88.82335
                      -5.87790                       0.25592                      88.81097
                      -5.77878                       0.43792                      88.79512
                      -5.63756                       0.58931                      88.77680
                      -5.46312                       0.70059                      88.75715
                      -5.26643                       0.76477                      88.73741
                      -5.05983                       0.77781                      88.71882
                      -4.85631                       0.73889                      88.70255
                      -4.66866                       0.65047                      88.68962
                      -4.50867                       0.51808                      88.68084
                      -4.38640                       0.35007                      88.67677
                      -4.30952                       0.15697                      88.67766
                      -4.52255                      -0.05398                      88.57904
                      -4.54080                      -0.20295                      88.58652
                      -4.59543                      -0.34256                      88.59680
                      -4.68300                      -0.46404                      88.60925
                      -4.79802                      -0.55975                      88.62309
                      -4.93325                      -0.62368                      88.63744
                      -5.08020                      -0.65182                      88.65141
                      -5.22964                      -0.64239                      88.66411
                      -5.37217                      -0.59599                      88.67475
                      -5.49884                      -0.51553                      88.68266
                      -5.60169                      -0.40608                      88.68734
                      -5.67425                      -0.27450                      88.68850
                      -5.71198                      -0.12906                      88.68607
                      -5.71249                       0.02109                      88.68019
                      -5.67576                       0.16653                      88.67124
                      -5.60410                       0.29811                      88.65978
                      -5.50200                       0.40757                      88.64653
                      -5.37588                       0.48802                      88.63232
                      -5.23367                       0.53442                      88.61805
                      -5.08430                       0.54385                      88.60461
                      -4.93715                       0.51572                      88.59285
                      -4.80148                       0.45178                      88.58350
                      -4.68581                       0.35607                      88.57715
                      -4.59741                       0.23460                      88.57421
                      -4.54182                       0.09499                      88.57485
                      -5.13063                      -0.05889                      88.50686
                      -5.13063                      -0.05889                      88.50686
                      -5.13063                      -0.05889                      88.50686
                      -5.13063                      -0.05889                      88.50686
                      -5.13063                      -0.05889                      88.50686
                      -5.13063                      -0.05889                      88.50686
                      -5.13063                      -0.05889                      88.50686
                      -5.13063                      -0.05889                      88.50686
                      -5.13063                      -0.05889                      88.50686
                      -5.13063                      -0.05889                      88.50686
                      -5.13063                      -0.05889                      88.50686
                      -5.13063                      -0.05889                      88.50686
                      -5.13063                      -0.05889                      88.50686
                      -5.13063                      -0.05889                      88.50686
                      -5.13063                      -0.05889                      88.50686
                      -5.13063                      -0.05889                      88.50686
                      -5.13063                      -0.05889                      88.50686
                      -5.13063                      -0.05889                      88.50686
                      -5.13063                      -0.05889                      88.50686
                      -5.13063                      -0.05889                      88.50686
                      -5.13063                      -0.05889                      88.50686
                      -5.13063                      -0.05889                      88.50686
                      -5.13063                      -0.05889                      88.50686
                      -5.13063                      -0.05889                      88.50686
                      -5.13063                      -0.05889                      88.50686
        </DataArray>
      </Points>
      <Polys>
        <DataArray type="Int32" Name="connectivity" format="ascii">
      0      1     26     25
      1      2     27     26
      2      3     28     27
      3      4     29     28
      4      5     30     29
      5      6     31     30
      6      7     32     31
      7      8     33     32
      8      9     34     33
      9     10     35     34
     10     11     36     35
     11     12     37     36
     12     13     38     37
     13     14     39     38
     14     15     40     39
     15     16     41     40
     16     17     42     41
     17     18     43     42
     18     19     44     43
     19     20     45     44
     20     21     46     45
     21     22     47     46
     22     23     48     47
     23     24     49     48
     24      0     25     49
     25     26     51     50
     26     27     52     51
     27     28     53     52
     28     29     54     53
     29     30     55     54
     30     31     56     55
     31     32     57     56
     32     33     58     57
     33     34     59     58
     34     35     60     59
     35     36     61     60
     36     37     62     61
     37     38     63     62
     38     39     64     63
     39     40     65     64
     40     41     66     65
     41     42     67     66
     42     43     68     67
     43     44     69     68
     44     45     70     69
     45     46     71     70
     46     47     72     71
     47     48     73     72
     48     49     74     73
     49     25     50     74
     50     51     76     75
     51     52     77     76
     52     53     78     77
     53     54     79     78
     54     55     80     79
     55     56     81     80
     56     57     82     81
     57     58     83     82
     58     59     84     83
     59     60     85     84
     60     61     86     85
     61     62     87     86
     62     63     88     87
     63     64     89     88
     64     65     90     89
     65     66     91     90
     66     67     92     91
     67     68     93     92
     68     69     94     93
     69     70     95     94
     70     71     96     95
     71     72     97     96
     72     73     98     97
     73     74     99     98
     74     50     75     99
     75     76    101    100
     76     77    102    101
     77     78    103    102
     78     79    104    103
     79     80    105    104
     80     81    106    105
     81     82    107    106
     82     83    108    107
     83     84    109    108
     84     85    110    109
     85     86    111    110
     86     87    112    111
     87     88    113    112
     88     89    114    113
     89     90    115    114
     90     91    116    115
     91     92    117    116
     92     93    118    117
     93     94    119    118
     94     95    120    119
     95     96    121    120
     96     97    122    121
     97     98    123    122
     98     99    124    123
     99     75    100    124
    100    101    126    125
    101    102    127    126
    102    103    128    127
    103    104    129    128
    104    105    130    129
    105    106    131    130
    106    107    132    131
    107    108    133    132
    108    109    134    133
    109    110    135    134
    110    111    136    135
    111    112    137    136
    112    113    138    137
    113    114    139    138
    114    115    140    139
    115    116    141    140
    116    117    142    141
    117    118    143    142
    118    119    144    143
    119    120    145    144
    120    121    146    145
    121    122    147    146
    122    123    148    147
    123    124    149    148
    124    100    125    149
    125    126    151    150
    126    127    152    151
    127    128    153    152
    128    129    154    153
    129    130    155    154
    130    131    156    155
    131    132    157    156
    132    133    158    157
    133    134    159    158
    134    135    160    159
    135    136    161    160
    136    137    162    161
    137    138    163    162
    138    139    164    163
    139    140    165    164
    140    141    166    165
    141    142    167    166
    142    143    168    167
    143    144    169    168
    144    145    170    169
    145    146    171    170
    146    147    172    171
    147    148    173    172
    148    149    174    173
    149    125    150    174
    150    151    176    175
    151    152    177    176
    152    153    178    177
    153    154    179    178
    154    155    180    179
    155    156    181    180
    156    157    182    181
    157    158    183    182
    158    159    184    183
    159    160    185    184
    160    161    186    185
    161    162    187    186
    162    163    188    187
    163    164    189    188
    164    165    190    189
    165    166    191    190
    166    167    192    191
    167    168    193    192
    168    169    194    193
    169    170    195    194
    170    171    196    195
    171    172    197    196
    172    173    198    197
    173    174    199    198
    174    150    175    199
    175    176    201    200
    176    177    202    201
    177    178    203    202
    178    179    204    203
    179    180    205    204
    180    181    206    205
    181    182    207    206
    182    183    208    207
    183    184    209    208
    184    185    210    209
    185    186    211    210
    186    187    212    211
    187    188    213    212
    188    189    214    213
    189    190    215    214
    190    191    216    215
    191    192    217    216
    192    193    218    217
    193    194    219    218
    194    195    220    219
    195    196    221    220
    196    197    222    221
    197    198    223    222
    198    199    224    223
    199    175    200    224
    200    201    226    225
    201    202    227    226
    202    203    228    227
    203    204    229    228
    204    205    230    229
    205    206    231    230
    206    207    232    231
    207    208    233    232
    208    209    234    233
    209    210    235    234
    210    211    236    235
    211    212    237    236
    212    213    238    237
    213    214    239    238
    214    215    240    239
    215    216    241    240
    216    217    242    241
    217    218    243    242
    218    219    244    243
    219    220    245    244
    220    221    246    245
    221    222    247    246
    222    223    248    247
    223    224    249    248
    224    200    225    249
    225    226    251    250
    226    227    252    251
    227    228    253    252
    228    229    254    253
    229    230    255    254
    230    231    256    255
    231    232    257    256
    232    233    258    257
    233    234    259    258
    234    235    260    259
    235    236    261    260
    236    237    262    261
    237    238    263    262
    238    239    264    263
    239    240    265    264
    240    241    266    265
    241    242    267    266
    242    243    268    267
    243    244    269    268
    244    245    270    269
    245    246    271    270
    246    247    272    271
    247    248    273    272
    248    249    274    273
    249    225    250    274
    250    251    276    275
    251    252    277    276
    252    253    278    277
    253    254    279    278
    254    255    280    279
    255    256    281    280
    256    257    282    281
    257    258    283    282
    258    259    284    283
    259    260    285    284
    260    261    286    285
    261    262    287    286
    262    263    288    287
    263    264    289    288
    264    265    290    289
    265    266    291    290
    266    267    292    291
    267    268    293    292
    268    269    294    293
    269    270    295    294
    270    271    296    295
    271    272    297    296
    272    273    298    297
    273    274    299    298
    274    250    275    299
    275    276    301    300
    276    277    302    301
    277    278    303    302
    278    279    304    303
    279    280    305    304
    280    281    306    305
    281    282    307    306
    282    283    308    307
    283    284    309    308
    284    285    310    309
    285    286    311    310
    286    287    312    311
    287    288    313    312
    288    289    314    313
    289    290    315    314
    290    291    316    315
    291    292    317    316
    292    293    318    317
    293    294    319    318
    294    295    320    319
    295    296    321    320
    296    297    322    321
    297    298    323    322
    298    299    324    323
    299    275    300    324
    300    301    326    325
    301    302    327    326
    302    303    328    327
    303    304    329    328
    304    305    330    329
    305    306    331    330
    306    307    332    331
    307    308    333    332
    308    309    334    333
    309    310    335    334
    310    311    336    335
    311    312    337    336
    312    313    338    337
    313    314    339    338
    314    315    340    339
    315    316    341    340
    316    317    342    341
    317    318    343    342
    318    319    344    343
    319    320    345    344
    320    321    346    345
    321    322    347    346
    322    323    348    347
    323    324    349    348
    324    300    325    349
    325    326    351    350
    326    327    352    351
    327    328    353    352
    328    329    354    353
    329    330    355    354
    330    331    356    355
    331    332    357    356
    332    333    358    357
    333    334    359    358
    334    335    360    359
    335    336    361    360
    336    337    362    361
    337    338    363    362
    338    339    364    363
    339    340    365    364
    340    341    366    365
    341    342    367    366
    342    343    368    367
    343    344    369    368
    344    345    370    369
    345    346    371    370
    346    347    372    371
    347    348    373    372
    348    349    374    373
    349    325    350    374
    350    351    376    375
    351    352    377    376
    352    353    378    377
    353    354    379    378
    354    355    380    379
    355    356    381    380
    356    357    382    381
    357    358    383    382
    358    359    384    383
    359    360    385    384
    360    361    386    385
    361    362    387    386
    362    363    388    387
    363    364    389    388
    364    365    390    389
    365    366    391    390
    366    367    392    391
    367    368    393    392
    368    369    394    393
    369    370    395    394
    370    371    396    395
    371    372    397    396
    372    373    398    397
    373    374    399    398
    374    350    375    399
    375    376    401    400
    376    377    402    401
    377    378    403    402
    378    379    404    403
    379    380    405    404
    380    381    406    405
    381    382    407    406
    382    383    408    407
    383    384    409    408
    384    385    410    409
    385    386    411    410
    386    387    412    411
    387    388    413    412
    388    389    414    413
    389    390    415    414
    390    391    416    415
    391    392    417    416
    392    393    418    417
    393    394    419    418
    394    395    420    419
    395    396    421    420
    396    397    422    421
    397    398    423    422
    398    399    424    423
    399    375    400    424
    400    401    426    425
    401    402    427    426
    402    403    428    427
    403    404    429    428
    404    405    430    429
    405    406    431    430
    406    407    432    431
    407    408    433    432
    408    409    434    433
    409    410    435    434
    410    411    436    435
    411    412    437    436
    412    413    438    437
    413    414    439    438
    414    415    440    439
    415    416    441    440
    416    417    442    441
    417    418    443    442
    418    419    444    443
    419    420    445    444
    420    421    446    445
    421    422    447    446
    422    423    448    447
    423    424    449    448
    424    400    425    449
    425    426    451    450
    426    427    452    451
    427    428    453    452
    428    429    454    453
    429    430    455    454
    430    431    456    455
    431    432    457    456
    432    433    458    457
    433    434    459    458
    434    435    460    459
    435    436    461    460
    436    437    462    461
    437    438    463    462
    438    439    464    463
    439    440    465    464
    440    441    466    465
    441    442    467    466
    442    443    468    467
    443    444    469    468
    444    445    470    469
    445    446    471    470
    446    447    472    471
    447    448    473    472
    448    449    474    473
    449    425    450    474
    450    451    476    475
    451    452    477    476
    452    453    478    477
    453    454    479    478
    454    455    480    479
    455    456    481    480
    456    457    482    481
    457    458    483    482
    458    459    484    483
    459    460    485    484
    460    461    486    485
    461    462    487    486
    462    463    488    487
    463    464    489    488
    464    465    490    489
    465    466    491    490
    466    467    492    491
    467    468    493    492
    468    469    494    493
    469    470    495    494
    470    471    496    495
    471    472    497    496
    472    473    498    497
    473    474    499    498
    474    450    475    499
    475    476    501    500
    476    477    502    501
    477    478    503    502
    478    479    504    503
    479    480    505    504
    480    481    506    505
    481    482    507    506
    482    483    508    507
    483    484    509    508
    484    485    510    509
    485    486    511    510
    486    487    512    511
    487    488    513    512
    488    489    514    513
    489    490    515    514
    490    491    516    515
    491    492    517    516
    492    493    518    517
    493    494    519    518
    494    495    520    519
    495    496    521    520
    496    497    522    521
    497    498    523    522
    498    499    524    523
    499    475    500    524
    500    501    526    525
    501    502    527    526
    502    503    528    527
    503    504    529    528
    504    505    530    529
    505    506    531    530
    506    507    532    531
    507    508    533    532
    508    509    534    533
    509    510    535    534
    510    511    536    535
    511    512    537    536
    512    513    538    537
    513    514    539    538
    514    515    540    539
    515    516    541    540
    516    517    542    541
    517    518    543    542
    518    519    544    543
    519    520    545    544
    520    521    546    545
    521    522    547    546
    522    523    548    547
    523    524    549    548
    524    500    525    549
    525    526    551    550
    526    527    552    551
    527    528    553    552
    528    529    554    553
    529    530    555    554
    530    531    556    555
    531    532    557    556
    532    533    558    557
    533    534    559    558
    534    535    560    559
    535    536    561    560
    536    537    562    561
    537    538    563    562
    538    539    564    563
    539    540    565    564
    540    541    566    565
    541    542    567    566
    542    543    568    567
    543    544    569    568
    544    545    570    569
    545    546    571    570
    546    547    572    571
    547    548    573    572
    548    549    574    573
    549    525    550    574
    550    551    576    575
    551    552    577    576
    552    553    578    577
    553    554    579    578
    554    555    580    579
    555    556    581    580
    556    557    582    581
    557    558    583    582
    558    559    584    583
    559    560    585    584
    560    561    586    585
    561    562    587    586
    562    563    588    587
    563    564    589    588
    564    565    590    589
    565    566    591    590
    566    567    592    591
    567    568    593    592
    568    569    594    593
    569    570    595    594
    570    571    596    595
    571    572    597    596
    572    573    598    597
    573    574    599    598
    574    550    575    599
    575    576    601    600
    576    577    602    601
    577    578    603    602
    578    579    604    603
    579    580    605    604
    580    581    606    605
    581    582    607    606
    582    583    608    607
    583    584    609    608
    584    585    610    609
    585    586    611    610
    586    587    612    611
    587    588    613    612
    588    589    614    613
    589    590    615    614
    590    591    616    615
    591    592    617    616
    592    593    618    617
    593    594    619    618
    594    595    620    619
    595    596    621    620
    596    597    622    621
    597    598    623    622
    598    599    624    623
    599    575    600    624
        </DataArray>
        <DataArray type="Int32" Name="offsets" format="ascii">
      4
      8
     12
     16
     20
     24
     28
     32
     36
     40
     44
     48
     52
     56
     60
     64
     68
     72
     76
     80
     84
     88
     92
     96
    100
    104
    108
    112
    116
    120
    124
    128
    132
    136
    140
    144
    148
    152
    156
    160
    164
    168
    172
    176
    180
    184
    188
    192
    196
    200
    204
    208
    212
    216
    220
    224
    228
    232
    236
    240
    244
    248
    252
    256
    260
    264
    268
    272
    276
    280
    284
    288
    292
    296
    300
    304
    308
    312
    316
    320
    324
    328
    332
    336
    340
    344
    348
    352
    356
    360
    364
    368
    372
    376
    380
    384
    388
    392
    396
    400
    404
    408
    412
    416
    420
    424
    428
    432
    436
    440
    444
    448
    452
    456
    460
    464
    468
    472
    476
    480
    484
    488
    492
    496
    500
    504
    508
    512
    516
    520
    524
    528
    532
    536
    540
    544
    548
    552
    556
    560
    564
    568
    572
    576
    580
    584
    588
    592
    596
    600
    604
    608
    612
    616
    620
    624
    628
    632
    636
    640
    644
    648
    652
    656
    660
    664
    668
    672
    676
    680
    684
    688
    692
    696
    700
    704
    708
    712
    716
    720
    724
    728
    732
    736
    740
    744
    748
    752
    756
    760
    764
    768
    772
    776
    780
    784
    788
    792
    796
    800
    804
    808
    812
    816
    820
    824
    828
    832
    836
    840
    844
    848
    852
    856
    860
    864
    868
    872
    876
    880
    884
    888
    892
    896
    900
    904
    908
    912
    916
    920
    924
    928
    932
    936
    940
    944
    948
    952
    956
    960
    964
    968
    972
    976
    980
    984
    988
    992
    996
   1000
   1004
   1008
   1012
   1016
   1020
   1024
   1028
   1032
   1036
   1040
   1044
   1048
   1052
   1056
   1060
   1064
   1068
   1072
   1076
   1080
   1084
   1088
   1092
   1096
   1100
   1104
   1108
   1112
   1116
   1120
   1124
   1128
   1132
   1136
   1140
   1144
   1148
   1152
   1156
   1160
   1164
   1168
   1172
   1176
   1180
   1184
   1188
   1192
   1196
   1200
   1204
   1208
   1212
   1216
   1220
   1224
   1228
   1232
   1236
   1240
   1244
   1248
   1252
   1256
   1260
   1264
   1268
   1272
   1276
   1280
   1284
   1288
   1292
   1296
   1300
   1304
   1308
   1312
   1316
   1320
   1324
   1328
   1332
   1336
   1340
   1344
   1348
   1352
   1356
   1360
   1364
   1368
   1372
   1376
   1380
   1384
   1388
   1392
   1396
   1400
   1404
   1408
   1412
   1416
   1420
   1424
   1428
   1432
   1436
   1440
   1444
   1448
   1452
   1456
   1460
   1464
   1468
   1472
   1476
   1480
   1484
   1488
   1492
   1496
   1500
   1504
   1508
   1512
   1516
   1520
   1524
   1528
   1532
   1536
   1540
   1544
   1548
   1552
   1556
   1560
   1564
   1568
   1572
   1576
   1580
   1584
   1588
   1592
   1596
   1600
   1604
   1608
   1612
   1616
   1620
   1624
   1628
   1632
   1636
   1640
   1644
   1648
   1652
   1656
   1660
   1664
   1668
   1672
   1676
   1680
   1684
   1688
   1692
   1696
   1700
   1704
   1708
   1712
   1716
   1720
   1724
   1728
   1732
   1736
   1740
   1744
   1748
   1752
   1756
   1760
   1764
   1768
   1772
   1776
   1780
   1784
   1788
   1792
   1796
   1800
   1804
   1808
   1812
   1816
   1820
   1824
   1828
   1832
   1836
   1840
   1844
   1848
   1852
   1856
   1860
   1864
   1868
   1872
   1876
   1880
   1884
   1888
   1892
   1896
   1900
   1904
   1908
   1912
   1916
   1920
   1924
   1928
   1932
   1936
   1940
   1944
   1948
   1952
   1956
   1960
   1964
   1968
   1972
   1976
   1980
   1984
   1988
   1992
   1996
   2000
   2004
   2008
   2012
   2016
   2020
   2024
   2028
   2032
   2036
   2040
   2044
   2048
   2052
   2056
   2060
   2064
   2068
   2072
   2076
   2080
   2084
   2088
   2092
   2096
   2100
   2104
   2108
   2112
   2116
   2120
   2124
   2128
   2132
   2136
   2140
   2144
   2148
   2152
   2156
   2160
   2164
   2168
   2172
   2176
   2180
   2184
   2188
   2192
   2196
   2200
   2204
   2208
   2212
   2216
   2220
   2224
   2228
   2232
   2236
   2240
   2244
   2248
   2252
   2256
   2260
   2264
   2268
   2272
   2276
   2280
   2284
   2288
   2292
   2296
   2300
   2304
   2308
   2312
   2316
   2320
   2324
   2328
   2332
   2336
   2340
   2344
   2348
   2352
   2356
   2360
   2364
   2368
   2372
   2376
   2380
   2384
   2388
   2392
   2396
   2400
        </DataArray>
      </Polys>
    </Piece>
  </PolyData>
</VTKFile>
