<?xml version="1.0"?>
<VTKFile type="PolyData" version="0.1" byte_order="LittleEndian">
  <PolyData>
    <Piece NumberOfPoints="    625" NumberOfVerts="  0" NumberOfLines="      0"
           NumberOfStrips="  0" NumberOfPolys="    600">
      <Points>
        <DataArray type="Float32" NumberOfComponents="3" format="ascii">
                      -4.88242                       0.65567                      91.34398
                      -4.88242                       0.65567                      91.34398
                      -4.88242                       0.65567                      91.34398
                      -4.88242                       0.65567                      91.34398
                      -4.88242                       0.65567                      91.34398
                      -4.88242                       0.65567                      91.34398
                      -4.88242                       0.65567                      91.34398
                      -4.88242                       0.65567                      91.34398
                      -4.88242                       0.65567                      91.34398
                      -4.88242                       0.65567                      91.34398
                      -4.88242                       0.65567                      91.34398
                      -4.88242                       0.65567                      91.34398
                      -4.88242                       0.65567                      91.34398
                      -4.88242                       0.65567                      91.34398
                      -4.88242                       0.65567                      91.34398
                      -4.88242                       0.65567                      91.34398
                      -4.88242                       0.65567                      91.34398
                      -4.88242                       0.65567                      91.34398
                      -4.88242                       0.65567                      91.34398
                      -4.88242                       0.65567                      91.34398
                      -4.88242                       0.65567                      91.34398
                      -4.88242                       0.65567                      91.34398
                      -4.88242                       0.65567                      91.34398
                      -4.88242                       0.65567                      91.34398
                      -4.88242                       0.65567                      91.34398
                      -4.29502                       0.60103                      91.17973
                      -4.30810                       0.46695                      91.24629
                      -4.35789                       0.34128                      91.31195
                      -4.44124                       0.23194                      91.37259
                      -4.55294                       0.14579                      91.42439
                      -4.68595                       0.08825                      91.46410
                      -4.83193                       0.06292                      91.48923
                      -4.98169                       0.07141                      91.49819
                      -5.12583                       0.11317                      91.49043
                      -5.25529                       0.18559                      91.46642
                      -5.36194                       0.28412                      91.42769
                      -5.43907                       0.40255                      91.37666
                      -5.48184                       0.53346                      91.31653
                      -5.48757                       0.66861                      91.25110
                      -5.45588                       0.79952                      91.18446
                      -5.38878                       0.91795                      91.12081
                      -5.29048                       1.01648                      91.06415
                      -5.16716                       1.08889                      91.01803
                      -5.02655                       1.13066                      90.98535
                      -4.87751                       1.13914                      90.96817
                      -4.72939                       1.11382                      90.96757
                      -4.59151                       1.05627                      90.98358
                      -4.47251                       0.97012                      91.01520
                      -4.37989                       0.86078                      91.06044
                      -4.31946                       0.73512                      91.11645
                      -4.07601                       0.54639                      91.04772
                      -4.09411                       0.36093                      91.13978
                      -4.16297                       0.18713                      91.23060
                      -4.27826                       0.03590                      91.31446
                      -4.43275                      -0.08326                      91.38611
                      -4.61672                      -0.16285                      91.44104
                      -4.81862                      -0.19788                      91.47579
                      -5.02576                      -0.18614                      91.48819
                      -5.22513                      -0.12838                      91.47745
                      -5.40419                      -0.02821                      91.44425
                      -5.55170                       0.10806                      91.39067
                      -5.65838                       0.27187                      91.32009
                      -5.71754                       0.45293                      91.23693
                      -5.72546                       0.63986                      91.14643
                      -5.68164                       0.82092                      91.05426
                      -5.58883                       0.98473                      90.96622
                      -5.45287                       1.12100                      90.88785
                      -5.28229                       1.22117                      90.82406
                      -5.08782                       1.27893                      90.77886
                      -4.88168                       1.29067                      90.75510
                      -4.67681                       1.25564                      90.75426
                      -4.48609                       1.17605                      90.77641
                      -4.32151                       1.05689                      90.82014
                      -4.19340                       0.90566                      90.88271
                      -4.10982                       0.73185                      90.96019
                      -3.92343                       0.49176                      90.92151
                      -3.94508                       0.26984                      91.03167
                      -4.02748                       0.06186                      91.14034
                      -4.16544                      -0.11910                      91.24070
                      -4.35030                      -0.26168                      91.32643
                      -4.57044                      -0.35692                      91.39215
                      -4.81203                      -0.39883                      91.43374
                      -5.05989                      -0.38479                      91.44857
                      -5.29845                      -0.31567                      91.43572
                      -5.51271                      -0.19581                      91.39599
                      -5.68921                      -0.03276                      91.33189
                      -5.81687                       0.16326                      91.24743
                      -5.88766                       0.37991                      91.14792
                      -5.89714                       0.60360                      91.03963
                      -5.84470                       0.82025                      90.92934
                      -5.73365                       1.01627                      90.82400
                      -5.57096                       1.17932                      90.73021
                      -5.36685                       1.29918                      90.65388
                      -5.13415                       1.36830                      90.59980
                      -4.88748                       1.38235                      90.57137
                      -4.64234                       1.34043                      90.57037
                      -4.41413                       1.24519                      90.59687
                      -4.21719                       1.10261                      90.64920
                      -4.06390                       0.92165                      90.72407
                      -3.96388                       0.71367                      90.81679
                      -3.80783                       0.43712                      90.79854
                      -3.83223                       0.18704                      90.92268
                      -3.92508                      -0.04732                      91.04514
                      -4.08054                      -0.25124                      91.15823
                      -4.28886                      -0.41191                      91.25484
                      -4.53693                      -0.51923                      91.32890
                      -4.80917                      -0.56647                      91.37576
                      -5.08847                      -0.55064                      91.39247
                      -5.35730                      -0.47275                      91.37799
                      -5.59874                      -0.33769                      91.33322
                      -5.79764                      -0.15394                      91.26098
                      -5.94150                       0.06694                      91.16581
                      -6.02127                       0.31108                      91.05368
                      -6.03195                       0.56315                      90.93164
                      -5.97286                       0.80729                      90.80736
                      -5.84772                       1.02817                      90.68866
                      -5.66438                       1.21192                      90.58297
                      -5.43438                       1.34698                      90.49696
                      -5.17215                       1.42487                      90.43602
                      -4.89419                       1.44070                      90.40398
                      -4.61794                       1.39347                      90.40285
                      -4.36078                       1.28614                      90.43271
                      -4.13886                       1.12547                      90.49168
                      -3.96612                       0.92155                      90.57605
                      -3.85342                       0.68719                      90.68053
                      -3.71770                       0.38248                      90.67780
                      -3.74429                       0.10996                      90.81308
                      -3.84547                      -0.14542                      90.94652
                      -4.01488                      -0.36764                      91.06976
                      -4.24188                      -0.54273                      91.17503
                      -4.51221                      -0.65968                      91.25574
                      -4.80888                      -0.71115                      91.30681
                      -5.11324                      -0.69390                      91.32502
                      -5.40619                      -0.60902                      91.30924
                      -5.66930                      -0.46184                      91.26046
                      -5.88604                      -0.26161                      91.18173
                      -6.04281                      -0.02091                      91.07802
                      -6.12974                       0.24514                      90.95583
                      -6.14137                       0.51982                      90.82284
                      -6.07698                       0.78586                      90.68742
                      -5.94061                       1.02657                      90.55806
                      -5.74082                       1.22680                      90.44289
                      -5.49018                       1.37398                      90.34916
                      -5.20443                       1.45886                      90.28275
                      -4.90153                       1.47610                      90.24783
                      -4.60050                       1.42463                      90.24661
                      -4.32026                       1.30768                      90.27915
                      -4.07843                       1.13260                      90.34341
                      -3.89019                       0.91038                      90.43535
                      -3.76737                       0.65499                      90.54920
                      -3.64711                       0.32784                      90.55877
                      -3.67546                       0.03728                      90.70301
                      -3.78334                      -0.23503                      90.84529
                      -3.96398                      -0.47196                      90.97668
                      -4.20601                      -0.65864                      91.08894
                      -4.49424                      -0.78334                      91.17499
                      -4.81056                      -0.83822                      91.22943
                      -5.13509                      -0.81983                      91.24886
                      -5.44743                      -0.72933                      91.23203
                      -5.72796                      -0.57240                      91.18001
                      -5.95907                      -0.35891                      91.09608
                      -6.12621                      -0.10227                      90.98550
                      -6.21890                       0.18140                      90.85521
                      -6.23130                       0.47427                      90.71342
                      -6.16265                       0.75794                      90.56902
                      -6.01724                       1.01458                      90.43109
                      -5.80423                       1.22808                      90.30830
                      -5.53699                       1.38500                      90.20836
                      -5.23231                       1.47550                      90.13756
                      -4.90934                       1.49389                      90.10033
                      -4.58838                       1.43901                      90.09902
                      -4.28958                       1.31432                      90.13371
                      -4.03173                       1.12764                      90.20223
                      -3.83103                       0.89070                      90.30026
                      -3.70008                       0.61840                      90.42165
                      -3.59261                       0.27320                      90.44115
                      -3.62237                      -0.03180                      90.59255
                      -3.73561                      -0.31763                      90.74190
                      -3.92522                      -0.56634                      90.87983
                      -4.17928                      -0.76230                      90.99766
                      -4.48183                      -0.89320                      91.08798
                      -4.81387                      -0.95080                      91.14514
                      -5.15452                      -0.93150                      91.16552
                      -5.48238                      -0.83650                      91.14786
                      -5.77686                      -0.67177                      91.09326
                      -6.01944                      -0.44767                      91.00515
                      -6.19489                      -0.17828                      90.88908
                      -6.29219                       0.11949                      90.75232
                      -6.30521                       0.42691                      90.60348
                      -6.23314                       0.72467                      90.45191
                      -6.08051                       0.99407                      90.30713
                      -5.85691                       1.21817                      90.17823
                      -5.57639                       1.38289                      90.07333
                      -5.25658                       1.47789                      89.99900
                      -4.91756                       1.49720                      89.95992
                      -4.58065                       1.43959                      89.95855
                      -4.26700                       1.30870                      89.99497
                      -3.99634                       1.11274                      90.06689
                      -3.78566                       0.86403                      90.16979
                      -3.64820                       0.57820                      90.29722
                      -3.55197                       0.21856                      90.32474
                      -3.58284                      -0.09776                      90.48176
                      -3.70028                      -0.39421                      90.63666
                      -3.89693                      -0.65215                      90.77970
                      -4.16043                      -0.85539                      90.90191
                      -4.47421                      -0.99114                      90.99559
                      -4.81857                      -1.05088                      91.05486
                      -5.17187                      -1.03086                      91.07601
                      -5.51191                      -0.93234                      91.05769
                      -5.81732                      -0.76150                      91.00106
                      -6.06891                      -0.52908                      90.90968
                      -6.25087                      -0.24968                      90.78930
                      -6.35178                       0.05914                      90.64746
                      -6.36528                       0.37798                      90.49310
                      -6.29054                       0.68679                      90.33590
                      -6.13224                       0.96619                      90.18574
                      -5.90034                       1.19861                      90.05206
                      -5.60941                       1.36945                      89.94326
                      -5.27772                       1.46798                      89.86618
                      -4.92612                       1.48800                      89.82565
                      -4.57669                       1.42826                      89.82422
                      -4.25141                       1.29250                      89.86199
                      -3.97069                       1.08927                      89.93658
                      -3.75219                       0.83133                      90.04331
                      -3.60963                       0.53488                      90.17546
                      -3.52376                       0.16392                      90.20941
                      -3.55546                      -0.16094                      90.37067
                      -3.67607                      -0.46538                      90.52975
                      -3.87803                      -0.73028                      90.67666
                      -4.14863                      -0.93900                      90.80216
                      -4.47088                      -1.07842                      90.89836
                      -4.82454                      -1.13977                      90.95924
                      -5.18737                      -1.11921                      90.98095
                      -5.53658                      -1.01803                      90.96214
                      -5.85022                      -0.84258                      90.90398
                      -6.10860                      -0.60389                      90.81014
                      -6.29548                      -0.31695                      90.68651
                      -6.39910                       0.00020                      90.54085
                      -6.41297                       0.32764                      90.38232
                      -6.33621                       0.64479                      90.22087
                      -6.17365                       0.93172                      90.06667
                      -5.93549                       1.17042                      89.92938
                      -5.63671                       1.34587                      89.81765
                      -5.29607                       1.44705                      89.73848
                      -4.93498                       1.46761                      89.69686
                      -4.57613                       1.40625                      89.69540
                      -4.24207                       1.26684                      89.73419
                      -3.95378                       1.05812                      89.81079
                      -3.72938                       0.79322                      89.92039
                      -3.58298                       0.48877                      90.05611
                      -3.50701                       0.10928                      90.09509
                      -3.53929                      -0.22154                      90.25931
                      -3.66212                      -0.53157                      90.42131
                      -3.86778                      -0.80133                      90.57091
                      -4.14335                      -1.01388                      90.69871
                      -4.47151                      -1.15585                      90.79669
                      -4.83165                      -1.21833                      90.85868
                      -5.20114                      -1.19740                      90.88079
                      -5.55676                      -1.09436                      90.86163
                      -5.87616                      -0.91569                      90.80241
                      -6.13928                      -0.67262                      90.70684
                      -6.32959                      -0.38041                      90.58094
                      -6.43512                      -0.05744                      90.43261
                      -6.44924                       0.27600                      90.27117
                      -6.37107                       0.59897                      90.10676
                      -6.20552                       0.89117                      89.94973
                      -5.96299                       1.13425                      89.80992
                      -5.65873                       1.31291                      89.69614
                      -5.31184                       1.41595                      89.61552
                      -4.94412                       1.43689                      89.57313
                      -4.57869                       1.37441                      89.57164
                      -4.23850                       1.23244                      89.61114
                      -3.94492                       1.01989                      89.68915
                      -3.71641                       0.75013                      89.80077
                      -3.56731                       0.44010                      89.93898
                      -3.50111                       0.05464                      89.98172
                      -3.53373                      -0.27970                      90.14769
                      -3.65786                      -0.59304                      90.31141
                      -3.86572                      -0.86568                      90.46261
                      -4.14422                      -1.08049                      90.59177
                      -4.47589                      -1.22398                      90.69079
                      -4.83987                      -1.28712                      90.75344
                      -5.21329                      -1.26596                      90.77579
                      -5.57270                      -1.16182                      90.75643
                      -5.89551                      -0.98125                      90.69658
                      -6.16143                      -0.73559                      90.59999
                      -6.35376                      -0.44027                      90.47275
                      -6.46042                      -0.11386                      90.32283
                      -6.47469                       0.22314                      90.15967
                      -6.39569                       0.54955                      89.99352
                      -6.22838                       0.84487                      89.83481
                      -5.98327                       1.09053                      89.69351
                      -5.67576                       1.27110                      89.57851
                      -5.32517                       1.37524                      89.49704
                      -4.95354                       1.39640                      89.45420
                      -4.58421                       1.33325                      89.45269
                      -4.24039                       1.18977                      89.49262
                      -3.94368                       0.97496                      89.57146
                      -3.71273                       0.70232                      89.68426
                      -3.56205                       0.38898                      89.82394
                      -3.50571                       0.00000                      89.86927
                      -3.53844                      -0.33551                      90.03582
                      -3.66301                      -0.64994                      90.20011
                      -3.87159                      -0.92353                      90.35183
                      -4.15107                      -1.13909                      90.48145
                      -4.48389                      -1.28308                      90.58081
                      -4.84914                      -1.34645                      90.64368
                      -5.22387                      -1.32521                      90.66611
                      -5.58453                      -1.22071                      90.64668
                      -5.90847                      -1.03951                      90.58662
                      -6.17532                      -0.79299                      90.48970
                      -6.36832                      -0.49664                      90.36201
                      -6.47535                      -0.16909                      90.21157
                      -6.48967                       0.16909                      90.04784
                      -6.41040                       0.49664                      89.88111
                      -6.24250                       0.79299                      89.72184
                      -5.99653                       1.03951                      89.58005
                      -5.68795                       1.22071                      89.46465
                      -5.33614                       1.32521                      89.38289
                      -4.96321                       1.34645                      89.33990
                      -4.59259                       1.28308                      89.33839
                      -4.24757                       1.13909                      89.37846
                      -3.94983                       0.92353                      89.45757
                      -3.71807                       0.64994                      89.57077
                      -3.56687                       0.33551                      89.71094
                      -3.52070                      -0.05464                      89.75773
                      -3.55333                      -0.38898                      89.92369
                      -3.67746                      -0.70232                      90.08742
                      -3.88531                      -0.97496                      90.23861
                      -4.16382                      -1.18977                      90.36778
                      -4.49548                      -1.33325                      90.46680
                      -4.85946                      -1.39640                      90.52945
                      -5.23289                      -1.37524                      90.55179
                      -5.59230                      -1.27110                      90.53243
                      -5.91511                      -1.09053                      90.47258
                      -6.18103                      -0.84487                      90.37600
                      -6.37336                      -0.54955                      90.24875
                      -6.48001                      -0.22314                      90.09884
                      -6.49429                       0.11386                      89.93568
                      -6.41529                       0.44027                      89.76952
                      -6.24797                       0.73559                      89.61081
                      -6.00286                       0.98125                      89.46952
                      -5.69535                       1.16182                      89.35452
                      -5.34477                       1.26596                      89.27304
                      -4.97313                       1.28712                      89.23020
                      -4.60380                       1.22398                      89.22870
                      -4.25998                       1.08049                      89.26862
                      -3.96328                       0.86568                      89.34746
                      -3.73233                       0.59304                      89.46026
                      -3.58165                       0.27970                      89.59995
                      -3.54621                      -0.10928                      89.64710
                      -3.57848                      -0.44010                      89.81132
                      -3.70131                      -0.75013                      89.97332
                      -3.90697                      -1.01989                      90.12292
                      -4.18254                      -1.23244                      90.25072
                      -4.51071                      -1.37441                      90.34870
                      -4.87085                      -1.43689                      90.41069
                      -5.24034                      -1.41595                      90.43280
                      -5.59595                      -1.31291                      90.41364
                      -5.91536                      -1.13425                      90.35442
                      -6.17848                      -0.89117                      90.25885
                      -6.36878                      -0.59897                      90.13295
                      -6.47431                      -0.27600                      89.98462
                      -6.48843                       0.05744                      89.82318
                      -6.41027                       0.38041                      89.65877
                      -6.24472                       0.67262                      89.50174
                      -6.00219                       0.91569                      89.36193
                      -5.69792                       1.09436                      89.24815
                      -5.35103                       1.19740                      89.16753
                      -4.98332                       1.21833                      89.12514
                      -4.61788                       1.15585                      89.12365
                      -4.27769                       1.01388                      89.16315
                      -3.98411                       0.80133                      89.24116
                      -3.75560                       0.53157                      89.35278
                      -3.60651                       0.22154                      89.49099
                      -3.58255                      -0.16392                      89.53743
                      -3.61425                      -0.48877                      89.69869
                      -3.73486                      -0.79322                      89.85776
                      -3.93682                      -1.05812                      90.00467
                      -4.20742                      -1.26684                      90.13017
                      -4.52967                      -1.40625                      90.22638
                      -4.88333                      -1.46761                      90.28725
                      -5.24616                      -1.44705                      90.30896
                      -5.59537                      -1.34587                      90.29015
                      -5.90901                      -1.17042                      90.23200
                      -6.16739                      -0.93172                      90.13815
                      -6.35427                      -0.64479                      90.01452
                      -6.45789                      -0.32764                      89.86886
                      -6.47176                      -0.00020                      89.71033
                      -6.39500                       0.31695                      89.54889
                      -6.23244                       0.60389                      89.39468
                      -5.99428                       0.84258                      89.25739
                      -5.69550                       1.01803                      89.14566
                      -5.35486                       1.11921                      89.06649
                      -4.99377                       1.13977                      89.02487
                      -4.63492                       1.07842                      89.02341
                      -4.30086                       0.93900                      89.06220
                      -4.01257                       0.73028                      89.13880
                      -3.78818                       0.46538                      89.24841
                      -3.64177                       0.16094                      89.38412
                      -3.63036                      -0.21856                      89.42876
                      -3.66123                      -0.53488                      89.58578
                      -3.77867                      -0.83132                      89.74068
                      -3.97532                      -1.08927                      89.88372
                      -4.23881                      -1.29250                      90.00592
                      -4.55260                      -1.42826                      90.09961
                      -4.89696                      -1.48800                      90.15888
                      -5.25026                      -1.46798                      90.18002
                      -5.59030                      -1.36945                      90.16171
                      -5.89570                      -1.19861                      90.10508
                      -6.14730                      -0.96619                      90.01370
                      -6.32926                      -0.68679                      89.89331
                      -6.43017                      -0.37798                      89.75148
                      -6.44367                      -0.05914                      89.59711
                      -6.36893                       0.24968                      89.43991
                      -6.21063                       0.52908                      89.28976
                      -5.97873                       0.76150                      89.15608
                      -5.68780                       0.93234                      89.04728
                      -5.35611                       1.03086                      88.97019
                      -5.00450                       1.05088                      88.92967
                      -4.65508                       0.99114                      88.92824
                      -4.32980                       0.85539                      88.96601
                      -4.04908                       0.65215                      89.04060
                      -3.83058                       0.39421                      89.14733
                      -3.68802                       0.09776                      89.27948
                      -3.69059                      -0.27320                      89.32117
                      -3.72035                      -0.57820                      89.47257
                      -3.83359                      -0.86403                      89.62192
                      -4.02320                      -1.11274                      89.75985
                      -4.27726                      -1.30870                      89.87768
                      -4.57982                      -1.43959                      89.96801
                      -4.91185                      -1.49720                      90.02516
                      -5.25250                      -1.47789                      90.04554
                      -5.58037                      -1.38289                      90.02788
                      -5.87484                      -1.21817                      89.97328
                      -6.11743                      -0.99407                      89.88518
                      -6.29288                      -0.72467                      89.76910
                      -6.39017                      -0.42691                      89.63234
                      -6.40319                      -0.11949                      89.48350
                      -6.33113                       0.17828                      89.33193
                      -6.17850                       0.44767                      89.18715
                      -5.95490                       0.67178                      89.05825
                      -5.67438                       0.83650                      88.95335
                      -5.35456                       0.93150                      88.87902
                      -5.01555                       0.95080                      88.83995
                      -4.67863                       0.89320                      88.83857
                      -4.36499                       0.76230                      88.87499
                      -4.09432                       0.56634                      88.94691
                      -3.88364                       0.31763                      89.04982
                      -3.74619                       0.03180                      89.17724
                      -3.76470                      -0.32784                      89.21480
                      -3.79305                      -0.61840                      89.35903
                      -3.90093                      -0.89070                      89.50132
                      -4.08156                      -1.12764                      89.63271
                      -4.32360                      -1.31432                      89.74496
                      -4.61183                      -1.43901                      89.83101
                      -4.92814                      -1.49389                      89.88546
                      -5.25267                      -1.47550                      89.90488
                      -5.56501                      -1.38500                      89.88806
                      -5.84555                      -1.22807                      89.83604
                      -6.07665                      -1.01458                      89.75210
                      -6.24379                      -0.75794                      89.64152
                      -6.33648                      -0.47427                      89.51124
                      -6.34889                      -0.18140                      89.36945
                      -6.28023                       0.10227                      89.22505
                      -6.13483                       0.35891                      89.08712
                      -5.92181                       0.57240                      88.96433
                      -5.65457                       0.72933                      88.86439
                      -5.34989                       0.81983                      88.79358
                      -5.02693                       0.83822                      88.75635
                      -4.70596                       0.78334                      88.75505
                      -4.40717                       0.65864                      88.78974
                      -4.14932                       0.47196                      88.85826
                      -3.94861                       0.23503                      88.95629
                      -3.81766                      -0.03728                      89.07768
                      -3.85488                      -0.38248                      89.10983
                      -3.88147                      -0.65499                      89.24511
                      -3.98264                      -0.91038                      89.37855
                      -4.15206                      -1.13260                      89.50179
                      -4.37906                      -1.30768                      89.60706
                      -4.64939                      -1.42463                      89.68777
                      -4.94606                      -1.47610                      89.73884
                      -5.25042                      -1.45886                      89.75705
                      -5.54337                      -1.37398                      89.74127
                      -5.80648                      -1.22680                      89.69249
                      -6.02322                      -1.02657                      89.61376
                      -6.17999                      -0.78586                      89.51005
                      -6.26692                      -0.51982                      89.38786
                      -6.27855                      -0.24514                      89.25487
                      -6.21416                       0.02091                      89.11945
                      -6.07779                       0.26161                      88.99009
                      -5.87800                       0.46184                      88.87492
                      -5.62736                       0.60902                      88.78119
                      -5.34161                       0.69390                      88.71478
                      -5.03870                       0.71115                      88.67986
                      -4.73768                       0.65968                      88.67864
                      -4.45744                       0.54273                      88.71118
                      -4.21561                       0.36764                      88.77544
                      -4.02737                       0.14542                      88.86738
                      -3.90455                      -0.10996                      88.98123
                      -3.96461                      -0.43712                      89.00658
                      -3.98901                      -0.68719                      89.13071
                      -4.08186                      -0.92155                      89.25317
                      -4.23732                      -1.12547                      89.36626
                      -4.44563                      -1.28614                      89.46287
                      -4.69370                      -1.39347                      89.53693
                      -4.96594                      -1.44070                      89.58379
                      -5.24525                      -1.42487                      89.60051
                      -5.51407                      -1.34698                      89.58603
                      -5.75552                      -1.21192                      89.54126
                      -5.95442                      -1.02817                      89.46902
                      -6.09828                      -0.80729                      89.37384
                      -6.17805                      -0.56315                      89.26171
                      -6.18872                      -0.31109                      89.13968
                      -6.12964                      -0.06694                      89.01540
                      -6.00449                       0.15394                      88.89669
                      -5.82116                       0.33769                      88.79101
                      -5.59115                       0.47275                      88.70499
                      -5.32893                       0.55064                      88.64405
                      -5.05096                       0.56647                      88.61201
                      -4.77472                       0.51923                      88.61089
                      -4.51756                       0.41191                      88.64075
                      -4.29564                       0.25124                      88.69972
                      -4.12290                       0.04732                      88.78409
                      -4.01019                      -0.18704                      88.88856
                      -4.09981                      -0.49176                      88.90555
                      -4.12146                      -0.71367                      89.01571
                      -4.20385                      -0.92165                      89.12438
                      -4.34181                      -1.10261                      89.22474
                      -4.52667                      -1.24519                      89.31047
                      -4.74681                      -1.34043                      89.37619
                      -4.98840                      -1.38235                      89.41778
                      -5.23626                      -1.36830                      89.43261
                      -5.47482                      -1.29918                      89.41976
                      -5.68908                      -1.17932                      89.38003
                      -5.86559                      -1.01627                      89.31593
                      -5.99325                      -0.82025                      89.23147
                      -6.06404                      -0.60360                      89.13196
                      -6.07351                      -0.37991                      89.02366
                      -6.02108                      -0.16326                      88.91338
                      -5.91002                       0.03276                      88.80804
                      -5.74733                       0.19581                      88.71425
                      -5.54322                       0.31567                      88.63792
                      -5.31052                       0.38479                      88.58384
                      -5.06385                       0.39883                      88.55541
                      -4.81871                       0.35692                      88.55441
                      -4.59050                       0.26168                      88.58091
                      -4.39356                       0.11910                      88.63324
                      -4.24027                      -0.06186                      88.70811
                      -4.14026                      -0.26984                      88.80082
                      -4.27199                      -0.54639                      88.80776
                      -4.29008                      -0.73185                      88.89982
                      -4.35894                      -0.90566                      88.99064
                      -4.47423                      -1.05689                      89.07451
                      -4.62872                      -1.17605                      89.14615
                      -4.81270                      -1.25564                      89.20108
                      -5.01460                      -1.29067                      89.23583
                      -5.22173                      -1.27893                      89.24823
                      -5.42110                      -1.22117                      89.23749
                      -5.60016                      -1.12100                      89.20429
                      -5.74767                      -0.98473                      89.15071
                      -5.85435                      -0.82092                      89.08013
                      -5.91351                      -0.63986                      88.99697
                      -5.92143                      -0.45293                      88.90647
                      -5.87761                      -0.27187                      88.81430
                      -5.78480                      -0.10806                      88.72626
                      -5.64884                       0.02821                      88.64789
                      -5.47826                       0.12838                      88.58410
                      -5.28379                       0.18614                      88.53890
                      -5.07765                       0.19788                      88.51514
                      -4.87278                       0.16285                      88.51431
                      -4.68206                       0.08326                      88.53645
                      -4.51748                      -0.03590                      88.58018
                      -4.38937                      -0.18713                      88.64276
                      -4.30579                      -0.36093                      88.72024
                      -4.51059                      -0.60103                      88.71578
                      -4.52367                      -0.73512                      88.78234
                      -4.57345                      -0.86078                      88.84800
                      -4.65681                      -0.97012                      88.90864
                      -4.76851                      -1.05627                      88.96044
                      -4.90152                      -1.11382                      89.00015
                      -5.04749                      -1.13914                      89.02528
                      -5.19725                      -1.13066                      89.03424
                      -5.34139                      -1.08889                      89.02647
                      -5.47086                      -1.01648                      89.00247
                      -5.57750                      -0.91795                      88.96373
                      -5.65464                      -0.79952                      88.91270
                      -5.69741                      -0.66861                      88.85258
                      -5.70314                      -0.53346                      88.78715
                      -5.67145                      -0.40255                      88.72051
                      -5.60435                      -0.28412                      88.65686
                      -5.50605                      -0.18559                      88.60019
                      -5.38272                      -0.11317                      88.55407
                      -5.24212                      -0.07141                      88.52140
                      -5.09308                      -0.06292                      88.50422
                      -4.94496                      -0.08825                      88.50361
                      -4.80707                      -0.14579                      88.51962
                      -4.68808                      -0.23194                      88.55124
                      -4.59546                      -0.34128                      88.59648
                      -4.53503                      -0.46695                      88.65250
                      -5.11758                      -0.65567                      88.65603
                      -5.11758                      -0.65567                      88.65603
                      -5.11758                      -0.65567                      88.65603
                      -5.11758                      -0.65567                      88.65603
                      -5.11758                      -0.65567                      88.65603
                      -5.11758                      -0.65567                      88.65603
                      -5.11758                      -0.65567                      88.65603
                      -5.11758                      -0.65567                      88.65603
                      -5.11758                      -0.65567                      88.65603
                      -5.11758                      -0.65567                      88.65603
                      -5.11758                      -0.65567                      88.65603
                      -5.11758                      -0.65567                      88.65603
                      -5.11758                      -0.65567                      88.65603
                      -5.11758                      -0.65567                      88.65603
                      -5.11758                      -0.65567                      88.65603
                      -5.11758                      -0.65567                      88.65603
                      -5.11758                      -0.65567                      88.65603
                      -5.11758                      -0.65567                      88.65603
                      -5.11758                      -0.65567                      88.65603
                      -5.11758                      -0.65567                      88.65603
                      -5.11758                      -0.65567                      88.65603
                      -5.11758                      -0.65567                      88.65603
                      -5.11758                      -0.65567                      88.65603
                      -5.11758                      -0.65567                      88.65603
                      -5.11758                      -0.65567                      88.65603
        </DataArray>
      </Points>
      <Polys>
        <DataArray type="Int32" Name="connectivity" format="ascii">
      0      1     26     25
      1      2     27     26
      2      3     28     27
      3      4     29     28
      4      5     30     29
      5      6     31     30
      6      7     32     31
      7      8     33     32
      8      9     34     33
      9     10     35     34
     10     11     36     35
     11     12     37     36
     12     13     38     37
     13     14     39     38
     14     15     40     39
     15     16     41     40
     16     17     42     41
     17     18     43     42
     18     19     44     43
     19     20     45     44
     20     21     46     45
     21     22     47     46
     22     23     48     47
     23     24     49     48
     24      0     25     49
     25     26     51     50
     26     27     52     51
     27     28     53     52
     28     29     54     53
     29     30     55     54
     30     31     56     55
     31     32     57     56
     32     33     58     57
     33     34     59     58
     34     35     60     59
     35     36     61     60
     36     37     62     61
     37     38     63     62
     38     39     64     63
     39     40     65     64
     40     41     66     65
     41     42     67     66
     42     43     68     67
     43     44     69     68
     44     45     70     69
     45     46     71     70
     46     47     72     71
     47     48     73     72
     48     49     74     73
     49     25     50     74
     50     51     76     75
     51     52     77     76
     52     53     78     77
     53     54     79     78
     54     55     80     79
     55     56     81     80
     56     57     82     81
     57     58     83     82
     58     59     84     83
     59     60     85     84
     60     61     86     85
     61     62     87     86
     62     63     88     87
     63     64     89     88
     64     65     90     89
     65     66     91     90
     66     67     92     91
     67     68     93     92
     68     69     94     93
     69     70     95     94
     70     71     96     95
     71     72     97     96
     72     73     98     97
     73     74     99     98
     74     50     75     99
     75     76    101    100
     76     77    102    101
     77     78    103    102
     78     79    104    103
     79     80    105    104
     80     81    106    105
     81     82    107    106
     82     83    108    107
     83     84    109    108
     84     85    110    109
     85     86    111    110
     86     87    112    111
     87     88    113    112
     88     89    114    113
     89     90    115    114
     90     91    116    115
     91     92    117    116
     92     93    118    117
     93     94    119    118
     94     95    120    119
     95     96    121    120
     96     97    122    121
     97     98    123    122
     98     99    124    123
     99     75    100    124
    100    101    126    125
    101    102    127    126
    102    103    128    127
    103    104    129    128
    104    105    130    129
    105    106    131    130
    106    107    132    131
    107    108    133    132
    108    109    134    133
    109    110    135    134
    110    111    136    135
    111    112    137    136
    112    113    138    137
    113    114    139    138
    114    115    140    139
    115    116    141    140
    116    117    142    141
    117    118    143    142
    118    119    144    143
    119    120    145    144
    120    121    146    145
    121    122    147    146
    122    123    148    147
    123    124    149    148
    124    100    125    149
    125    126    151    150
    126    127    152    151
    127    128    153    152
    128    129    154    153
    129    130    155    154
    130    131    156    155
    131    132    157    156
    132    133    158    157
    133    134    159    158
    134    135    160    159
    135    136    161    160
    136    137    162    161
    137    138    163    162
    138    139    164    163
    139    140    165    164
    140    141    166    165
    141    142    167    166
    142    143    168    167
    143    144    169    168
    144    145    170    169
    145    146    171    170
    146    147    172    171
    147    148    173    172
    148    149    174    173
    149    125    150    174
    150    151    176    175
    151    152    177    176
    152    153    178    177
    153    154    179    178
    154    155    180    179
    155    156    181    180
    156    157    182    181
    157    158    183    182
    158    159    184    183
    159    160    185    184
    160    161    186    185
    161    162    187    186
    162    163    188    187
    163    164    189    188
    164    165    190    189
    165    166    191    190
    166    167    192    191
    167    168    193    192
    168    169    194    193
    169    170    195    194
    170    171    196    195
    171    172    197    196
    172    173    198    197
    173    174    199    198
    174    150    175    199
    175    176    201    200
    176    177    202    201
    177    178    203    202
    178    179    204    203
    179    180    205    204
    180    181    206    205
    181    182    207    206
    182    183    208    207
    183    184    209    208
    184    185    210    209
    185    186    211    210
    186    187    212    211
    187    188    213    212
    188    189    214    213
    189    190    215    214
    190    191    216    215
    191    192    217    216
    192    193    218    217
    193    194    219    218
    194    195    220    219
    195    196    221    220
    196    197    222    221
    197    198    223    222
    198    199    224    223
    199    175    200    224
    200    201    226    225
    201    202    227    226
    202    203    228    227
    203    204    229    228
    204    205    230    229
    205    206    231    230
    206    207    232    231
    207    208    233    232
    208    209    234    233
    209    210    235    234
    210    211    236    235
    211    212    237    236
    212    213    238    237
    213    214    239    238
    214    215    240    239
    215    216    241    240
    216    217    242    241
    217    218    243    242
    218    219    244    243
    219    220    245    244
    220    221    246    245
    221    222    247    246
    222    223    248    247
    223    224    249    248
    224    200    225    249
    225    226    251    250
    226    227    252    251
    227    228    253    252
    228    229    254    253
    229    230    255    254
    230    231    256    255
    231    232    257    256
    232    233    258    257
    233    234    259    258
    234    235    260    259
    235    236    261    260
    236    237    262    261
    237    238    263    262
    238    239    264    263
    239    240    265    264
    240    241    266    265
    241    242    267    266
    242    243    268    267
    243    244    269    268
    244    245    270    269
    245    246    271    270
    246    247    272    271
    247    248    273    272
    248    249    274    273
    249    225    250    274
    250    251    276    275
    251    252    277    276
    252    253    278    277
    253    254    279    278
    254    255    280    279
    255    256    281    280
    256    257    282    281
    257    258    283    282
    258    259    284    283
    259    260    285    284
    260    261    286    285
    261    262    287    286
    262    263    288    287
    263    264    289    288
    264    265    290    289
    265    266    291    290
    266    267    292    291
    267    268    293    292
    268    269    294    293
    269    270    295    294
    270    271    296    295
    271    272    297    296
    272    273    298    297
    273    274    299    298
    274    250    275    299
    275    276    301    300
    276    277    302    301
    277    278    303    302
    278    279    304    303
    279    280    305    304
    280    281    306    305
    281    282    307    306
    282    283    308    307
    283    284    309    308
    284    285    310    309
    285    286    311    310
    286    287    312    311
    287    288    313    312
    288    289    314    313
    289    290    315    314
    290    291    316    315
    291    292    317    316
    292    293    318    317
    293    294    319    318
    294    295    320    319
    295    296    321    320
    296    297    322    321
    297    298    323    322
    298    299    324    323
    299    275    300    324
    300    301    326    325
    301    302    327    326
    302    303    328    327
    303    304    329    328
    304    305    330    329
    305    306    331    330
    306    307    332    331
    307    308    333    332
    308    309    334    333
    309    310    335    334
    310    311    336    335
    311    312    337    336
    312    313    338    337
    313    314    339    338
    314    315    340    339
    315    316    341    340
    316    317    342    341
    317    318    343    342
    318    319    344    343
    319    320    345    344
    320    321    346    345
    321    322    347    346
    322    323    348    347
    323    324    349    348
    324    300    325    349
    325    326    351    350
    326    327    352    351
    327    328    353    352
    328    329    354    353
    329    330    355    354
    330    331    356    355
    331    332    357    356
    332    333    358    357
    333    334    359    358
    334    335    360    359
    335    336    361    360
    336    337    362    361
    337    338    363    362
    338    339    364    363
    339    340    365    364
    340    341    366    365
    341    342    367    366
    342    343    368    367
    343    344    369    368
    344    345    370    369
    345    346    371    370
    346    347    372    371
    347    348    373    372
    348    349    374    373
    349    325    350    374
    350    351    376    375
    351    352    377    376
    352    353    378    377
    353    354    379    378
    354    355    380    379
    355    356    381    380
    356    357    382    381
    357    358    383    382
    358    359    384    383
    359    360    385    384
    360    361    386    385
    361    362    387    386
    362    363    388    387
    363    364    389    388
    364    365    390    389
    365    366    391    390
    366    367    392    391
    367    368    393    392
    368    369    394    393
    369    370    395    394
    370    371    396    395
    371    372    397    396
    372    373    398    397
    373    374    399    398
    374    350    375    399
    375    376    401    400
    376    377    402    401
    377    378    403    402
    378    379    404    403
    379    380    405    404
    380    381    406    405
    381    382    407    406
    382    383    408    407
    383    384    409    408
    384    385    410    409
    385    386    411    410
    386    387    412    411
    387    388    413    412
    388    389    414    413
    389    390    415    414
    390    391    416    415
    391    392    417    416
    392    393    418    417
    393    394    419    418
    394    395    420    419
    395    396    421    420
    396    397    422    421
    397    398    423    422
    398    399    424    423
    399    375    400    424
    400    401    426    425
    401    402    427    426
    402    403    428    427
    403    404    429    428
    404    405    430    429
    405    406    431    430
    406    407    432    431
    407    408    433    432
    408    409    434    433
    409    410    435    434
    410    411    436    435
    411    412    437    436
    412    413    438    437
    413    414    439    438
    414    415    440    439
    415    416    441    440
    416    417    442    441
    417    418    443    442
    418    419    444    443
    419    420    445    444
    420    421    446    445
    421    422    447    446
    422    423    448    447
    423    424    449    448
    424    400    425    449
    425    426    451    450
    426    427    452    451
    427    428    453    452
    428    429    454    453
    429    430    455    454
    430    431    456    455
    431    432    457    456
    432    433    458    457
    433    434    459    458
    434    435    460    459
    435    436    461    460
    436    437    462    461
    437    438    463    462
    438    439    464    463
    439    440    465    464
    440    441    466    465
    441    442    467    466
    442    443    468    467
    443    444    469    468
    444    445    470    469
    445    446    471    470
    446    447    472    471
    447    448    473    472
    448    449    474    473
    449    425    450    474
    450    451    476    475
    451    452    477    476
    452    453    478    477
    453    454    479    478
    454    455    480    479
    455    456    481    480
    456    457    482    481
    457    458    483    482
    458    459    484    483
    459    460    485    484
    460    461    486    485
    461    462    487    486
    462    463    488    487
    463    464    489    488
    464    465    490    489
    465    466    491    490
    466    467    492    491
    467    468    493    492
    468    469    494    493
    469    470    495    494
    470    471    496    495
    471    472    497    496
    472    473    498    497
    473    474    499    498
    474    450    475    499
    475    476    501    500
    476    477    502    501
    477    478    503    502
    478    479    504    503
    479    480    505    504
    480    481    506    505
    481    482    507    506
    482    483    508    507
    483    484    509    508
    484    485    510    509
    485    486    511    510
    486    487    512    511
    487    488    513    512
    488    489    514    513
    489    490    515    514
    490    491    516    515
    491    492    517    516
    492    493    518    517
    493    494    519    518
    494    495    520    519
    495    496    521    520
    496    497    522    521
    497    498    523    522
    498    499    524    523
    499    475    500    524
    500    501    526    525
    501    502    527    526
    502    503    528    527
    503    504    529    528
    504    505    530    529
    505    506    531    530
    506    507    532    531
    507    508    533    532
    508    509    534    533
    509    510    535    534
    510    511    536    535
    511    512    537    536
    512    513    538    537
    513    514    539    538
    514    515    540    539
    515    516    541    540
    516    517    542    541
    517    518    543    542
    518    519    544    543
    519    520    545    544
    520    521    546    545
    521    522    547    546
    522    523    548    547
    523    524    549    548
    524    500    525    549
    525    526    551    550
    526    527    552    551
    527    528    553    552
    528    529    554    553
    529    530    555    554
    530    531    556    555
    531    532    557    556
    532    533    558    557
    533    534    559    558
    534    535    560    559
    535    536    561    560
    536    537    562    561
    537    538    563    562
    538    539    564    563
    539    540    565    564
    540    541    566    565
    541    542    567    566
    542    543    568    567
    543    544    569    568
    544    545    570    569
    545    546    571    570
    546    547    572    571
    547    548    573    572
    548    549    574    573
    549    525    550    574
    550    551    576    575
    551    552    577    576
    552    553    578    577
    553    554    579    578
    554    555    580    579
    555    556    581    580
    556    557    582    581
    557    558    583    582
    558    559    584    583
    559    560    585    584
    560    561    586    585
    561    562    587    586
    562    563    588    587
    563    564    589    588
    564    565    590    589
    565    566    591    590
    566    567    592    591
    567    568    593    592
    568    569    594    593
    569    570    595    594
    570    571    596    595
    571    572    597    596
    572    573    598    597
    573    574    599    598
    574    550    575    599
    575    576    601    600
    576    577    602    601
    577    578    603    602
    578    579    604    603
    579    580    605    604
    580    581    606    605
    581    582    607    606
    582    583    608    607
    583    584    609    608
    584    585    610    609
    585    586    611    610
    586    587    612    611
    587    588    613    612
    588    589    614    613
    589    590    615    614
    590    591    616    615
    591    592    617    616
    592    593    618    617
    593    594    619    618
    594    595    620    619
    595    596    621    620
    596    597    622    621
    597    598    623    622
    598    599    624    623
    599    575    600    624
        </DataArray>
        <DataArray type="Int32" Name="offsets" format="ascii">
      4
      8
     12
     16
     20
     24
     28
     32
     36
     40
     44
     48
     52
     56
     60
     64
     68
     72
     76
     80
     84
     88
     92
     96
    100
    104
    108
    112
    116
    120
    124
    128
    132
    136
    140
    144
    148
    152
    156
    160
    164
    168
    172
    176
    180
    184
    188
    192
    196
    200
    204
    208
    212
    216
    220
    224
    228
    232
    236
    240
    244
    248
    252
    256
    260
    264
    268
    272
    276
    280
    284
    288
    292
    296
    300
    304
    308
    312
    316
    320
    324
    328
    332
    336
    340
    344
    348
    352
    356
    360
    364
    368
    372
    376
    380
    384
    388
    392
    396
    400
    404
    408
    412
    416
    420
    424
    428
    432
    436
    440
    444
    448
    452
    456
    460
    464
    468
    472
    476
    480
    484
    488
    492
    496
    500
    504
    508
    512
    516
    520
    524
    528
    532
    536
    540
    544
    548
    552
    556
    560
    564
    568
    572
    576
    580
    584
    588
    592
    596
    600
    604
    608
    612
    616
    620
    624
    628
    632
    636
    640
    644
    648
    652
    656
    660
    664
    668
    672
    676
    680
    684
    688
    692
    696
    700
    704
    708
    712
    716
    720
    724
    728
    732
    736
    740
    744
    748
    752
    756
    760
    764
    768
    772
    776
    780
    784
    788
    792
    796
    800
    804
    808
    812
    816
    820
    824
    828
    832
    836
    840
    844
    848
    852
    856
    860
    864
    868
    872
    876
    880
    884
    888
    892
    896
    900
    904
    908
    912
    916
    920
    924
    928
    932
    936
    940
    944
    948
    952
    956
    960
    964
    968
    972
    976
    980
    984
    988
    992
    996
   1000
   1004
   1008
   1012
   1016
   1020
   1024
   1028
   1032
   1036
   1040
   1044
   1048
   1052
   1056
   1060
   1064
   1068
   1072
   1076
   1080
   1084
   1088
   1092
   1096
   1100
   1104
   1108
   1112
   1116
   1120
   1124
   1128
   1132
   1136
   1140
   1144
   1148
   1152
   1156
   1160
   1164
   1168
   1172
   1176
   1180
   1184
   1188
   1192
   1196
   1200
   1204
   1208
   1212
   1216
   1220
   1224
   1228
   1232
   1236
   1240
   1244
   1248
   1252
   1256
   1260
   1264
   1268
   1272
   1276
   1280
   1284
   1288
   1292
   1296
   1300
   1304
   1308
   1312
   1316
   1320
   1324
   1328
   1332
   1336
   1340
   1344
   1348
   1352
   1356
   1360
   1364
   1368
   1372
   1376
   1380
   1384
   1388
   1392
   1396
   1400
   1404
   1408
   1412
   1416
   1420
   1424
   1428
   1432
   1436
   1440
   1444
   1448
   1452
   1456
   1460
   1464
   1468
   1472
   1476
   1480
   1484
   1488
   1492
   1496
   1500
   1504
   1508
   1512
   1516
   1520
   1524
   1528
   1532
   1536
   1540
   1544
   1548
   1552
   1556
   1560
   1564
   1568
   1572
   1576
   1580
   1584
   1588
   1592
   1596
   1600
   1604
   1608
   1612
   1616
   1620
   1624
   1628
   1632
   1636
   1640
   1644
   1648
   1652
   1656
   1660
   1664
   1668
   1672
   1676
   1680
   1684
   1688
   1692
   1696
   1700
   1704
   1708
   1712
   1716
   1720
   1724
   1728
   1732
   1736
   1740
   1744
   1748
   1752
   1756
   1760
   1764
   1768
   1772
   1776
   1780
   1784
   1788
   1792
   1796
   1800
   1804
   1808
   1812
   1816
   1820
   1824
   1828
   1832
   1836
   1840
   1844
   1848
   1852
   1856
   1860
   1864
   1868
   1872
   1876
   1880
   1884
   1888
   1892
   1896
   1900
   1904
   1908
   1912
   1916
   1920
   1924
   1928
   1932
   1936
   1940
   1944
   1948
   1952
   1956
   1960
   1964
   1968
   1972
   1976
   1980
   1984
   1988
   1992
   1996
   2000
   2004
   2008
   2012
   2016
   2020
   2024
   2028
   2032
   2036
   2040
   2044
   2048
   2052
   2056
   2060
   2064
   2068
   2072
   2076
   2080
   2084
   2088
   2092
   2096
   2100
   2104
   2108
   2112
   2116
   2120
   2124
   2128
   2132
   2136
   2140
   2144
   2148
   2152
   2156
   2160
   2164
   2168
   2172
   2176
   2180
   2184
   2188
   2192
   2196
   2200
   2204
   2208
   2212
   2216
   2220
   2224
   2228
   2232
   2236
   2240
   2244
   2248
   2252
   2256
   2260
   2264
   2268
   2272
   2276
   2280
   2284
   2288
   2292
   2296
   2300
   2304
   2308
   2312
   2316
   2320
   2324
   2328
   2332
   2336
   2340
   2344
   2348
   2352
   2356
   2360
   2364
   2368
   2372
   2376
   2380
   2384
   2388
   2392
   2396
   2400
        </DataArray>
      </Polys>
    </Piece>
  </PolyData>
</VTKFile>
