<?xml version="1.0"?>
<VTKFile type="PolyData" version="0.1" byte_order="LittleEndian">
  <PolyData>
    <Piece NumberOfPoints="     19" NumberOfVerts="  0" NumberOfLines="     18"
           NumberOfStrips="  0" NumberOfPolys="      0">
      <Points>
        <DataArray type="Float32" NumberOfComponents="3" format="ascii">
                      -5.10678                      -1.42055                      89.53028
                      -5.20354                      -2.71410                      89.09843
                      -5.41780                      -5.26992                      88.14456
                      -5.63014                      -7.81110                      87.14474
                      -5.87363                     -10.97904                      85.86247
                      -6.04722                     -14.82714                      84.44123
                      -6.11590                     -18.71527                      83.12581
                      -6.10694                     -22.60026                      81.79796
                      -6.01248                     -26.48095                      80.45939
                      -5.83128                     -30.35502                      79.10907
                      -5.56651                     -34.22002                      77.74482
                      -5.22272                     -38.07551                      76.36949
                      -4.81021                     -41.92138                      74.98497
                      -4.34386                     -45.75847                      73.59337
                      -3.84098                     -49.58825                      72.19662
                      -3.41123                     -52.77637                      71.03037
                      -3.07145                     -55.32901                      70.10432
                      -2.73496                     -57.90053                      69.22942
                      -2.58549                     -59.17431                      68.75396
        </DataArray>
      </Points>
      <PointData>
        <DataArray type="Float32" Name="TranslationalVelocity" NumberOfComponents="3" format="ascii">
                      -0.38896                       1.49929                      -4.44581
                      -0.74317                       2.87719                      -8.49359
                      -1.44446                       5.91969                     -16.48879
                      -2.14391                       9.10376                     -24.43435
                      -3.02000                      13.17694                     -34.33326
                      -4.09253                      17.66133                     -46.34740
                      -5.18944                      21.78241                     -58.47460
                      -6.30385                      25.91632                     -70.57990
                      -7.44049                      30.05445                     -82.66016
                      -8.60375                      34.19856                     -94.70914
                      -9.79744                      38.35526                    -106.72028
                     -11.02514                      42.51597                    -118.69341
                     -12.28929                      46.67705                    -130.62936
                     -13.59107                      50.83580                    -142.53162
                     -14.92987                      54.99114                    -154.40539
                     -16.07279                      58.45147                    -164.28531
                     -17.00307                      61.19566                    -172.19296
                     -17.95117                      63.77875                    -180.15619
                     -18.42448                      65.19329                    -184.09938
        </DataArray>
        <DataArray type="Float32" Name="RotationalVelocity" NumberOfComponents="3" format="ascii">
                       3.12964                       0.00000                      -0.27381
                       3.12921                       0.00005                      -0.27398
                       3.12798                       0.00016                      -0.27458
                       3.12636                       0.00023                      -0.27555
                       3.12402                       0.00020                      -0.27732
                       3.12099                      -0.00003                      -0.28039
                       3.11795                      -0.00039                      -0.28458
                       3.11504                      -0.00076                      -0.28993
                       3.11233                      -0.00094                      -0.29647
                       3.10982                      -0.00077                      -0.30415
                       3.10749                      -0.00011                      -0.31283
                       3.10527                       0.00109                      -0.32230
                       3.10315                       0.00278                      -0.33223
                       3.10111                       0.00474                      -0.34217
                       3.09920                       0.00657                      -0.35153
                       3.09778                       0.00758                      -0.35840
                       3.09685                       0.00767                      -0.36288
                       3.09618                       0.00679                      -0.36615
                       3.09598                       0.00586                      -0.36722
        </DataArray>
        <DataArray type="Float32" Name="TranslationalAcceleration" NumberOfComponents="3" format="ascii">
                       0.41052                      14.02026                       4.69225
                       0.49947                      16.94095                       5.71510
                       1.51284                      48.14481                      17.27084
                       2.49367                      76.62408                      28.43879
                       3.67368                     109.67873                      41.92014
                       4.90726                     147.56085                      56.16737
                       5.99863                     184.73679                      68.99691
                       7.07516                     221.67874                      81.87079
                       8.15341                     258.85679                      94.90127
                       9.25016                     296.41353                     108.12328
                      10.38428                     334.26140                     121.50932
                      11.57573                     372.19629                     134.93961
                      12.85443                     409.97136                     148.29865
                      14.26309                     447.39408                     161.49560
                      15.86109                     484.41534                     174.49831
                      17.40025                     515.08916                     185.22357
                      18.79771                     539.71957                     193.72498
                      20.35557                     564.84141                     201.80899
                      21.24452                     577.48344                     206.30087
        </DataArray>
        <DataArray type="Float32" Name="OrientationX" NumberOfComponents="3" format="ascii">
                       0.99404                      -0.04135                      -0.10091
                       0.99414                      -0.03996                      -0.10049
                       0.99443                      -0.03549                      -0.09927
                       0.99481                      -0.02893                      -0.09759
                       0.99530                      -0.01826                      -0.09507
                       0.99578                      -0.00237                      -0.09176
                       0.99593                       0.01620                      -0.08861
                       0.99560                       0.03679                      -0.08616
                       0.99465                       0.05878                      -0.08493
                       0.99300                       0.08155                      -0.08545
                       0.99062                       0.10437                      -0.08823
                       0.98754                       0.12645                      -0.09372
                       0.98386                       0.14683                      -0.10231
                       0.97976                       0.16436                      -0.11431
                       0.97548                       0.17767                      -0.12993
                       0.97197                       0.18451                      -0.14572
                       0.96934                       0.18624                      -0.16027
                       0.96697                       0.18395                      -0.17645
                       0.96589                       0.18108                      -0.18512
        </DataArray>
        <DataArray type="Float32" Name="OrientationY" NumberOfComponents="3" format="ascii">
                       0.08262                      -0.31846                       0.94433
                       0.08263                      -0.31880                       0.94421
                       0.08281                      -0.31966                       0.94391
                       0.08323                      -0.32074                       0.94350
                       0.08415                      -0.32228                       0.94290
                       0.08603                      -0.32424                       0.94205
                       0.08904                      -0.32615                       0.94111
                       0.09347                      -0.32784                       0.94010
                       0.09963                      -0.32915                       0.93901
                       0.10780                      -0.32993                       0.93783
                       0.11819                      -0.33006                       0.93653
                       0.13092                      -0.32943                       0.93506
                       0.14600                      -0.32798                       0.93334
                       0.16329                      -0.32571                       0.93126
                       0.18249                      -0.32273                       0.92873
                       0.19958                      -0.31984                       0.92621
                       0.21374                      -0.31740                       0.92389
                       0.22804                      -0.31500                       0.92129
                       0.23515                      -0.31386                       0.91989
        </DataArray>
        <DataArray type="Float32" Name="OrientationZ" NumberOfComponents="3" format="ascii">
                      -0.07118                      -0.94703                      -0.31315
                      -0.06977                      -0.94698                      -0.31362
                      -0.06523                      -0.94687                      -0.31494
                      -0.05859                      -0.94673                      -0.31667
                      -0.04786                      -0.94647                      -0.31923
                      -0.03199                      -0.94597                      -0.32267
                      -0.01365                      -0.94518                      -0.32627
                       0.00634                      -0.94402                      -0.32984
                       0.02725                      -0.94245                      -0.33325
                       0.04828                      -0.94048                      -0.33641
                       0.06863                      -0.93817                      -0.33930
                       0.08737                      -0.93568                      -0.34188
                       0.10349                      -0.93321                      -0.34412
                       0.11583                      -0.93107                      -0.34595
                       0.12307                      -0.92967                      -0.34723
                       0.12428                      -0.92933                      -0.34770
                       0.12120                      -0.92982                      -0.34748
                       0.11389                      -0.93110                      -0.34654
                       0.10848                      -0.93204                      -0.34573
        </DataArray>
        <DataArray type="Float32" Name="Force" NumberOfComponents="3" format="ascii">
                       3.62338                     -13.96685                      41.41544
                     498.04504                    -102.06533                     197.68248
                     701.31862                    -227.90967                     542.51009
                     686.94018                    -293.40705                     756.58225
                    6909.52853                     201.04035                   -1645.01958
                    9309.21343                     351.86633                   -1977.18056
                   11334.85742                     539.85039                   -2068.10981
                   14789.29292                     907.70080                   -2353.78728
                   15696.57475                    1196.87631                   -2142.24648
                   17290.69734                    1649.14821                   -2177.11993
                   20093.79424                    2278.25877                   -2293.04007
                   21067.62676                    2791.14572                   -2324.49199
                   21155.20167                    3244.11496                   -2529.25220
                   19902.78904                    3318.57845                   -2366.04223
                   16736.90509                    2923.25132                   -1983.45277
                   12804.64093                    2237.74379                   -1470.63574
                    8750.94798                    1477.64736                    -942.26453
                    3496.12455                     530.45551                    -285.39596
                  -20111.62551                   -2765.22643                    1162.93776
        </DataArray>
        <DataArray type="Float32" Name="Moment" NumberOfComponents="3" format="ascii">
                       0.00000                       0.00000                       0.00000
                       0.00000                       0.00000                       0.00000
                       0.00000                       0.00000                       0.00000
                       0.00000                       0.00000                       0.00000
                      91.77080                    1829.96887                     609.10554
                     139.64307                    4204.71948                    1405.77264
                      77.60381                    5670.70184                    1905.58485
                     -61.59823                    8108.49054                    2739.87764
                    -333.29314                   11158.70883                    3792.29639
                    -652.18766                   12460.91225                    4259.34810
                    -986.46662                   13302.52427                    4572.41700
                   -1317.77320                   13964.62443                    4824.68769
                   -1274.80648                   11396.52972                    3954.87030
                   -1375.56365                   10974.22855                    3821.26955
                   -1351.95543                   10141.32231                    3538.31673
                   -1257.70434                    9338.82589                    3259.43880
                   -1071.34340                    8159.10878                    2845.28928
                    -495.41959                    4017.46091                    1398.18277
                    -410.38494                    3495.62684                    1214.76110
        </DataArray>
      </PointData>
      <Lines>
        <DataArray type="Int32" Name="connectivity" format="ascii">
      0      1
      1      2
      2      3
      3      4
      4      5
      5      6
      6      7
      7      8
      8      9
      9     10
     10     11
     11     12
     12     13
     13     14
     14     15
     15     16
     16     17
     17     18
        </DataArray>
        <DataArray type="Int32" Name="offsets" format="ascii">
      2
      4
      6
      8
     10
     12
     14
     16
     18
     20
     22
     24
     26
     28
     30
     32
     34
     36
        </DataArray>
      </Lines>
    </Piece>
  </PolyData>
</VTKFile>
