<?xml version="1.0"?>
<VTKFile type="PolyData" version="0.1" byte_order="LittleEndian">
  <PolyData>
    <Piece NumberOfPoints="    625" NumberOfVerts="  0" NumberOfLines="      0"
           NumberOfStrips="  0" NumberOfPolys="    600">
      <Points>
        <DataArray type="Float32" NumberOfComponents="3" format="ascii">
                      -5.13038                      -0.11064                      88.50978
                      -5.13038                      -0.11064                      88.50978
                      -5.13038                      -0.11064                      88.50978
                      -5.13038                      -0.11064                      88.50978
                      -5.13038                      -0.11064                      88.50978
                      -5.13038                      -0.11064                      88.50978
                      -5.13038                      -0.11064                      88.50978
                      -5.13038                      -0.11064                      88.50978
                      -5.13038                      -0.11064                      88.50978
                      -5.13038                      -0.11064                      88.50978
                      -5.13038                      -0.11064                      88.50978
                      -5.13038                      -0.11064                      88.50978
                      -5.13038                      -0.11064                      88.50978
                      -5.13038                      -0.11064                      88.50978
                      -5.13038                      -0.11064                      88.50978
                      -5.13038                      -0.11064                      88.50978
                      -5.13038                      -0.11064                      88.50978
                      -5.13038                      -0.11064                      88.50978
                      -5.13038                      -0.11064                      88.50978
                      -5.13038                      -0.11064                      88.50978
                      -5.13038                      -0.11064                      88.50978
                      -5.13038                      -0.11064                      88.50978
                      -5.13038                      -0.11064                      88.50978
                      -5.13038                      -0.11064                      88.50978
                      -5.13038                      -0.11064                      88.50978
                      -4.52232                      -0.10142                      88.58172
                      -4.54204                       0.04726                      88.57241
                      -4.59804                       0.18659                      88.56696
                      -4.68681                       0.30783                      88.56573
                      -4.80277                       0.40336                      88.56878
                      -4.93863                       0.46716                      88.57593
                      -5.08586                       0.49525                      88.58672
                      -5.23520                       0.48584                      88.60049
                      -5.37728                       0.43953                      88.61636
                      -5.50315                       0.35923                      88.63333
                      -5.60492                       0.24998                      88.65034
                      -5.67619                       0.11866                      88.66633
                      -5.71249                      -0.02649                      88.68028
                      -5.71152                      -0.17635                      88.69132
                      -5.67336                      -0.32150                      88.69876
                      -5.60039                      -0.45283                      88.70213
                      -5.49721                      -0.56207                      88.70121
                      -5.37030                      -0.64237                      88.69607
                      -5.22763                      -0.68868                      88.68703
                      -5.07817                      -0.69809                      88.67465
                      -4.93130                      -0.67001                      88.65971
                      -4.79627                      -0.60620                      88.64316
                      -4.68154                      -0.51067                      88.62603
                      -4.59433                      -0.38944                      88.60940
                      -4.54012                      -0.25010                      88.59432
                      -4.28265                      -0.09220                      88.68589
                      -4.30992                       0.11344                      88.67300
                      -4.38739                       0.30616                      88.66547
                      -4.51017                       0.47385                      88.66377
                      -4.67056                       0.60597                      88.66799
                      -4.85847                       0.69423                      88.67788
                      -5.06210                       0.73307                      88.69281
                      -5.26866                       0.72005                      88.71185
                      -5.46517                       0.65600                      88.73379
                      -5.63927                       0.54494                      88.75727
                      -5.78003                       0.39384                      88.78080
                      -5.87861                       0.21220                      88.80291
                      -5.92880                       0.01144                      88.82221
                      -5.92747                      -0.19584                      88.83748
                      -5.87468                      -0.39660                      88.84777
                      -5.77376                      -0.57824                      88.85243
                      -5.63105                      -0.72934                      88.85116
                      -5.45552                      -0.84040                      88.84405
                      -5.25819                      -0.90445                      88.83154
                      -5.05146                      -0.91747                      88.81442
                      -4.84833                      -0.87863                      88.79376
                      -4.66155                      -0.79037                      88.77087
                      -4.50287                      -0.65825                      88.74718
                      -4.38225                      -0.49056                      88.72418
                      -4.30727                      -0.29784                      88.70331
                      -4.10940                      -0.08298                      88.79587
                      -4.14204                       0.16309                      88.78045
                      -4.23473                       0.39369                      88.77144
                      -4.38165                       0.59435                      88.76940
                      -4.57357                       0.75244                      88.77445
                      -4.79842                       0.85805                      88.78628
                      -5.04209                       0.90452                      88.80415
                      -5.28925                       0.88895                      88.82693
                      -5.52439                       0.81230                      88.85319
                      -5.73272                       0.67941                      88.88128
                      -5.90115                       0.49861                      88.90944
                      -6.01911                       0.28126                      88.93590
                      -6.07917                       0.04103                      88.95899
                      -6.07757                      -0.20699                      88.97726
                      -6.01441                      -0.44722                      88.98957
                      -5.89365                      -0.66457                      88.99515
                      -5.72289                      -0.84537                      88.99363
                      -5.51285                      -0.97827                      88.98512
                      -5.27672                      -1.05491                      88.97015
                      -5.02936                      -1.07048                      88.94967
                      -4.78629                      -1.02401                      88.92495
                      -4.56280                      -0.91840                      88.89756
                      -4.37292                      -0.76031                      88.86921
                      -4.22859                      -0.55965                      88.84168
                      -4.13887                      -0.32905                      88.81671
                      -3.97314                      -0.07376                      88.90908
                      -4.00992                       0.20353                      88.89171
                      -4.11437                       0.46339                      88.88155
                      -4.27993                       0.68950                      88.87925
                      -4.49619                       0.86766                      88.88495
                      -4.74958                       0.98666                      88.89828
                      -5.02416                       1.03903                      88.91841
                      -5.30268                       1.02148                      88.94408
                      -5.56765                       0.93511                      88.97368
                      -5.80241                       0.78535                      89.00534
                      -5.99221                       0.58161                      89.03707
                      -6.12513                       0.33669                      89.06688
                      -6.19282                       0.06598                      89.09290
                      -6.19102                      -0.21351                      89.11349
                      -6.11984                      -0.48422                      89.12737
                      -5.98376                      -0.72913                      89.13364
                      -5.79133                      -0.93287                      89.13193
                      -5.55464                      -1.08263                      89.12235
                      -5.28856                      -1.16900                      89.10548
                      -5.00981                      -1.18655                      89.08239
                      -4.73591                      -1.13418                      89.05454
                      -4.48406                      -1.01518                      89.02367
                      -4.27009                      -0.83702                      88.99173
                      -4.10744                      -0.61091                      88.96071
                      -4.00634                      -0.35105                      88.93257
                      -3.86234                      -0.06454                      89.02452
                      -3.90242                       0.23763                      89.00559
                      -4.01624                       0.52081                      88.99453
                      -4.19666                       0.76721                      88.99202
                      -4.43233                       0.96134                      88.99822
                      -4.70845                       1.09102                      89.01275
                      -5.00766                       1.14809                      89.03469
                      -5.31118                       1.12897                      89.06267
                      -5.59992                       1.03485                      89.09492
                      -5.85574                       0.87166                      89.12941
                      -6.06257                       0.64964                      89.16399
                      -6.20742                       0.38274                      89.19648
                      -6.28118                       0.08774                      89.22484
                      -6.27922                      -0.21682                      89.24728
                      -6.20165                      -0.51182                      89.26239
                      -6.05337                      -0.77872                      89.26923
                      -5.84367                      -1.00074                      89.26737
                      -5.58574                      -1.16393                      89.25692
                      -5.29579                      -1.25805                      89.23854
                      -4.99203                      -1.27717                      89.21339
                      -4.69355                      -1.22010                      89.18304
                      -4.41910                      -1.09042                      89.14940
                      -4.18593                      -0.89629                      89.11458
                      -4.00870                      -0.64989                      89.08078
                      -3.89852                      -0.36671                      89.05012
                      -3.77109                      -0.05532                      89.14167
                      -3.81383                       0.26686                      89.12149
                      -3.93519                       0.56879                      89.10969
                      -4.12755                       0.83151                      89.10702
                      -4.37883                       1.03851                      89.11363
                      -4.67323                       1.17677                      89.12912
                      -4.99227                       1.23762                      89.15252
                      -5.31588                       1.21723                      89.18235
                      -5.62374                       1.11688                      89.21673
                      -5.89651                       0.94288                      89.25351
                      -6.11704                       0.70616                      89.29038
                      -6.27148                       0.42158                      89.32502
                      -6.35013                       0.10705                      89.35526
                      -6.34803                      -0.21769                      89.37918
                      -6.26533                      -0.53223                      89.39530
                      -6.10723                      -0.81680                      89.40259
                      -5.88364                      -1.05352                      89.40061
                      -5.60863                      -1.22752                      89.38947
                      -5.29948                      -1.32787                      89.36987
                      -4.97560                      -1.34826                      89.34305
                      -4.65735                      -1.28741                      89.31069
                      -4.36473                      -1.14915                      89.27482
                      -4.11612                      -0.94215                      89.23770
                      -3.92714                      -0.67943                      89.20166
                      -3.80967                      -0.37750                      89.16897
                      -3.69592                      -0.04610                      89.26023
                      -3.74078                       0.29209                      89.23905
                      -3.86817                       0.60902                      89.22666
                      -4.07009                       0.88480                      89.22385
                      -4.33386                       1.10208                      89.23080
                      -4.64289                       1.24722                      89.24706
                      -4.97778                       1.31109                      89.27162
                      -5.31747                       1.28969                      89.30293
                      -5.64064                       1.18435                      89.33902
                      -5.92696                       1.00170                      89.37763
                      -6.15845                       0.75321                      89.41633
                      -6.32056                       0.45450                      89.45269
                      -6.40311                       0.12434                      89.48443
                      -6.40091                      -0.21654                      89.50954
                      -6.31411                      -0.54670                      89.52646
                      -6.14814                      -0.84541                      89.53412
                      -5.91345                      -1.09390                      89.53203
                      -5.62477                      -1.27655                      89.52034
                      -5.30025                      -1.38189                      89.49977
                      -4.96028                      -1.40329                      89.47161
                      -4.62622                      -1.33942                      89.43764
                      -4.31906                      -1.19428                      89.40000
                      -4.05809                      -0.97700                      89.36103
                      -3.85973                      -0.70122                      89.32320
                      -3.73642                      -0.38429                      89.28888
                      -3.63463                      -0.03688                      89.38001
                      -3.68115                       0.31386                      89.35804
                      -3.81327                       0.64257                      89.34519
                      -4.02269                       0.92858                      89.34228
                      -4.29625                       1.15393                      89.34948
                      -4.61675                       1.30445                      89.36634
                      -4.96407                       1.37070                      89.39181
                      -5.31638                       1.34850                      89.42428
                      -5.65154                       1.23925                      89.46172
                      -5.94849                       1.04982                      89.50176
                      -6.18857                       0.79211                      89.54190
                      -6.35671                       0.48231                      89.57961
                      -6.44232                       0.13988                      89.61252
                      -6.44004                      -0.21365                      89.63857
                      -6.35001                      -0.55607                      89.65612
                      -6.17789                      -0.86587                      89.66406
                      -5.93448                      -1.12358                      89.66190
                      -5.63509                      -1.31301                      89.64977
                      -5.29852                      -1.42226                      89.62843
                      -4.94593                      -1.44446                      89.59923
                      -4.59946                      -1.37821                      89.56400
                      -4.28089                      -1.22769                      89.52496
                      -4.01024                      -1.00234                      89.48455
                      -3.80451                      -0.71633                      89.44531
                      -3.67663                      -0.38762                      89.40972
                      -3.58575                      -0.02766                      89.50087
                      -3.63353                       0.33255                      89.47830
                      -3.76922                       0.67012                      89.46511
                      -3.98428                       0.96385                      89.46212
                      -4.26522                       1.19527                      89.46952
                      -4.59438                       1.34986                      89.48684
                      -4.95107                       1.41789                      89.51299
                      -5.31288                       1.39510                      89.54634
                      -5.65708                       1.28290                      89.58478
                      -5.96204                       1.08836                      89.62591
                      -6.20860                       0.82370                      89.66713
                      -6.38127                       0.50554                      89.70586
                      -6.46920                       0.15387                      89.73966
                      -6.46686                      -0.20919                      89.76641
                      -6.37440                      -0.56086                      89.78443
                      -6.19763                      -0.87902                      89.79258
                      -5.94765                      -1.14368                      89.79036
                      -5.64018                      -1.33822                      89.77791
                      -5.29454                      -1.45042                      89.75600
                      -4.93243                      -1.47321                      89.72601
                      -4.57662                      -1.40518                      89.68983
                      -4.24946                      -1.25060                      89.64973
                      -3.97150                      -1.01917                      89.60823
                      -3.76022                      -0.72544                      89.56794
                      -3.62889                      -0.38787                      89.53138
                      -3.54834                      -0.01844                      89.62273
                      -3.59699                       0.34838                      89.59975
                      -3.73517                       0.69214                      89.58632
                      -3.95418                       0.99126                      89.58327
                      -4.24028                       1.22694                      89.59080
                      -4.57547                       1.38436                      89.60844
                      -4.93870                       1.45364                      89.63508
                      -5.30716                       1.43042                      89.66903
                      -5.65767                       1.31617                      89.70818
                      -5.96823                       1.11806                      89.75006
                      -6.21932                       0.84854                      89.79204
                      -6.39516                       0.52454                      89.83148
                      -6.48470                       0.16643                      89.86590
                      -6.48231                      -0.20331                      89.89314
                      -6.38816                      -0.56142                      89.91149
                      -6.20814                      -0.88542                      89.91980
                      -5.95358                      -1.15494                      89.91754
                      -5.64047                      -1.35305                      89.90485
                      -5.28848                      -1.46730                      89.88254
                      -4.91973                      -1.49052                      89.85200
                      -4.55738                      -1.42124                      89.81516
                      -4.22422                      -1.26382                      89.77432
                      -3.94117                      -1.02814                      89.73206
                      -3.72601                      -0.72902                      89.69103
                      -3.59226                      -0.38526                      89.65380
                      -3.52177                      -0.00922                      89.74554
                      -3.57094                       0.36150                      89.72232
                      -3.71059                       0.70894                      89.70874
                      -3.93194                       1.01124                      89.70566
                      -4.22108                       1.24943                      89.71327
                      -4.55985                       1.40853                      89.73110
                      -4.92696                       1.47855                      89.75802
                      -5.29933                       1.45509                      89.79234
                      -5.65359                       1.33962                      89.83191
                      -5.96745                       1.13939                      89.87423
                      -6.22122                       0.86700                      89.91666
                      -6.39893                       0.53955                      89.95652
                      -6.48942                       0.17762                      89.99130
                      -6.48701                      -0.19606                      90.01884
                      -6.39185                      -0.55799                      90.03738
                      -6.20992                      -0.88544                      90.04578
                      -5.95265                      -1.15783                      90.04349
                      -5.63620                      -1.35806                      90.03067
                      -5.28045                      -1.47353                      90.00812
                      -4.90777                      -1.49699                      89.97726
                      -4.54157                      -1.42697                      89.94002
                      -4.20486                      -1.26787                      89.89875
                      -3.91878                      -1.02968                      89.85604
                      -3.70133                      -0.72738                      89.81457
                      -3.56616                      -0.37994                      89.77695
                      -3.50571                       0.00000                      89.86927
                      -3.55505                       0.37202                      89.84597
                      -3.69519                       0.72066                      89.83234
                      -3.91731                       1.02402                      89.82925
                      -4.20746                       1.26304                      89.83689
                      -4.54741                       1.42270                      89.85478
                      -4.91580                       1.49296                      89.88179
                      -5.28948                       1.46942                      89.91623
                      -5.64496                       1.35354                      89.95594
                      -5.95993                       1.15262                      89.99841
                      -6.21458                       0.87928                      90.04098
                      -6.39291                       0.55068                      90.08098
                      -6.48372                       0.18749                      90.11589
                      -6.48130                      -0.18749                      90.14352
                      -6.38581                      -0.55068                      90.16213
                      -6.20324                      -0.87928                      90.17055
                      -5.94507                      -1.15262                      90.16826
                      -5.62751                      -1.35354                      90.15540
                      -5.27053                      -1.46942                      90.13277
                      -4.89655                      -1.49296                      90.10180
                      -4.52907                      -1.42270                      90.06443
                      -4.19118                      -1.26304                      90.02301
                      -3.90411                      -1.02402                      89.98015
                      -3.68590                      -0.72066                      89.93854
                      -3.55026                      -0.37202                      89.90079
                      -3.50004                       0.00922                      89.99391
                      -3.54921                       0.37994                      89.97069
                      -3.68886                       0.72738                      89.95711
                      -3.91021                       1.02968                      89.95403
                      -4.19935                       1.26787                      89.96164
                      -4.53812                       1.42697                      89.97947
                      -4.90523                       1.49699                      90.00639
                      -5.27760                       1.47353                      90.04071
                      -5.63186                       1.35806                      90.08028
                      -5.94572                       1.15783                      90.12260
                      -6.19949                       0.88544                      90.16503
                      -6.37720                       0.55799                      90.20489
                      -6.46769                       0.19606                      90.23967
                      -6.46528                      -0.17762                      90.26721
                      -6.37012                      -0.53955                      90.28575
                      -6.18819                      -0.86700                      90.29415
                      -5.93092                      -1.13939                      90.29186
                      -5.61447                      -1.33962                      90.27904
                      -5.25873                      -1.45509                      90.25649
                      -4.88604                      -1.47855                      90.22563
                      -4.51984                      -1.40853                      90.18839
                      -4.18313                      -1.24943                      90.14712
                      -3.89705                      -1.01124                      90.10441
                      -3.67960                      -0.70894                      90.06294
                      -3.54443                      -0.36150                      90.02532
                      -3.50488                       0.01844                      90.11947
                      -3.55353                       0.38526                      90.09649
                      -3.69171                       0.72902                      90.08306
                      -3.91072                       1.02814                      90.08001
                      -4.19682                       1.26382                      90.08754
                      -4.53201                       1.42124                      90.10518
                      -4.89525                       1.49052                      90.13182
                      -5.26370                       1.46730                      90.16578
                      -5.61421                       1.35305                      90.20492
                      -5.92477                       1.15494                      90.24680
                      -6.17586                       0.88542                      90.28878
                      -6.35170                       0.56142                      90.32822
                      -6.44124                       0.20331                      90.36264
                      -6.43885                      -0.16643                      90.38988
                      -6.34470                      -0.52454                      90.40823
                      -6.16468                      -0.84854                      90.41654
                      -5.91012                      -1.11806                      90.41428
                      -5.59701                      -1.31617                      90.40159
                      -5.24502                      -1.43042                      90.37928
                      -4.87627                      -1.45364                      90.34874
                      -4.51393                      -1.38436                      90.31190
                      -4.18076                      -1.22694                      90.27106
                      -3.89771                      -0.99126                      90.22880
                      -3.68255                      -0.69214                      90.18777
                      -3.54880                      -0.34838                      90.15055
                      -3.52056                       0.02766                      90.24598
                      -3.56834                       0.38787                      90.22341
                      -3.70403                       0.72544                      90.21022
                      -3.91910                       1.01917                      90.20723
                      -4.20003                       1.25060                      90.21463
                      -4.52919                       1.40518                      90.23195
                      -4.88588                       1.47321                      90.25810
                      -5.24769                       1.45042                      90.29145
                      -5.59189                       1.33822                      90.32989
                      -5.89685                       1.14368                      90.37102
                      -6.14341                       0.87902                      90.41224
                      -6.31608                       0.56086                      90.45097
                      -6.40401                       0.20919                      90.48477
                      -6.40167                      -0.15387                      90.51152
                      -6.30921                      -0.50554                      90.52954
                      -6.13244                      -0.82370                      90.53769
                      -5.88246                      -1.08836                      90.53547
                      -5.57499                      -1.28290                      90.52302
                      -5.22935                      -1.39510                      90.50111
                      -4.86724                      -1.41789                      90.47112
                      -4.51143                      -1.34986                      90.43494
                      -4.18427                      -1.19528                      90.39484
                      -3.90631                      -0.96385                      90.35334
                      -3.69503                      -0.67012                      90.31305
                      -3.56370                      -0.33255                      90.27649
                      -3.54771                       0.03688                      90.37349
                      -3.59423                       0.38762                      90.35152
                      -3.72635                       0.71633                      90.33867
                      -3.93577                       1.00234                      90.33576
                      -4.20933                       1.22769                      90.34296
                      -4.52984                       1.37821                      90.35983
                      -4.87715                       1.44446                      90.38529
                      -5.22946                       1.42226                      90.41776
                      -5.56462                       1.31301                      90.45520
                      -5.86157                       1.12358                      90.49524
                      -6.10165                       0.86587                      90.53538
                      -6.26979                       0.55607                      90.57309
                      -6.35540                       0.21365                      90.60600
                      -6.35313                      -0.13988                      90.63205
                      -6.26309                      -0.48231                      90.64960
                      -6.09097                      -0.79211                      90.65754
                      -5.84756                      -1.04982                      90.65538
                      -5.54817                      -1.23925                      90.64325
                      -5.21160                      -1.34850                      90.62192
                      -4.85901                      -1.37070                      90.59272
                      -4.51254                      -1.30445                      90.55749
                      -4.19398                      -1.15393                      90.51844
                      -3.92332                      -0.92858                      90.47803
                      -3.71759                      -0.64257                      90.43880
                      -3.58971                      -0.31386                      90.40320
                      -3.58728                       0.04610                      90.50208
                      -3.63213                       0.38429                      90.48090
                      -3.75952                       0.70122                      90.46851
                      -3.96145                       0.97700                      90.46571
                      -4.22521                       1.19428                      90.47265
                      -4.53425                       1.33942                      90.48891
                      -4.86913                       1.40329                      90.51347
                      -5.20883                       1.38189                      90.54478
                      -5.53199                       1.27655                      90.58087
                      -5.81831                       1.09390                      90.61948
                      -6.04980                       0.84541                      90.65818
                      -6.21191                       0.54670                      90.69454
                      -6.29446                       0.21654                      90.72628
                      -6.29227                      -0.12434                      90.75139
                      -6.20546                      -0.45450                      90.76831
                      -6.03949                      -0.75321                      90.77597
                      -5.80480                      -1.00170                      90.77389
                      -5.51612                      -1.18435                      90.76219
                      -5.19161                      -1.28969                      90.74162
                      -4.85163                      -1.31109                      90.71347
                      -4.51757                      -1.24722                      90.67950
                      -4.21041                      -1.10208                      90.64185
                      -3.94945                      -0.88480                      90.60288
                      -3.75108                      -0.60902                      90.56505
                      -3.62777                      -0.29209                      90.53074
                      -3.64072                       0.05532                      90.63190
                      -3.68345                       0.37750                      90.61171
                      -3.80481                       0.67943                      90.59992
                      -3.99717                       0.94215                      90.59724
                      -4.24845                       1.14915                      90.60386
                      -4.54286                       1.28741                      90.61935
                      -4.86189                       1.34826                      90.64274
                      -5.18550                       1.32787                      90.67257
                      -5.49337                       1.22752                      90.70695
                      -5.76613                       1.05352                      90.74373
                      -5.98667                       0.81680                      90.78060
                      -6.14111                       0.53223                      90.81524
                      -6.21975                       0.21769                      90.84548
                      -6.21766                      -0.10705                      90.86940
                      -6.13496                      -0.42158                      90.88552
                      -5.97685                      -0.70616                      90.89282
                      -5.75326                      -0.94288                      90.89083
                      -5.47825                      -1.11688                      90.87969
                      -5.16910                      -1.21723                      90.86009
                      -4.84522                      -1.23762                      90.83327
                      -4.52697                      -1.17677                      90.80091
                      -4.23435                      -1.03851                      90.76504
                      -3.98574                      -0.83151                      90.72792
                      -3.79676                      -0.56879                      90.69188
                      -3.67930                      -0.26686                      90.65919
                      -3.71023                       0.06454                      90.76311
                      -3.75031                       0.36671                      90.74419
                      -3.86414                       0.64989                      90.73312
                      -4.04455                       0.89629                      90.73061
                      -4.28022                       1.09042                      90.73681
                      -4.55634                       1.22010                      90.75134
                      -4.85555                       1.27717                      90.77328
                      -5.15907                       1.25805                      90.80126
                      -5.44781                       1.16393                      90.83351
                      -5.70363                       1.00074                      90.86801
                      -5.91047                       0.77872                      90.90258
                      -6.05531                       0.51182                      90.93507
                      -6.12907                       0.21682                      90.96343
                      -6.12711                      -0.08774                      90.98587
                      -6.04955                      -0.38274                      91.00098
                      -5.90126                      -0.64964                      91.00783
                      -5.69156                      -0.87166                      91.00596
                      -5.43363                      -1.03485                      90.99551
                      -5.14368                      -1.12897                      90.97713
                      -4.83992                      -1.14809                      90.95198
                      -4.54144                      -1.09102                      90.92163
                      -4.26699                      -0.96134                      90.88799
                      -4.03383                      -0.76721                      90.85318
                      -3.85659                      -0.52081                      90.81938
                      -3.74642                      -0.23763                      90.78871
                      -3.79930                       0.07376                      90.89604
                      -3.83608                       0.35105                      90.87867
                      -3.94053                       0.61091                      90.86852
                      -4.10609                       0.83702                      90.86621
                      -4.32236                       1.01518                      90.87191
                      -4.57574                       1.13418                      90.88524
                      -4.85032                       1.18655                      90.90538
                      -5.12884                       1.16900                      90.93105
                      -5.39381                       1.08263                      90.96064
                      -5.62857                       0.93287                      90.99230
                      -5.81837                       0.72913                      91.02403
                      -5.95129                       0.48422                      91.05384
                      -6.01898                       0.21351                      91.07986
                      -6.01718                      -0.06598                      91.10046
                      -5.94600                      -0.33669                      91.11433
                      -5.80992                      -0.58161                      91.12061
                      -5.61749                      -0.78535                      91.11890
                      -5.38080                      -0.93511                      91.10931
                      -5.11472                      -1.02148                      91.09244
                      -4.83597                      -1.03903                      91.06936
                      -4.56207                      -0.98666                      91.04150
                      -4.31022                      -0.86766                      91.01064
                      -4.09625                      -0.68950                      90.97869
                      -3.93361                      -0.46339                      90.94767
                      -3.83251                      -0.20353                      90.91953
                      -3.91384                       0.08298                      91.03120
                      -3.94647                       0.32905                      91.01578
                      -4.03917                       0.55965                      91.00677
                      -4.18608                       0.76031                      91.00473
                      -4.37800                       0.91840                      91.00978
                      -4.60286                       1.02401                      91.02161
                      -4.84652                       1.07048                      91.03948
                      -5.09369                       1.05491                      91.06226
                      -5.32882                       0.97827                      91.08852
                      -5.53715                       0.84537                      91.11662
                      -5.70558                       0.66457                      91.14478
                      -5.82354                       0.44722                      91.17123
                      -5.88360                       0.20699                      91.19432
                      -5.88201                      -0.04103                      91.21260
                      -5.81884                      -0.28126                      91.22491
                      -5.69809                      -0.49861                      91.23048
                      -5.52732                      -0.67941                      91.22896
                      -5.31728                      -0.81230                      91.22045
                      -5.08116                      -0.88895                      91.20548
                      -4.83379                      -0.90452                      91.18500
                      -4.59072                      -0.85805                      91.16028
                      -4.36723                      -0.75244                      91.13289
                      -4.17735                      -0.59435                      91.10454
                      -4.03302                      -0.39369                      91.07701
                      -3.94330                      -0.16309                      91.05204
                      -4.06535                       0.09220                      91.16959
                      -4.09263                       0.29784                      91.15671
                      -4.17009                       0.49056                      91.14918
                      -4.29287                       0.65825                      91.14747
                      -4.45326                       0.79037                      91.15169
                      -4.64117                       0.87863                      91.16158
                      -4.84481                       0.91747                      91.17651
                      -5.05137                       0.90445                      91.19555
                      -5.24787                       0.84040                      91.21750
                      -5.42197                       0.72934                      91.24097
                      -5.56273                       0.57824                      91.26451
                      -5.66131                       0.39660                      91.28662
                      -5.71151                       0.19584                      91.30591
                      -5.71017                      -0.01144                      91.32119
                      -5.65739                      -0.21220                      91.33147
                      -5.55647                      -0.39384                      91.33613
                      -5.41376                      -0.54494                      91.33486
                      -5.23822                      -0.65600                      91.32775
                      -5.04089                      -0.72005                      91.31524
                      -4.83417                      -0.73307                      91.29812
                      -4.63104                      -0.69423                      91.27747
                      -4.44426                      -0.60597                      91.25457
                      -4.28558                      -0.47385                      91.23088
                      -4.16495                      -0.30616                      91.20788
                      -4.08998                      -0.11344                      91.18701
                      -4.28329                       0.10142                      91.31379
                      -4.30301                       0.25010                      91.30448
                      -4.35902                       0.38944                      91.29903
                      -4.44779                       0.51067                      91.29780
                      -4.56375                       0.60620                      91.30085
                      -4.69961                       0.67001                      91.30800
                      -4.84684                       0.69809                      91.31880
                      -4.99618                       0.68868                      91.33256
                      -5.13825                       0.64237                      91.34843
                      -5.26413                       0.56207                      91.36540
                      -5.36590                       0.45283                      91.38242
                      -5.43717                       0.32150                      91.39840
                      -5.47346                       0.17635                      91.41236
                      -5.47249                       0.02649                      91.42340
                      -5.43433                      -0.11866                      91.43083
                      -5.36137                      -0.24998                      91.43420
                      -5.25819                      -0.35923                      91.43328
                      -5.13128                      -0.43953                      91.42814
                      -4.98861                      -0.48584                      91.41910
                      -4.83914                      -0.49525                      91.40672
                      -4.69228                      -0.46716                      91.39179
                      -4.55724                      -0.40336                      91.37524
                      -4.44251                      -0.30783                      91.35811
                      -4.35530                      -0.18659                      91.34148
                      -4.30109                      -0.04726                      91.32639
                      -4.86962                       0.11064                      91.49022
                      -4.86962                       0.11064                      91.49022
                      -4.86962                       0.11064                      91.49022
                      -4.86962                       0.11064                      91.49022
                      -4.86962                       0.11064                      91.49022
                      -4.86962                       0.11064                      91.49022
                      -4.86962                       0.11064                      91.49022
                      -4.86962                       0.11064                      91.49022
                      -4.86962                       0.11064                      91.49022
                      -4.86962                       0.11064                      91.49022
                      -4.86962                       0.11064                      91.49022
                      -4.86962                       0.11064                      91.49022
                      -4.86962                       0.11064                      91.49022
                      -4.86962                       0.11064                      91.49022
                      -4.86962                       0.11064                      91.49022
                      -4.86962                       0.11064                      91.49022
                      -4.86962                       0.11064                      91.49022
                      -4.86962                       0.11064                      91.49022
                      -4.86962                       0.11064                      91.49022
                      -4.86962                       0.11064                      91.49022
                      -4.86962                       0.11064                      91.49022
                      -4.86962                       0.11064                      91.49022
                      -4.86962                       0.11064                      91.49022
                      -4.86962                       0.11064                      91.49022
                      -4.86962                       0.11064                      91.49022
        </DataArray>
      </Points>
      <Polys>
        <DataArray type="Int32" Name="connectivity" format="ascii">
      0      1     26     25
      1      2     27     26
      2      3     28     27
      3      4     29     28
      4      5     30     29
      5      6     31     30
      6      7     32     31
      7      8     33     32
      8      9     34     33
      9     10     35     34
     10     11     36     35
     11     12     37     36
     12     13     38     37
     13     14     39     38
     14     15     40     39
     15     16     41     40
     16     17     42     41
     17     18     43     42
     18     19     44     43
     19     20     45     44
     20     21     46     45
     21     22     47     46
     22     23     48     47
     23     24     49     48
     24      0     25     49
     25     26     51     50
     26     27     52     51
     27     28     53     52
     28     29     54     53
     29     30     55     54
     30     31     56     55
     31     32     57     56
     32     33     58     57
     33     34     59     58
     34     35     60     59
     35     36     61     60
     36     37     62     61
     37     38     63     62
     38     39     64     63
     39     40     65     64
     40     41     66     65
     41     42     67     66
     42     43     68     67
     43     44     69     68
     44     45     70     69
     45     46     71     70
     46     47     72     71
     47     48     73     72
     48     49     74     73
     49     25     50     74
     50     51     76     75
     51     52     77     76
     52     53     78     77
     53     54     79     78
     54     55     80     79
     55     56     81     80
     56     57     82     81
     57     58     83     82
     58     59     84     83
     59     60     85     84
     60     61     86     85
     61     62     87     86
     62     63     88     87
     63     64     89     88
     64     65     90     89
     65     66     91     90
     66     67     92     91
     67     68     93     92
     68     69     94     93
     69     70     95     94
     70     71     96     95
     71     72     97     96
     72     73     98     97
     73     74     99     98
     74     50     75     99
     75     76    101    100
     76     77    102    101
     77     78    103    102
     78     79    104    103
     79     80    105    104
     80     81    106    105
     81     82    107    106
     82     83    108    107
     83     84    109    108
     84     85    110    109
     85     86    111    110
     86     87    112    111
     87     88    113    112
     88     89    114    113
     89     90    115    114
     90     91    116    115
     91     92    117    116
     92     93    118    117
     93     94    119    118
     94     95    120    119
     95     96    121    120
     96     97    122    121
     97     98    123    122
     98     99    124    123
     99     75    100    124
    100    101    126    125
    101    102    127    126
    102    103    128    127
    103    104    129    128
    104    105    130    129
    105    106    131    130
    106    107    132    131
    107    108    133    132
    108    109    134    133
    109    110    135    134
    110    111    136    135
    111    112    137    136
    112    113    138    137
    113    114    139    138
    114    115    140    139
    115    116    141    140
    116    117    142    141
    117    118    143    142
    118    119    144    143
    119    120    145    144
    120    121    146    145
    121    122    147    146
    122    123    148    147
    123    124    149    148
    124    100    125    149
    125    126    151    150
    126    127    152    151
    127    128    153    152
    128    129    154    153
    129    130    155    154
    130    131    156    155
    131    132    157    156
    132    133    158    157
    133    134    159    158
    134    135    160    159
    135    136    161    160
    136    137    162    161
    137    138    163    162
    138    139    164    163
    139    140    165    164
    140    141    166    165
    141    142    167    166
    142    143    168    167
    143    144    169    168
    144    145    170    169
    145    146    171    170
    146    147    172    171
    147    148    173    172
    148    149    174    173
    149    125    150    174
    150    151    176    175
    151    152    177    176
    152    153    178    177
    153    154    179    178
    154    155    180    179
    155    156    181    180
    156    157    182    181
    157    158    183    182
    158    159    184    183
    159    160    185    184
    160    161    186    185
    161    162    187    186
    162    163    188    187
    163    164    189    188
    164    165    190    189
    165    166    191    190
    166    167    192    191
    167    168    193    192
    168    169    194    193
    169    170    195    194
    170    171    196    195
    171    172    197    196
    172    173    198    197
    173    174    199    198
    174    150    175    199
    175    176    201    200
    176    177    202    201
    177    178    203    202
    178    179    204    203
    179    180    205    204
    180    181    206    205
    181    182    207    206
    182    183    208    207
    183    184    209    208
    184    185    210    209
    185    186    211    210
    186    187    212    211
    187    188    213    212
    188    189    214    213
    189    190    215    214
    190    191    216    215
    191    192    217    216
    192    193    218    217
    193    194    219    218
    194    195    220    219
    195    196    221    220
    196    197    222    221
    197    198    223    222
    198    199    224    223
    199    175    200    224
    200    201    226    225
    201    202    227    226
    202    203    228    227
    203    204    229    228
    204    205    230    229
    205    206    231    230
    206    207    232    231
    207    208    233    232
    208    209    234    233
    209    210    235    234
    210    211    236    235
    211    212    237    236
    212    213    238    237
    213    214    239    238
    214    215    240    239
    215    216    241    240
    216    217    242    241
    217    218    243    242
    218    219    244    243
    219    220    245    244
    220    221    246    245
    221    222    247    246
    222    223    248    247
    223    224    249    248
    224    200    225    249
    225    226    251    250
    226    227    252    251
    227    228    253    252
    228    229    254    253
    229    230    255    254
    230    231    256    255
    231    232    257    256
    232    233    258    257
    233    234    259    258
    234    235    260    259
    235    236    261    260
    236    237    262    261
    237    238    263    262
    238    239    264    263
    239    240    265    264
    240    241    266    265
    241    242    267    266
    242    243    268    267
    243    244    269    268
    244    245    270    269
    245    246    271    270
    246    247    272    271
    247    248    273    272
    248    249    274    273
    249    225    250    274
    250    251    276    275
    251    252    277    276
    252    253    278    277
    253    254    279    278
    254    255    280    279
    255    256    281    280
    256    257    282    281
    257    258    283    282
    258    259    284    283
    259    260    285    284
    260    261    286    285
    261    262    287    286
    262    263    288    287
    263    264    289    288
    264    265    290    289
    265    266    291    290
    266    267    292    291
    267    268    293    292
    268    269    294    293
    269    270    295    294
    270    271    296    295
    271    272    297    296
    272    273    298    297
    273    274    299    298
    274    250    275    299
    275    276    301    300
    276    277    302    301
    277    278    303    302
    278    279    304    303
    279    280    305    304
    280    281    306    305
    281    282    307    306
    282    283    308    307
    283    284    309    308
    284    285    310    309
    285    286    311    310
    286    287    312    311
    287    288    313    312
    288    289    314    313
    289    290    315    314
    290    291    316    315
    291    292    317    316
    292    293    318    317
    293    294    319    318
    294    295    320    319
    295    296    321    320
    296    297    322    321
    297    298    323    322
    298    299    324    323
    299    275    300    324
    300    301    326    325
    301    302    327    326
    302    303    328    327
    303    304    329    328
    304    305    330    329
    305    306    331    330
    306    307    332    331
    307    308    333    332
    308    309    334    333
    309    310    335    334
    310    311    336    335
    311    312    337    336
    312    313    338    337
    313    314    339    338
    314    315    340    339
    315    316    341    340
    316    317    342    341
    317    318    343    342
    318    319    344    343
    319    320    345    344
    320    321    346    345
    321    322    347    346
    322    323    348    347
    323    324    349    348
    324    300    325    349
    325    326    351    350
    326    327    352    351
    327    328    353    352
    328    329    354    353
    329    330    355    354
    330    331    356    355
    331    332    357    356
    332    333    358    357
    333    334    359    358
    334    335    360    359
    335    336    361    360
    336    337    362    361
    337    338    363    362
    338    339    364    363
    339    340    365    364
    340    341    366    365
    341    342    367    366
    342    343    368    367
    343    344    369    368
    344    345    370    369
    345    346    371    370
    346    347    372    371
    347    348    373    372
    348    349    374    373
    349    325    350    374
    350    351    376    375
    351    352    377    376
    352    353    378    377
    353    354    379    378
    354    355    380    379
    355    356    381    380
    356    357    382    381
    357    358    383    382
    358    359    384    383
    359    360    385    384
    360    361    386    385
    361    362    387    386
    362    363    388    387
    363    364    389    388
    364    365    390    389
    365    366    391    390
    366    367    392    391
    367    368    393    392
    368    369    394    393
    369    370    395    394
    370    371    396    395
    371    372    397    396
    372    373    398    397
    373    374    399    398
    374    350    375    399
    375    376    401    400
    376    377    402    401
    377    378    403    402
    378    379    404    403
    379    380    405    404
    380    381    406    405
    381    382    407    406
    382    383    408    407
    383    384    409    408
    384    385    410    409
    385    386    411    410
    386    387    412    411
    387    388    413    412
    388    389    414    413
    389    390    415    414
    390    391    416    415
    391    392    417    416
    392    393    418    417
    393    394    419    418
    394    395    420    419
    395    396    421    420
    396    397    422    421
    397    398    423    422
    398    399    424    423
    399    375    400    424
    400    401    426    425
    401    402    427    426
    402    403    428    427
    403    404    429    428
    404    405    430    429
    405    406    431    430
    406    407    432    431
    407    408    433    432
    408    409    434    433
    409    410    435    434
    410    411    436    435
    411    412    437    436
    412    413    438    437
    413    414    439    438
    414    415    440    439
    415    416    441    440
    416    417    442    441
    417    418    443    442
    418    419    444    443
    419    420    445    444
    420    421    446    445
    421    422    447    446
    422    423    448    447
    423    424    449    448
    424    400    425    449
    425    426    451    450
    426    427    452    451
    427    428    453    452
    428    429    454    453
    429    430    455    454
    430    431    456    455
    431    432    457    456
    432    433    458    457
    433    434    459    458
    434    435    460    459
    435    436    461    460
    436    437    462    461
    437    438    463    462
    438    439    464    463
    439    440    465    464
    440    441    466    465
    441    442    467    466
    442    443    468    467
    443    444    469    468
    444    445    470    469
    445    446    471    470
    446    447    472    471
    447    448    473    472
    448    449    474    473
    449    425    450    474
    450    451    476    475
    451    452    477    476
    452    453    478    477
    453    454    479    478
    454    455    480    479
    455    456    481    480
    456    457    482    481
    457    458    483    482
    458    459    484    483
    459    460    485    484
    460    461    486    485
    461    462    487    486
    462    463    488    487
    463    464    489    488
    464    465    490    489
    465    466    491    490
    466    467    492    491
    467    468    493    492
    468    469    494    493
    469    470    495    494
    470    471    496    495
    471    472    497    496
    472    473    498    497
    473    474    499    498
    474    450    475    499
    475    476    501    500
    476    477    502    501
    477    478    503    502
    478    479    504    503
    479    480    505    504
    480    481    506    505
    481    482    507    506
    482    483    508    507
    483    484    509    508
    484    485    510    509
    485    486    511    510
    486    487    512    511
    487    488    513    512
    488    489    514    513
    489    490    515    514
    490    491    516    515
    491    492    517    516
    492    493    518    517
    493    494    519    518
    494    495    520    519
    495    496    521    520
    496    497    522    521
    497    498    523    522
    498    499    524    523
    499    475    500    524
    500    501    526    525
    501    502    527    526
    502    503    528    527
    503    504    529    528
    504    505    530    529
    505    506    531    530
    506    507    532    531
    507    508    533    532
    508    509    534    533
    509    510    535    534
    510    511    536    535
    511    512    537    536
    512    513    538    537
    513    514    539    538
    514    515    540    539
    515    516    541    540
    516    517    542    541
    517    518    543    542
    518    519    544    543
    519    520    545    544
    520    521    546    545
    521    522    547    546
    522    523    548    547
    523    524    549    548
    524    500    525    549
    525    526    551    550
    526    527    552    551
    527    528    553    552
    528    529    554    553
    529    530    555    554
    530    531    556    555
    531    532    557    556
    532    533    558    557
    533    534    559    558
    534    535    560    559
    535    536    561    560
    536    537    562    561
    537    538    563    562
    538    539    564    563
    539    540    565    564
    540    541    566    565
    541    542    567    566
    542    543    568    567
    543    544    569    568
    544    545    570    569
    545    546    571    570
    546    547    572    571
    547    548    573    572
    548    549    574    573
    549    525    550    574
    550    551    576    575
    551    552    577    576
    552    553    578    577
    553    554    579    578
    554    555    580    579
    555    556    581    580
    556    557    582    581
    557    558    583    582
    558    559    584    583
    559    560    585    584
    560    561    586    585
    561    562    587    586
    562    563    588    587
    563    564    589    588
    564    565    590    589
    565    566    591    590
    566    567    592    591
    567    568    593    592
    568    569    594    593
    569    570    595    594
    570    571    596    595
    571    572    597    596
    572    573    598    597
    573    574    599    598
    574    550    575    599
    575    576    601    600
    576    577    602    601
    577    578    603    602
    578    579    604    603
    579    580    605    604
    580    581    606    605
    581    582    607    606
    582    583    608    607
    583    584    609    608
    584    585    610    609
    585    586    611    610
    586    587    612    611
    587    588    613    612
    588    589    614    613
    589    590    615    614
    590    591    616    615
    591    592    617    616
    592    593    618    617
    593    594    619    618
    594    595    620    619
    595    596    621    620
    596    597    622    621
    597    598    623    622
    598    599    624    623
    599    575    600    624
        </DataArray>
        <DataArray type="Int32" Name="offsets" format="ascii">
      4
      8
     12
     16
     20
     24
     28
     32
     36
     40
     44
     48
     52
     56
     60
     64
     68
     72
     76
     80
     84
     88
     92
     96
    100
    104
    108
    112
    116
    120
    124
    128
    132
    136
    140
    144
    148
    152
    156
    160
    164
    168
    172
    176
    180
    184
    188
    192
    196
    200
    204
    208
    212
    216
    220
    224
    228
    232
    236
    240
    244
    248
    252
    256
    260
    264
    268
    272
    276
    280
    284
    288
    292
    296
    300
    304
    308
    312
    316
    320
    324
    328
    332
    336
    340
    344
    348
    352
    356
    360
    364
    368
    372
    376
    380
    384
    388
    392
    396
    400
    404
    408
    412
    416
    420
    424
    428
    432
    436
    440
    444
    448
    452
    456
    460
    464
    468
    472
    476
    480
    484
    488
    492
    496
    500
    504
    508
    512
    516
    520
    524
    528
    532
    536
    540
    544
    548
    552
    556
    560
    564
    568
    572
    576
    580
    584
    588
    592
    596
    600
    604
    608
    612
    616
    620
    624
    628
    632
    636
    640
    644
    648
    652
    656
    660
    664
    668
    672
    676
    680
    684
    688
    692
    696
    700
    704
    708
    712
    716
    720
    724
    728
    732
    736
    740
    744
    748
    752
    756
    760
    764
    768
    772
    776
    780
    784
    788
    792
    796
    800
    804
    808
    812
    816
    820
    824
    828
    832
    836
    840
    844
    848
    852
    856
    860
    864
    868
    872
    876
    880
    884
    888
    892
    896
    900
    904
    908
    912
    916
    920
    924
    928
    932
    936
    940
    944
    948
    952
    956
    960
    964
    968
    972
    976
    980
    984
    988
    992
    996
   1000
   1004
   1008
   1012
   1016
   1020
   1024
   1028
   1032
   1036
   1040
   1044
   1048
   1052
   1056
   1060
   1064
   1068
   1072
   1076
   1080
   1084
   1088
   1092
   1096
   1100
   1104
   1108
   1112
   1116
   1120
   1124
   1128
   1132
   1136
   1140
   1144
   1148
   1152
   1156
   1160
   1164
   1168
   1172
   1176
   1180
   1184
   1188
   1192
   1196
   1200
   1204
   1208
   1212
   1216
   1220
   1224
   1228
   1232
   1236
   1240
   1244
   1248
   1252
   1256
   1260
   1264
   1268
   1272
   1276
   1280
   1284
   1288
   1292
   1296
   1300
   1304
   1308
   1312
   1316
   1320
   1324
   1328
   1332
   1336
   1340
   1344
   1348
   1352
   1356
   1360
   1364
   1368
   1372
   1376
   1380
   1384
   1388
   1392
   1396
   1400
   1404
   1408
   1412
   1416
   1420
   1424
   1428
   1432
   1436
   1440
   1444
   1448
   1452
   1456
   1460
   1464
   1468
   1472
   1476
   1480
   1484
   1488
   1492
   1496
   1500
   1504
   1508
   1512
   1516
   1520
   1524
   1528
   1532
   1536
   1540
   1544
   1548
   1552
   1556
   1560
   1564
   1568
   1572
   1576
   1580
   1584
   1588
   1592
   1596
   1600
   1604
   1608
   1612
   1616
   1620
   1624
   1628
   1632
   1636
   1640
   1644
   1648
   1652
   1656
   1660
   1664
   1668
   1672
   1676
   1680
   1684
   1688
   1692
   1696
   1700
   1704
   1708
   1712
   1716
   1720
   1724
   1728
   1732
   1736
   1740
   1744
   1748
   1752
   1756
   1760
   1764
   1768
   1772
   1776
   1780
   1784
   1788
   1792
   1796
   1800
   1804
   1808
   1812
   1816
   1820
   1824
   1828
   1832
   1836
   1840
   1844
   1848
   1852
   1856
   1860
   1864
   1868
   1872
   1876
   1880
   1884
   1888
   1892
   1896
   1900
   1904
   1908
   1912
   1916
   1920
   1924
   1928
   1932
   1936
   1940
   1944
   1948
   1952
   1956
   1960
   1964
   1968
   1972
   1976
   1980
   1984
   1988
   1992
   1996
   2000
   2004
   2008
   2012
   2016
   2020
   2024
   2028
   2032
   2036
   2040
   2044
   2048
   2052
   2056
   2060
   2064
   2068
   2072
   2076
   2080
   2084
   2088
   2092
   2096
   2100
   2104
   2108
   2112
   2116
   2120
   2124
   2128
   2132
   2136
   2140
   2144
   2148
   2152
   2156
   2160
   2164
   2168
   2172
   2176
   2180
   2184
   2188
   2192
   2196
   2200
   2204
   2208
   2212
   2216
   2220
   2224
   2228
   2232
   2236
   2240
   2244
   2248
   2252
   2256
   2260
   2264
   2268
   2272
   2276
   2280
   2284
   2288
   2292
   2296
   2300
   2304
   2308
   2312
   2316
   2320
   2324
   2328
   2332
   2336
   2340
   2344
   2348
   2352
   2356
   2360
   2364
   2368
   2372
   2376
   2380
   2384
   2388
   2392
   2396
   2400
        </DataArray>
      </Polys>
    </Piece>
  </PolyData>
</VTKFile>
