<?xml version="1.0"?>
<VTKFile type="PolyData" version="0.1" byte_order="LittleEndian">
  <PolyData>
    <Piece NumberOfPoints="    625" NumberOfVerts="  0" NumberOfLines="      0"
           NumberOfStrips="  0" NumberOfPolys="    600">
      <Points>
        <DataArray type="Float32" NumberOfComponents="3" format="ascii">
                      -4.93257                      -1.28508                      90.77074
                      -4.93257                      -1.28508                      90.77074
                      -4.93257                      -1.28508                      90.77074
                      -4.93257                      -1.28508                      90.77074
                      -4.93257                      -1.28508                      90.77074
                      -4.93257                      -1.28508                      90.77074
                      -4.93257                      -1.28508                      90.77074
                      -4.93257                      -1.28508                      90.77074
                      -4.93257                      -1.28508                      90.77074
                      -4.93257                      -1.28508                      90.77074
                      -4.93257                      -1.28508                      90.77074
                      -4.93257                      -1.28508                      90.77074
                      -4.93257                      -1.28508                      90.77074
                      -4.93257                      -1.28508                      90.77074
                      -4.93257                      -1.28508                      90.77074
                      -4.93257                      -1.28508                      90.77074
                      -4.93257                      -1.28508                      90.77074
                      -4.93257                      -1.28508                      90.77074
                      -4.93257                      -1.28508                      90.77074
                      -4.93257                      -1.28508                      90.77074
                      -4.93257                      -1.28508                      90.77074
                      -4.93257                      -1.28508                      90.77074
                      -4.93257                      -1.28508                      90.77074
                      -4.93257                      -1.28508                      90.77074
                      -4.93257                      -1.28508                      90.77074
                      -4.34099                      -1.17799                      90.65426
                      -4.37089                      -1.25488                      90.52867
                      -4.43643                      -1.32695                      90.41425
                      -4.53349                      -1.38965                      90.31819
                      -4.65599                      -1.43906                      90.24653
                      -4.79622                      -1.47206                      90.20378
                      -4.94536                      -1.48658                      90.19261
                      -5.09406                      -1.48171                      90.21373
                      -5.23297                      -1.45776                      90.26582
                      -5.35335                      -1.41623                      90.34560
                      -5.44764                      -1.35973                      90.44805
                      -5.50993                      -1.29181                      90.56675
                      -5.53629                      -1.21674                      90.69422
                      -5.52507                      -1.13923                      90.82247
                      -5.47697                      -1.06416                      90.94343
                      -5.39502                      -0.99624                      91.04951
                      -5.28437                      -0.93974                      91.13403
                      -5.15196                      -0.89821                      91.19169
                      -5.00612                      -0.87426                      91.21887
                      -4.85602                      -0.86939                      91.21385
                      -4.71107                      -0.88392                      91.17695
                      -4.58040                      -0.91692                      91.11050
                      -4.47221                      -0.96632                      91.01866
                      -4.39330                      -1.02903                      90.90720
                      -4.34862                      -1.10109                      90.78314
                      -4.11781                      -1.07090                      90.57002
                      -4.15915                      -1.17725                      90.39630
                      -4.24980                      -1.27693                      90.23804
                      -4.38406                      -1.36366                      90.10518
                      -4.55349                      -1.43199                      90.00607
                      -4.74744                      -1.47763                      89.94694
                      -4.95373                      -1.49772                      89.93149
                      -5.15940                      -1.49099                      89.96071
                      -5.35152                      -1.45786                      90.03275
                      -5.51803                      -1.40042                      90.14309
                      -5.64845                      -1.32227                      90.28480
                      -5.73460                      -1.22833                      90.44897
                      -5.77106                      -1.12450                      90.62529
                      -5.75554                      -1.01730                      90.80267
                      -5.68901                      -0.91346                      90.96998
                      -5.57567                      -0.81952                      91.11669
                      -5.42262                      -0.74137                      91.23360
                      -5.23948                      -0.68393                      91.31335
                      -5.03777                      -0.65081                      91.35094
                      -4.83015                      -0.64407                      91.34400
                      -4.62968                      -0.66416                      91.29297
                      -4.44894                      -0.70981                      91.20105
                      -4.29930                      -0.77814                      91.07402
                      -4.19015                      -0.86487                      90.91987
                      -4.12836                      -0.96454                      90.74827
                      -3.96105                      -0.96381                      90.49158
                      -4.01052                      -1.09107                      90.28372
                      -4.11899                      -1.21034                      90.09435
                      -4.27964                      -1.31412                      89.93537
                      -4.48238                      -1.39588                      89.81677
                      -4.71446                      -1.45050                      89.74601
                      -4.96130                      -1.47454                      89.72753
                      -5.20740                      -1.46648                      89.76249
                      -5.43729                      -1.42684                      89.84870
                      -5.63653                      -1.35811                      89.98073
                      -5.79259                      -1.26460                      90.15030
                      -5.89567                      -1.15219                      90.34674
                      -5.93930                      -1.02795                      90.55772
                      -5.92073                      -0.89967                      90.76997
                      -5.84113                      -0.77542                      90.97017
                      -5.70550                      -0.66301                      91.14573
                      -5.52236                      -0.56950                      91.28562
                      -5.30323                      -0.50077                      91.38105
                      -5.06186                      -0.46113                      91.42602
                      -4.81343                      -0.45308                      91.41772
                      -4.57354                      -0.47711                      91.35665
                      -4.35728                      -0.53173                      91.24667
                      -4.17822                      -0.61350                      91.09467
                      -4.04761                      -0.71727                      90.91021
                      -3.97367                      -0.83654                      90.70488
                      -3.84127                      -0.85672                      90.41638
                      -3.89702                      -1.00013                      90.18215
                      -4.01925                      -1.13453                      89.96875
                      -4.20028                      -1.25147                      89.78960
                      -4.42874                      -1.34361                      89.65596
                      -4.69027                      -1.40516                      89.57622
                      -4.96843                      -1.43225                      89.55540
                      -5.24575                      -1.42317                      89.59479
                      -5.50481                      -1.37850                      89.69193
                      -5.72932                      -1.30105                      89.84072
                      -5.90518                      -1.19567                      90.03180
                      -6.02134                      -1.06900                      90.25316
                      -6.07051                      -0.92899                      90.49091
                      -6.04958                      -0.78444                      90.73009
                      -5.95988                      -0.64443                      90.95569
                      -5.80704                      -0.51776                      91.15352
                      -5.60067                      -0.41239                      91.31116
                      -5.35374                      -0.33493                      91.41870
                      -5.08175                      -0.29027                      91.46938
                      -4.80180                      -0.28119                      91.46002
                      -4.53147                      -0.30828                      91.39121
                      -4.28777                      -0.36982                      91.26727
                      -4.08599                      -0.46196                      91.09598
                      -3.93882                      -0.57891                      90.88812
                      -3.85550                      -0.71331                      90.65674
                      -3.74695                      -0.74963                      90.34341
                      -3.80771                      -0.90591                      90.08816
                      -3.94091                      -1.05237                      89.85562
                      -4.13818                      -1.17980                      89.66039
                      -4.38714                      -1.28021                      89.51476
                      -4.67213                      -1.34728                      89.42787
                      -4.97525                      -1.37680                      89.40517
                      -5.27745                      -1.36690                      89.44810
                      -5.55975                      -1.31823                      89.55396
                      -5.80441                      -1.23382                      89.71610
                      -5.99605                      -1.11900                      89.92432
                      -6.12264                      -0.98096                      90.16555
                      -6.17621                      -0.82839                      90.42462
                      -6.15341                      -0.67087                      90.68527
                      -6.05566                      -0.51830                      90.93111
                      -5.88911                      -0.38026                      91.14669
                      -5.66422                      -0.26543                      91.31847
                      -5.39513                      -0.18103                      91.43566
                      -5.09873                      -0.13235                      91.49089
                      -4.79366                      -0.12246                      91.48069
                      -4.49909                      -0.15198                      91.40570
                      -4.23352                      -0.21905                      91.27064
                      -4.01363                      -0.31945                      91.08399
                      -3.85326                      -0.44689                      90.85748
                      -3.76246                      -0.59335                      90.60534
                      -3.67219                      -0.64254                      90.27215
                      -3.73697                      -0.80917                      89.99999
                      -3.87899                      -0.96533                      89.75205
                      -4.08933                      -1.10120                      89.54390
                      -4.35477                      -1.20826                      89.38862
                      -4.65864                      -1.27977                      89.29597
                      -4.98183                      -1.31124                      89.27178
                      -5.30405                      -1.30070                      89.31755
                      -5.60505                      -1.24880                      89.43042
                      -5.86591                      -1.15880                      89.60329
                      -6.07024                      -1.03637                      89.82530
                      -6.20521                      -0.88919                      90.08251
                      -6.26233                      -0.72651                      90.35874
                      -6.23802                      -0.55856                      90.63665
                      -6.13380                      -0.39589                      90.89877
                      -5.95622                      -0.24871                      91.12863
                      -5.71644                      -0.12627                      91.31179
                      -5.42952                      -0.03628                      91.43673
                      -5.11350                       0.01562                      91.49562
                      -4.78822                       0.02617                      91.48475
                      -4.47414                      -0.00531                      91.40480
                      -4.19098                      -0.07682                      91.26079
                      -3.95653                      -0.18387                      91.06178
                      -3.78553                      -0.31975                      90.82026
                      -3.68873                      -0.47591                      90.55142
                      -3.61350                      -0.53545                      90.20230
                      -3.68150                      -0.71036                      89.91662
                      -3.83058                      -0.87428                      89.65635
                      -4.05137                      -1.01690                      89.43786
                      -4.33000                      -1.12928                      89.27486
                      -4.64897                      -1.20435                      89.17761
                      -4.98823                      -1.23738                      89.15221
                      -5.32646                      -1.22631                      89.20026
                      -5.64241                      -1.17183                      89.31874
                      -5.91623                      -1.07737                      89.50020
                      -6.13072                      -0.94885                      89.73325
                      -6.27239                      -0.79436                      90.00323
                      -6.33235                      -0.62360                      90.29319
                      -6.30683                      -0.44730                      90.58491
                      -6.19743                      -0.27654                      90.86005
                      -6.01103                      -0.12205                      91.10133
                      -5.75933                       0.00647                      91.29359
                      -5.45816                       0.10093                      91.42475
                      -5.12643                       0.15541                      91.48656
                      -4.78499                       0.16648                      91.47515
                      -4.45530                       0.13345                      91.39122
                      -4.15807                       0.05838                      91.24006
                      -3.91198                      -0.05399                      91.03116
                      -3.73248                      -0.19662                      90.77765
                      -3.63086                      -0.36054                      90.49545
                      -3.56869                      -0.42836                      90.13366
                      -3.63921                      -0.60976                      89.83737
                      -3.79383                      -0.77977                      89.56744
                      -4.02282                      -0.92769                      89.34084
                      -4.31179                      -1.04424                      89.17179
                      -4.64260                      -1.12209                      89.07093
                      -4.99445                      -1.15635                      89.04459
                      -5.34524                      -1.14487                      89.09442
                      -5.67292                      -1.08837                      89.21730
                      -5.95691                      -0.99040                      89.40549
                      -6.17936                      -0.85711                      89.64719
                      -6.32630                      -0.69688                      89.92720
                      -6.38848                      -0.51978                      90.22793
                      -6.36201                      -0.33694                      90.53047
                      -6.24855                      -0.15984                      90.81583
                      -6.05522                       0.00039                      91.06607
                      -5.79418                       0.13368                      91.26547
                      -5.48183                       0.23165                      91.40150
                      -5.13779                       0.28815                      91.46560
                      -4.78367                       0.29963                      91.45377
                      -4.44174                       0.26537                      91.36672
                      -4.13348                       0.18752                      91.20995
                      -3.87824                       0.07097                      90.99329
                      -3.69208                      -0.07695                      90.73037
                      -3.58669                      -0.24696                      90.43769
                      -3.53630                      -0.32127                      90.06610
                      -3.60873                      -0.50757                      89.76182
                      -3.76751                      -0.68216                      89.48461
                      -4.00268                      -0.83407                      89.25189
                      -4.29945                      -0.95376                      89.07829
                      -4.63918                      -1.03372                      88.97470
                      -5.00053                      -1.06890                      88.94765
                      -5.36078                      -1.05711                      88.99883
                      -5.69730                      -0.99909                      89.12502
                      -5.98895                      -0.89847                      89.31830
                      -6.21741                      -0.76159                      89.56651
                      -6.36830                      -0.59704                      89.85408
                      -6.43217                      -0.41516                      90.16292
                      -6.40498                      -0.22738                      90.47363
                      -6.28846                      -0.04550                      90.76668
                      -6.08992                       0.11905                      91.02367
                      -5.82184                       0.25593                      91.22845
                      -5.50105                       0.35655                      91.36815
                      -5.14773                       0.41457                      91.43399
                      -4.78406                       0.42636                      91.42183
                      -4.43291                       0.39118                      91.33244
                      -4.11632                       0.31123                      91.17144
                      -3.85420                       0.19153                      90.94893
                      -3.66302                       0.03962                      90.67891
                      -3.55479                      -0.13497                      90.37834
                      -3.51537                      -0.21418                      89.99955
                      -3.58912                      -0.40389                      89.68969
                      -3.75082                      -0.58169                      89.40739
                      -3.99030                      -0.73639                      89.17040
                      -4.29252                      -0.85828                      88.99361
                      -4.63849                      -0.93970                      88.88813
                      -5.00646                      -0.97553                      88.86058
                      -5.37333                      -0.96352                      88.91269
                      -5.71603                      -0.90443                      89.04120
                      -6.01303                      -0.80197                      89.23802
                      -6.24567                      -0.66258                      89.49080
                      -6.39934                      -0.49501                      89.78364
                      -6.46438                      -0.30979                      90.09814
                      -6.43669                      -0.11857                      90.41455
                      -6.31803                       0.06665                      90.71299
                      -6.11585                       0.23422                      90.97470
                      -5.84285                       0.37361                      91.18323
                      -5.51618                       0.47607                      91.32549
                      -5.15637                       0.53517                      91.39254
                      -4.78603                       0.54717                      91.38015
                      -4.42843                       0.51134                      91.28913
                      -4.10604                       0.42992                      91.12517
                      -3.83911                       0.30803                      90.89858
                      -3.64442                       0.15333                      90.62361
                      -3.53420                      -0.02446                      90.31752
                      -3.50529                      -0.10709                      89.93395
                      -3.57983                      -0.29883                      89.62078
                      -3.74325                      -0.47852                      89.33548
                      -3.98528                      -0.63487                      89.09596
                      -4.29072                      -0.75806                      88.91729
                      -4.64038                      -0.84034                      88.81068
                      -5.01227                      -0.87656                      88.78283
                      -5.38305                      -0.86442                      88.83551
                      -5.72940                      -0.80470                      88.96538
                      -6.02956                      -0.70115                      89.16430
                      -6.26469                      -0.56026                      89.41977
                      -6.41999                      -0.39091                      89.71573
                      -6.48572                      -0.20372                      90.03359
                      -6.45775                      -0.01046                      90.35337
                      -6.33782                       0.17673                      90.65499
                      -6.13348                       0.34609                      90.91949
                      -5.85757                       0.48697                      91.13024
                      -5.52742                       0.59052                      91.27402
                      -5.16377                       0.65024                      91.34178
                      -4.78949                       0.66238                      91.32927
                      -4.42808                       0.62616                      91.23727
                      -4.10225                       0.54388                      91.07156
                      -3.83247                       0.42069                      90.84256
                      -3.63571                       0.26434                      90.56466
                      -3.52431                       0.08465                      90.25531
                      -3.50571                       0.00000                      89.86927
                      -3.58051                      -0.19241                      89.55501
                      -3.74450                      -0.37272                      89.26871
                      -3.98738                      -0.52962                      89.02835
                      -4.29389                      -0.65324                      88.84906
                      -4.64476                      -0.73581                      88.74208
                      -5.01795                      -0.77215                      88.71413
                      -5.39002                      -0.75997                      88.76699
                      -5.73758                      -0.70005                      88.89732
                      -6.03880                      -0.59613                      89.09694
                      -6.27474                      -0.45476                      89.35329
                      -6.43059                      -0.28481                      89.65029
                      -6.49655                      -0.09697                      89.96926
                      -6.46847                       0.09697                      90.29016
                      -6.34813                       0.28481                      90.59282
                      -6.14308                       0.45476                      90.85824
                      -5.86620                       0.59613                      91.06974
                      -5.53490                       0.70005                      91.21401
                      -5.16999                       0.75997                      91.28201
                      -4.79439                       0.77215                      91.26945
                      -4.43172                       0.73581                      91.17713
                      -4.10475                       0.65324                      91.01085
                      -3.83404                       0.52962                      90.78105
                      -3.63659                       0.37272                      90.50218
                      -3.52480                       0.19241                      90.19175
                      -3.51653                       0.10709                      89.80550
                      -3.59106                      -0.08465                      89.49233
                      -3.75449                      -0.26434                      89.20702
                      -3.99652                      -0.42069                      88.96751
                      -4.30196                      -0.54388                      88.78883
                      -4.65161                      -0.62616                      88.68222
                      -5.02351                      -0.66238                      88.65438
                      -5.39428                      -0.65024                      88.70705
                      -5.74064                      -0.59052                      88.83693
                      -6.04080                      -0.48697                      89.03585
                      -6.27593                      -0.34609                      89.29132
                      -6.43123                      -0.17673                      89.58728
                      -6.49696                       0.01046                      89.90514
                      -6.46898                       0.20372                      90.22492
                      -6.34906                       0.39091                      90.52653
                      -6.14472                       0.56027                      90.79103
                      -5.86881                       0.70115                      91.00179
                      -5.53866                       0.80470                      91.14556
                      -5.17501                       0.86442                      91.21332
                      -4.80073                       0.87656                      91.20081
                      -4.43931                       0.84034                      91.10881
                      -4.11349                       0.75806                      90.94311
                      -3.84371                       0.63487                      90.71411
                      -3.64695                       0.47852                      90.43620
                      -3.53555                       0.29883                      90.12685
                      -3.53785                       0.21418                      89.74264
                      -3.61160                       0.02446                      89.43278
                      -3.77330                      -0.15333                      89.15048
                      -4.01278                      -0.30803                      88.91349
                      -4.31500                      -0.42992                      88.73670
                      -4.66097                      -0.51134                      88.63121
                      -5.02894                      -0.54717                      88.60366
                      -5.39580                      -0.53517                      88.65578
                      -5.73850                      -0.47607                      88.78429
                      -6.03551                      -0.37361                      88.98111
                      -6.26815                      -0.23422                      89.23388
                      -6.42182                      -0.06665                      89.52672
                      -6.48685                       0.11857                      89.84123
                      -6.45917                       0.30979                      90.15764
                      -6.34051                       0.49501                      90.45608
                      -6.13833                       0.66258                      90.71778
                      -5.86532                       0.80197                      90.92632
                      -5.53865                       0.90443                      91.06858
                      -5.17885                       0.96352                      91.13562
                      -4.80851                       0.97553                      91.12324
                      -4.45091                       0.93970                      91.03221
                      -4.12851                       0.85828                      90.86826
                      -3.86158                       0.73639                      90.64167
                      -3.66689                       0.58169                      90.36670
                      -3.55667                       0.40389                      90.06061
                      -3.57002                       0.32127                      89.68074
                      -3.64244                       0.13497                      89.37645
                      -3.80123                      -0.03962                      89.09924
                      -4.03639                      -0.19153                      88.86653
                      -4.33317                      -0.31123                      88.69292
                      -4.67290                      -0.39118                      88.58934
                      -5.03424                      -0.42636                      88.56228
                      -5.39449                      -0.41457                      88.61346
                      -5.73102                      -0.35655                      88.73965
                      -6.02267                      -0.25593                      88.93293
                      -6.25112                      -0.11905                      89.18115
                      -6.40202                       0.04550                      89.46871
                      -6.46588                       0.22738                      89.77755
                      -6.43870                       0.41516                      90.08826
                      -6.32218                       0.59704                      90.38132
                      -6.12364                       0.76159                      90.63831
                      -5.85555                       0.89847                      90.84308
                      -5.53477                       0.99909                      90.98278
                      -5.18145                       1.05711                      91.04862
                      -4.81778                       1.06890                      91.03646
                      -4.46662                       1.03372                      90.94707
                      -4.15004                       0.95376                      90.78607
                      -3.88792                       0.83407                      90.56357
                      -3.69674                       0.68216                      90.29355
                      -3.58850                       0.50757                      89.99297
                      -3.61365                       0.42836                      89.61983
                      -3.68417                       0.24696                      89.32355
                      -3.83878                       0.07695                      89.05362
                      -4.06777                      -0.07097                      88.82701
                      -4.35675                      -0.18752                      88.65797
                      -4.68755                      -0.26537                      88.55711
                      -5.03940                      -0.29963                      88.53076
                      -5.39019                      -0.28815                      88.58060
                      -5.71788                      -0.23165                      88.70347
                      -6.00186                      -0.13368                      88.89167
                      -6.22431                      -0.00039                      89.13337
                      -6.37125                       0.15984                      89.41338
                      -6.43344                       0.33694                      89.71410
                      -6.40697                       0.51978                      90.01665
                      -6.29350                       0.69688                      90.30201
                      -6.10018                       0.85711                      90.55225
                      -5.83914                       0.99040                      90.75165
                      -5.52678                       1.08837                      90.88767
                      -5.18274                       1.14487                      90.95178
                      -4.82863                       1.15635                      90.93994
                      -4.48670                       1.12209                      90.85290
                      -4.17843                       1.04424                      90.69613
                      -3.92320                       0.92769                      90.47947
                      -3.73704                       0.77977                      90.21654
                      -3.63165                       0.60976                      89.92387
                      -3.66970                       0.53545                      89.56002
                      -3.73769                       0.36054                      89.27434
                      -3.88677                       0.19662                      89.01407
                      -4.10756                       0.05399                      88.79558
                      -4.38620                      -0.05838                      88.63258
                      -4.70516                      -0.13345                      88.53533
                      -5.04442                      -0.16648                      88.50993
                      -5.38265                      -0.15541                      88.55798
                      -5.69860                      -0.10093                      88.67646
                      -5.97242                      -0.00647                      88.85792
                      -6.18691                       0.12205                      89.09097
                      -6.32859                       0.27654                      89.36095
                      -6.38855                       0.44730                      89.65091
                      -6.36302                       0.62360                      89.94263
                      -6.25362                       0.79436                      90.21777
                      -6.06722                       0.94885                      90.45906
                      -5.81552                       1.07737                      90.65131
                      -5.51435                       1.17183                      90.78247
                      -5.18262                       1.22631                      90.84428
                      -4.84119                       1.23738                      90.83287
                      -4.51149                       1.20435                      90.74895
                      -4.21426                       1.12928                      90.59778
                      -3.96817                       1.01690                      90.38888
                      -3.78867                       0.87428                      90.13537
                      -3.68705                       0.71036                      89.85317
                      -3.73962                       0.64254                      89.50142
                      -3.80440                       0.47591                      89.22926
                      -3.94642                       0.31975                      88.98131
                      -4.15676                       0.18387                      88.77316
                      -4.42220                       0.07682                      88.61789
                      -4.72607                       0.00531                      88.52524
                      -5.04926                      -0.02617                      88.50104
                      -5.37148                      -0.01562                      88.54682
                      -5.67248                       0.03628                      88.65968
                      -5.93334                       0.12627                      88.83256
                      -6.13767                       0.24871                      89.05457
                      -6.27264                       0.39589                      89.31177
                      -6.32976                       0.55856                      89.58801
                      -6.30545                       0.72651                      89.86592
                      -6.20123                       0.88919                      90.12803
                      -6.02365                       1.03637                      90.35789
                      -5.78387                       1.15880                      90.54105
                      -5.49695                       1.24880                      90.66600
                      -5.18093                       1.30070                      90.72489
                      -4.85565                       1.31124                      90.71401
                      -4.54157                       1.27977                      90.63406
                      -4.25841                       1.20826                      90.49005
                      -4.02396                       1.10120                      90.29104
                      -3.85296                       0.96533                      90.04953
                      -3.75616                       0.80917                      89.78069
                      -3.82562                       0.74963                      89.44422
                      -3.88638                       0.59335                      89.18897
                      -4.01958                       0.44689                      88.95642
                      -4.21685                       0.31945                      88.76120
                      -4.46581                       0.21905                      88.61557
                      -4.75080                       0.15198                      88.52868
                      -5.05392                       0.12246                      88.50598
                      -5.35612                       0.13235                      88.54891
                      -5.63842                       0.18103                      88.65477
                      -5.88308                       0.26543                      88.81691
                      -6.07472                       0.38026                      89.02513
                      -6.20131                       0.51830                      89.26636
                      -6.25488                       0.67087                      89.52543
                      -6.23208                       0.82839                      89.78608
                      -6.13433                       0.98096                      90.03192
                      -5.96778                       1.11900                      90.24750
                      -5.74289                       1.23382                      90.41928
                      -5.47380                       1.31823                      90.53647
                      -5.17740                       1.36690                      90.59170
                      -4.87233                       1.37680                      90.58150
                      -4.57776                       1.34728                      90.50651
                      -4.31219                       1.28021                      90.37145
                      -4.09230                       1.17980                      90.18480
                      -3.93192                       1.05237                      89.95829
                      -3.84113                       0.90591                      89.70615
                      -3.93117                       0.85672                      89.38874
                      -3.98693                       0.71331                      89.15450
                      -4.10916                       0.57891                      88.94110
                      -4.29019                       0.46196                      88.76196
                      -4.51865                       0.36982                      88.62831
                      -4.78017                       0.30828                      88.54858
                      -5.05834                       0.28119                      88.52775
                      -5.33566                       0.29027                      88.56715
                      -5.59471                       0.33493                      88.66429
                      -5.81923                       0.41239                      88.81307
                      -5.99509                       0.51776                      89.00415
                      -6.11125                       0.64443                      89.22552
                      -6.16041                       0.78444                      89.46326
                      -6.13949                       0.92899                      89.70245
                      -6.04979                       1.06900                      89.92804
                      -5.89695                       1.19567                      90.12587
                      -5.69058                       1.30105                      90.28351
                      -5.44364                       1.37850                      90.39105
                      -5.17165                       1.42317                      90.44173
                      -4.89170                       1.43225                      90.43237
                      -4.62138                       1.40516                      90.36356
                      -4.37768                       1.34361                      90.23962
                      -4.17590                       1.25147                      90.06834
                      -4.02872                       1.13453                      89.86048
                      -3.94541                       1.00013                      89.62910
                      -4.06219                       0.96381                      89.33548
                      -4.11167                       0.83654                      89.12762
                      -4.22014                       0.71727                      88.93824
                      -4.38079                       0.61350                      88.77927
                      -4.58352                       0.53173                      88.66067
                      -4.81560                       0.47711                      88.58991
                      -5.06245                       0.45308                      88.57143
                      -5.30855                       0.46113                      88.60639
                      -5.53844                       0.50077                      88.69260
                      -5.73767                       0.56950                      88.82463
                      -5.89374                       0.66301                      88.99419
                      -5.99682                       0.77542                      89.19064
                      -6.04045                       0.89967                      89.40162
                      -6.02188                       1.02795                      89.61387
                      -5.94228                       1.15219                      89.81407
                      -5.80665                       1.26460                      89.98962
                      -5.62351                       1.35811                      90.12951
                      -5.40437                       1.42684                      90.22494
                      -5.16301                       1.46648                      90.26992
                      -4.91458                       1.47454                      90.26162
                      -4.67469                       1.45050                      90.20055
                      -4.45842                       1.39588                      90.09056
                      -4.27936                       1.31412                      89.93857
                      -4.14876                       1.21034                      89.75411
                      -4.07482                       1.09107                      89.54878
                      -4.23019                       1.07090                      89.28546
                      -4.27154                       0.96454                      89.11174
                      -4.36219                       0.86487                      88.95348
                      -4.49645                       0.77814                      88.82063
                      -4.66587                       0.70981                      88.72151
                      -4.85983                       0.66416                      88.66238
                      -5.06612                       0.64407                      88.64693
                      -5.27178                       0.65081                      88.67615
                      -5.46391                       0.68393                      88.74819
                      -5.63041                       0.74137                      88.85854
                      -5.76083                       0.81952                      89.00024
                      -5.84698                       0.91346                      89.16441
                      -5.88344                       1.01730                      89.34073
                      -5.86792                       1.12450                      89.51811
                      -5.80140                       1.22833                      89.68542
                      -5.68805                       1.32227                      89.83213
                      -5.53500                       1.40042                      89.94904
                      -5.35187                       1.45786                      90.02879
                      -5.15016                       1.49099                      90.06638
                      -4.94254                       1.49772                      90.05944
                      -4.74206                       1.47763                      90.00841
                      -4.56133                       1.43199                      89.91649
                      -4.41168                       1.36366                      89.78946
                      -4.30254                       1.27693                      89.63531
                      -4.24075                       1.17725                      89.46371
                      -4.46461                       1.17799                      89.24125
                      -4.49451                       1.10109                      89.11565
                      -4.56005                       1.02903                      89.00123
                      -4.65712                       0.96632                      88.90517
                      -4.77961                       0.91692                      88.83352
                      -4.91984                       0.88392                      88.79076
                      -5.06899                       0.86939                      88.77960
                      -5.21768                       0.87426                      88.80072
                      -5.35659                       0.89821                      88.85281
                      -5.47697                       0.93974                      88.93258
                      -5.57127                       0.99624                      89.03504
                      -5.63355                       1.06416                      89.15373
                      -5.65991                       1.13923                      89.28121
                      -5.64869                       1.21674                      89.40946
                      -5.60059                       1.29181                      89.53042
                      -5.51864                       1.35973                      89.63649
                      -5.40799                       1.41623                      89.72102
                      -5.27559                       1.45776                      89.77868
                      -5.12975                       1.48171                      89.80585
                      -4.97964                       1.48658                      89.80084
                      -4.83470                       1.47206                      89.76394
                      -4.70402                       1.43906                      89.69748
                      -4.59583                       1.38965                      89.60564
                      -4.51692                       1.32695                      89.49419
                      -4.47224                       1.25488                      89.37013
                      -5.06743                       1.28508                      89.22927
                      -5.06743                       1.28508                      89.22927
                      -5.06743                       1.28508                      89.22927
                      -5.06743                       1.28508                      89.22927
                      -5.06743                       1.28508                      89.22927
                      -5.06743                       1.28508                      89.22927
                      -5.06743                       1.28508                      89.22927
                      -5.06743                       1.28508                      89.22927
                      -5.06743                       1.28508                      89.22927
                      -5.06743                       1.28508                      89.22927
                      -5.06743                       1.28508                      89.22927
                      -5.06743                       1.28508                      89.22927
                      -5.06743                       1.28508                      89.22927
                      -5.06743                       1.28508                      89.22927
                      -5.06743                       1.28508                      89.22927
                      -5.06743                       1.28508                      89.22927
                      -5.06743                       1.28508                      89.22927
                      -5.06743                       1.28508                      89.22927
                      -5.06743                       1.28508                      89.22927
                      -5.06743                       1.28508                      89.22927
                      -5.06743                       1.28508                      89.22927
                      -5.06743                       1.28508                      89.22927
                      -5.06743                       1.28508                      89.22927
                      -5.06743                       1.28508                      89.22927
                      -5.06743                       1.28508                      89.22927
        </DataArray>
      </Points>
      <Polys>
        <DataArray type="Int32" Name="connectivity" format="ascii">
      0      1     26     25
      1      2     27     26
      2      3     28     27
      3      4     29     28
      4      5     30     29
      5      6     31     30
      6      7     32     31
      7      8     33     32
      8      9     34     33
      9     10     35     34
     10     11     36     35
     11     12     37     36
     12     13     38     37
     13     14     39     38
     14     15     40     39
     15     16     41     40
     16     17     42     41
     17     18     43     42
     18     19     44     43
     19     20     45     44
     20     21     46     45
     21     22     47     46
     22     23     48     47
     23     24     49     48
     24      0     25     49
     25     26     51     50
     26     27     52     51
     27     28     53     52
     28     29     54     53
     29     30     55     54
     30     31     56     55
     31     32     57     56
     32     33     58     57
     33     34     59     58
     34     35     60     59
     35     36     61     60
     36     37     62     61
     37     38     63     62
     38     39     64     63
     39     40     65     64
     40     41     66     65
     41     42     67     66
     42     43     68     67
     43     44     69     68
     44     45     70     69
     45     46     71     70
     46     47     72     71
     47     48     73     72
     48     49     74     73
     49     25     50     74
     50     51     76     75
     51     52     77     76
     52     53     78     77
     53     54     79     78
     54     55     80     79
     55     56     81     80
     56     57     82     81
     57     58     83     82
     58     59     84     83
     59     60     85     84
     60     61     86     85
     61     62     87     86
     62     63     88     87
     63     64     89     88
     64     65     90     89
     65     66     91     90
     66     67     92     91
     67     68     93     92
     68     69     94     93
     69     70     95     94
     70     71     96     95
     71     72     97     96
     72     73     98     97
     73     74     99     98
     74     50     75     99
     75     76    101    100
     76     77    102    101
     77     78    103    102
     78     79    104    103
     79     80    105    104
     80     81    106    105
     81     82    107    106
     82     83    108    107
     83     84    109    108
     84     85    110    109
     85     86    111    110
     86     87    112    111
     87     88    113    112
     88     89    114    113
     89     90    115    114
     90     91    116    115
     91     92    117    116
     92     93    118    117
     93     94    119    118
     94     95    120    119
     95     96    121    120
     96     97    122    121
     97     98    123    122
     98     99    124    123
     99     75    100    124
    100    101    126    125
    101    102    127    126
    102    103    128    127
    103    104    129    128
    104    105    130    129
    105    106    131    130
    106    107    132    131
    107    108    133    132
    108    109    134    133
    109    110    135    134
    110    111    136    135
    111    112    137    136
    112    113    138    137
    113    114    139    138
    114    115    140    139
    115    116    141    140
    116    117    142    141
    117    118    143    142
    118    119    144    143
    119    120    145    144
    120    121    146    145
    121    122    147    146
    122    123    148    147
    123    124    149    148
    124    100    125    149
    125    126    151    150
    126    127    152    151
    127    128    153    152
    128    129    154    153
    129    130    155    154
    130    131    156    155
    131    132    157    156
    132    133    158    157
    133    134    159    158
    134    135    160    159
    135    136    161    160
    136    137    162    161
    137    138    163    162
    138    139    164    163
    139    140    165    164
    140    141    166    165
    141    142    167    166
    142    143    168    167
    143    144    169    168
    144    145    170    169
    145    146    171    170
    146    147    172    171
    147    148    173    172
    148    149    174    173
    149    125    150    174
    150    151    176    175
    151    152    177    176
    152    153    178    177
    153    154    179    178
    154    155    180    179
    155    156    181    180
    156    157    182    181
    157    158    183    182
    158    159    184    183
    159    160    185    184
    160    161    186    185
    161    162    187    186
    162    163    188    187
    163    164    189    188
    164    165    190    189
    165    166    191    190
    166    167    192    191
    167    168    193    192
    168    169    194    193
    169    170    195    194
    170    171    196    195
    171    172    197    196
    172    173    198    197
    173    174    199    198
    174    150    175    199
    175    176    201    200
    176    177    202    201
    177    178    203    202
    178    179    204    203
    179    180    205    204
    180    181    206    205
    181    182    207    206
    182    183    208    207
    183    184    209    208
    184    185    210    209
    185    186    211    210
    186    187    212    211
    187    188    213    212
    188    189    214    213
    189    190    215    214
    190    191    216    215
    191    192    217    216
    192    193    218    217
    193    194    219    218
    194    195    220    219
    195    196    221    220
    196    197    222    221
    197    198    223    222
    198    199    224    223
    199    175    200    224
    200    201    226    225
    201    202    227    226
    202    203    228    227
    203    204    229    228
    204    205    230    229
    205    206    231    230
    206    207    232    231
    207    208    233    232
    208    209    234    233
    209    210    235    234
    210    211    236    235
    211    212    237    236
    212    213    238    237
    213    214    239    238
    214    215    240    239
    215    216    241    240
    216    217    242    241
    217    218    243    242
    218    219    244    243
    219    220    245    244
    220    221    246    245
    221    222    247    246
    222    223    248    247
    223    224    249    248
    224    200    225    249
    225    226    251    250
    226    227    252    251
    227    228    253    252
    228    229    254    253
    229    230    255    254
    230    231    256    255
    231    232    257    256
    232    233    258    257
    233    234    259    258
    234    235    260    259
    235    236    261    260
    236    237    262    261
    237    238    263    262
    238    239    264    263
    239    240    265    264
    240    241    266    265
    241    242    267    266
    242    243    268    267
    243    244    269    268
    244    245    270    269
    245    246    271    270
    246    247    272    271
    247    248    273    272
    248    249    274    273
    249    225    250    274
    250    251    276    275
    251    252    277    276
    252    253    278    277
    253    254    279    278
    254    255    280    279
    255    256    281    280
    256    257    282    281
    257    258    283    282
    258    259    284    283
    259    260    285    284
    260    261    286    285
    261    262    287    286
    262    263    288    287
    263    264    289    288
    264    265    290    289
    265    266    291    290
    266    267    292    291
    267    268    293    292
    268    269    294    293
    269    270    295    294
    270    271    296    295
    271    272    297    296
    272    273    298    297
    273    274    299    298
    274    250    275    299
    275    276    301    300
    276    277    302    301
    277    278    303    302
    278    279    304    303
    279    280    305    304
    280    281    306    305
    281    282    307    306
    282    283    308    307
    283    284    309    308
    284    285    310    309
    285    286    311    310
    286    287    312    311
    287    288    313    312
    288    289    314    313
    289    290    315    314
    290    291    316    315
    291    292    317    316
    292    293    318    317
    293    294    319    318
    294    295    320    319
    295    296    321    320
    296    297    322    321
    297    298    323    322
    298    299    324    323
    299    275    300    324
    300    301    326    325
    301    302    327    326
    302    303    328    327
    303    304    329    328
    304    305    330    329
    305    306    331    330
    306    307    332    331
    307    308    333    332
    308    309    334    333
    309    310    335    334
    310    311    336    335
    311    312    337    336
    312    313    338    337
    313    314    339    338
    314    315    340    339
    315    316    341    340
    316    317    342    341
    317    318    343    342
    318    319    344    343
    319    320    345    344
    320    321    346    345
    321    322    347    346
    322    323    348    347
    323    324    349    348
    324    300    325    349
    325    326    351    350
    326    327    352    351
    327    328    353    352
    328    329    354    353
    329    330    355    354
    330    331    356    355
    331    332    357    356
    332    333    358    357
    333    334    359    358
    334    335    360    359
    335    336    361    360
    336    337    362    361
    337    338    363    362
    338    339    364    363
    339    340    365    364
    340    341    366    365
    341    342    367    366
    342    343    368    367
    343    344    369    368
    344    345    370    369
    345    346    371    370
    346    347    372    371
    347    348    373    372
    348    349    374    373
    349    325    350    374
    350    351    376    375
    351    352    377    376
    352    353    378    377
    353    354    379    378
    354    355    380    379
    355    356    381    380
    356    357    382    381
    357    358    383    382
    358    359    384    383
    359    360    385    384
    360    361    386    385
    361    362    387    386
    362    363    388    387
    363    364    389    388
    364    365    390    389
    365    366    391    390
    366    367    392    391
    367    368    393    392
    368    369    394    393
    369    370    395    394
    370    371    396    395
    371    372    397    396
    372    373    398    397
    373    374    399    398
    374    350    375    399
    375    376    401    400
    376    377    402    401
    377    378    403    402
    378    379    404    403
    379    380    405    404
    380    381    406    405
    381    382    407    406
    382    383    408    407
    383    384    409    408
    384    385    410    409
    385    386    411    410
    386    387    412    411
    387    388    413    412
    388    389    414    413
    389    390    415    414
    390    391    416    415
    391    392    417    416
    392    393    418    417
    393    394    419    418
    394    395    420    419
    395    396    421    420
    396    397    422    421
    397    398    423    422
    398    399    424    423
    399    375    400    424
    400    401    426    425
    401    402    427    426
    402    403    428    427
    403    404    429    428
    404    405    430    429
    405    406    431    430
    406    407    432    431
    407    408    433    432
    408    409    434    433
    409    410    435    434
    410    411    436    435
    411    412    437    436
    412    413    438    437
    413    414    439    438
    414    415    440    439
    415    416    441    440
    416    417    442    441
    417    418    443    442
    418    419    444    443
    419    420    445    444
    420    421    446    445
    421    422    447    446
    422    423    448    447
    423    424    449    448
    424    400    425    449
    425    426    451    450
    426    427    452    451
    427    428    453    452
    428    429    454    453
    429    430    455    454
    430    431    456    455
    431    432    457    456
    432    433    458    457
    433    434    459    458
    434    435    460    459
    435    436    461    460
    436    437    462    461
    437    438    463    462
    438    439    464    463
    439    440    465    464
    440    441    466    465
    441    442    467    466
    442    443    468    467
    443    444    469    468
    444    445    470    469
    445    446    471    470
    446    447    472    471
    447    448    473    472
    448    449    474    473
    449    425    450    474
    450    451    476    475
    451    452    477    476
    452    453    478    477
    453    454    479    478
    454    455    480    479
    455    456    481    480
    456    457    482    481
    457    458    483    482
    458    459    484    483
    459    460    485    484
    460    461    486    485
    461    462    487    486
    462    463    488    487
    463    464    489    488
    464    465    490    489
    465    466    491    490
    466    467    492    491
    467    468    493    492
    468    469    494    493
    469    470    495    494
    470    471    496    495
    471    472    497    496
    472    473    498    497
    473    474    499    498
    474    450    475    499
    475    476    501    500
    476    477    502    501
    477    478    503    502
    478    479    504    503
    479    480    505    504
    480    481    506    505
    481    482    507    506
    482    483    508    507
    483    484    509    508
    484    485    510    509
    485    486    511    510
    486    487    512    511
    487    488    513    512
    488    489    514    513
    489    490    515    514
    490    491    516    515
    491    492    517    516
    492    493    518    517
    493    494    519    518
    494    495    520    519
    495    496    521    520
    496    497    522    521
    497    498    523    522
    498    499    524    523
    499    475    500    524
    500    501    526    525
    501    502    527    526
    502    503    528    527
    503    504    529    528
    504    505    530    529
    505    506    531    530
    506    507    532    531
    507    508    533    532
    508    509    534    533
    509    510    535    534
    510    511    536    535
    511    512    537    536
    512    513    538    537
    513    514    539    538
    514    515    540    539
    515    516    541    540
    516    517    542    541
    517    518    543    542
    518    519    544    543
    519    520    545    544
    520    521    546    545
    521    522    547    546
    522    523    548    547
    523    524    549    548
    524    500    525    549
    525    526    551    550
    526    527    552    551
    527    528    553    552
    528    529    554    553
    529    530    555    554
    530    531    556    555
    531    532    557    556
    532    533    558    557
    533    534    559    558
    534    535    560    559
    535    536    561    560
    536    537    562    561
    537    538    563    562
    538    539    564    563
    539    540    565    564
    540    541    566    565
    541    542    567    566
    542    543    568    567
    543    544    569    568
    544    545    570    569
    545    546    571    570
    546    547    572    571
    547    548    573    572
    548    549    574    573
    549    525    550    574
    550    551    576    575
    551    552    577    576
    552    553    578    577
    553    554    579    578
    554    555    580    579
    555    556    581    580
    556    557    582    581
    557    558    583    582
    558    559    584    583
    559    560    585    584
    560    561    586    585
    561    562    587    586
    562    563    588    587
    563    564    589    588
    564    565    590    589
    565    566    591    590
    566    567    592    591
    567    568    593    592
    568    569    594    593
    569    570    595    594
    570    571    596    595
    571    572    597    596
    572    573    598    597
    573    574    599    598
    574    550    575    599
    575    576    601    600
    576    577    602    601
    577    578    603    602
    578    579    604    603
    579    580    605    604
    580    581    606    605
    581    582    607    606
    582    583    608    607
    583    584    609    608
    584    585    610    609
    585    586    611    610
    586    587    612    611
    587    588    613    612
    588    589    614    613
    589    590    615    614
    590    591    616    615
    591    592    617    616
    592    593    618    617
    593    594    619    618
    594    595    620    619
    595    596    621    620
    596    597    622    621
    597    598    623    622
    598    599    624    623
    599    575    600    624
        </DataArray>
        <DataArray type="Int32" Name="offsets" format="ascii">
      4
      8
     12
     16
     20
     24
     28
     32
     36
     40
     44
     48
     52
     56
     60
     64
     68
     72
     76
     80
     84
     88
     92
     96
    100
    104
    108
    112
    116
    120
    124
    128
    132
    136
    140
    144
    148
    152
    156
    160
    164
    168
    172
    176
    180
    184
    188
    192
    196
    200
    204
    208
    212
    216
    220
    224
    228
    232
    236
    240
    244
    248
    252
    256
    260
    264
    268
    272
    276
    280
    284
    288
    292
    296
    300
    304
    308
    312
    316
    320
    324
    328
    332
    336
    340
    344
    348
    352
    356
    360
    364
    368
    372
    376
    380
    384
    388
    392
    396
    400
    404
    408
    412
    416
    420
    424
    428
    432
    436
    440
    444
    448
    452
    456
    460
    464
    468
    472
    476
    480
    484
    488
    492
    496
    500
    504
    508
    512
    516
    520
    524
    528
    532
    536
    540
    544
    548
    552
    556
    560
    564
    568
    572
    576
    580
    584
    588
    592
    596
    600
    604
    608
    612
    616
    620
    624
    628
    632
    636
    640
    644
    648
    652
    656
    660
    664
    668
    672
    676
    680
    684
    688
    692
    696
    700
    704
    708
    712
    716
    720
    724
    728
    732
    736
    740
    744
    748
    752
    756
    760
    764
    768
    772
    776
    780
    784
    788
    792
    796
    800
    804
    808
    812
    816
    820
    824
    828
    832
    836
    840
    844
    848
    852
    856
    860
    864
    868
    872
    876
    880
    884
    888
    892
    896
    900
    904
    908
    912
    916
    920
    924
    928
    932
    936
    940
    944
    948
    952
    956
    960
    964
    968
    972
    976
    980
    984
    988
    992
    996
   1000
   1004
   1008
   1012
   1016
   1020
   1024
   1028
   1032
   1036
   1040
   1044
   1048
   1052
   1056
   1060
   1064
   1068
   1072
   1076
   1080
   1084
   1088
   1092
   1096
   1100
   1104
   1108
   1112
   1116
   1120
   1124
   1128
   1132
   1136
   1140
   1144
   1148
   1152
   1156
   1160
   1164
   1168
   1172
   1176
   1180
   1184
   1188
   1192
   1196
   1200
   1204
   1208
   1212
   1216
   1220
   1224
   1228
   1232
   1236
   1240
   1244
   1248
   1252
   1256
   1260
   1264
   1268
   1272
   1276
   1280
   1284
   1288
   1292
   1296
   1300
   1304
   1308
   1312
   1316
   1320
   1324
   1328
   1332
   1336
   1340
   1344
   1348
   1352
   1356
   1360
   1364
   1368
   1372
   1376
   1380
   1384
   1388
   1392
   1396
   1400
   1404
   1408
   1412
   1416
   1420
   1424
   1428
   1432
   1436
   1440
   1444
   1448
   1452
   1456
   1460
   1464
   1468
   1472
   1476
   1480
   1484
   1488
   1492
   1496
   1500
   1504
   1508
   1512
   1516
   1520
   1524
   1528
   1532
   1536
   1540
   1544
   1548
   1552
   1556
   1560
   1564
   1568
   1572
   1576
   1580
   1584
   1588
   1592
   1596
   1600
   1604
   1608
   1612
   1616
   1620
   1624
   1628
   1632
   1636
   1640
   1644
   1648
   1652
   1656
   1660
   1664
   1668
   1672
   1676
   1680
   1684
   1688
   1692
   1696
   1700
   1704
   1708
   1712
   1716
   1720
   1724
   1728
   1732
   1736
   1740
   1744
   1748
   1752
   1756
   1760
   1764
   1768
   1772
   1776
   1780
   1784
   1788
   1792
   1796
   1800
   1804
   1808
   1812
   1816
   1820
   1824
   1828
   1832
   1836
   1840
   1844
   1848
   1852
   1856
   1860
   1864
   1868
   1872
   1876
   1880
   1884
   1888
   1892
   1896
   1900
   1904
   1908
   1912
   1916
   1920
   1924
   1928
   1932
   1936
   1940
   1944
   1948
   1952
   1956
   1960
   1964
   1968
   1972
   1976
   1980
   1984
   1988
   1992
   1996
   2000
   2004
   2008
   2012
   2016
   2020
   2024
   2028
   2032
   2036
   2040
   2044
   2048
   2052
   2056
   2060
   2064
   2068
   2072
   2076
   2080
   2084
   2088
   2092
   2096
   2100
   2104
   2108
   2112
   2116
   2120
   2124
   2128
   2132
   2136
   2140
   2144
   2148
   2152
   2156
   2160
   2164
   2168
   2172
   2176
   2180
   2184
   2188
   2192
   2196
   2200
   2204
   2208
   2212
   2216
   2220
   2224
   2228
   2232
   2236
   2240
   2244
   2248
   2252
   2256
   2260
   2264
   2268
   2272
   2276
   2280
   2284
   2288
   2292
   2296
   2300
   2304
   2308
   2312
   2316
   2320
   2324
   2328
   2332
   2336
   2340
   2344
   2348
   2352
   2356
   2360
   2364
   2368
   2372
   2376
   2380
   2384
   2388
   2392
   2396
   2400
        </DataArray>
      </Polys>
    </Piece>
  </PolyData>
</VTKFile>
