<?xml version="1.0"?>
<VTKFile type="PolyData" version="0.1" byte_order="LittleEndian">
  <PolyData>
    <Piece NumberOfPoints="     19" NumberOfVerts="  0" NumberOfLines="     18"
           NumberOfStrips="  0" NumberOfPolys="      0">
      <Points>
        <DataArray type="Float32" NumberOfComponents="3" format="ascii">
                      -5.19470                      -0.19327                      88.52530
                      -5.37140                      -0.36591                      87.18066
                      -5.73933                      -0.61653                      84.48062
                      -6.10310                      -0.82183                      81.77346
                      -6.53577                      -1.05073                      78.38196
                      -6.95001                      -1.46553                      74.31756
                      -7.27339                      -2.00675                      70.26041
                      -7.52530                      -2.54751                      66.19771
                      -7.69919                      -3.08919                      62.13059
                      -7.79486                      -3.62956                      58.06021
                      -7.81626                      -4.16480                      53.98754
                      -7.76892                      -4.69635                      49.91410
                      -7.66379                      -5.22449                      45.84104
                      -7.51613                      -5.74978                      41.76917
                      -7.34323                      -6.27287                      37.69887
                      -7.19708                      -6.70805                      34.30793
                      -7.08979                      -7.06423                      31.59654
                      -6.99406                      -7.47529                      28.89176
                      -6.96340                      -7.64056                      27.53395
        </DataArray>
      </Points>
      <PointData>
        <DataArray type="Float32" Name="TranslationalVelocity" NumberOfComponents="3" format="ascii">
                      -0.05292                       4.66859                      -0.60486
                      -0.10050                       8.92417                      -1.14499
                      -0.17217                      17.46842                      -1.92840
                      -0.23508                      26.02718                      -2.56939
                      -0.31209                      36.73244                      -3.28312
                      -0.45235                      49.51701                      -4.57558
                      -0.63908                      62.23617                      -6.25960
                      -0.83908                      74.93555                      -7.93947
                      -1.05427                      87.61111                      -9.62018
                      -1.28581                     100.26092                     -11.29557
                      -1.53477                     112.88490                     -12.95466
                      -1.80415                     125.48179                     -14.60274
                      -2.09723                     138.05266                     -16.24120
                      -2.41814                     150.60043                     -17.87208
                      -2.77193                     163.12916                     -19.49737
                      -3.09717                     173.56026                     -20.85007
                      -3.38138                     181.89940                     -21.95695
                      -3.70154                     190.21695                     -23.23322
                      -3.86064                     194.39510                     -23.74619
        </DataArray>
        <DataArray type="Float32" Name="RotationalVelocity" NumberOfComponents="3" format="ascii">
                       3.12964                       0.00000                      -0.27381
                       3.12891                       0.00032                      -0.27381
                       3.12691                       0.00132                      -0.27384
                       3.12436                       0.00270                      -0.27403
                       3.12075                       0.00474                      -0.27462
                       3.11620                       0.00747                      -0.27596
                       3.11178                       0.01041                      -0.27789
                       3.10773                       0.01356                      -0.28019
                       3.10416                       0.01702                      -0.28251
                       3.10110                       0.02098                      -0.28445
                       3.09846                       0.02565                      -0.28557
                       3.09615                       0.03124                      -0.28549
                       3.09403                       0.03796                      -0.28391
                       3.09197                       0.04593                      -0.28063
                       3.08988                       0.05521                      -0.27568
                       3.08808                       0.06386                      -0.27045
                       3.08661                       0.07134                      -0.26570
                       3.08516                       0.07919                      -0.26069
                       3.08446                       0.08321                      -0.25817
        </DataArray>
        <DataArray type="Float32" Name="TranslationalAcceleration" NumberOfComponents="3" format="ascii">
                       1.27830                       1.90749                      14.61099
                       1.54351                       2.27312                      17.66968
                       4.42328                       5.56990                      50.65467
                       7.06181                       8.08153                      81.01420
                      10.11432                      10.63546                     116.44984
                      13.52703                      14.80190                     156.47334
                      16.81645                      20.08244                     195.17073
                      20.11847                      25.35114                     233.62186
                      23.52373                      30.68282                     272.30990
                      27.09150                      36.07269                     311.39388
                      30.84869                      41.46859                     350.79964
                      34.78874                      46.85022                     390.30516
                      38.87198                      52.17864                     429.64710
                      43.02541                      57.42368                     468.61432
                      47.14230                      62.57505                     507.14158
                      50.44031                      66.81380                     539.02933
                      52.92332                      70.27088                     564.56651
                      55.22260                      74.28114                     590.32280
                      56.27188                      75.91454                     603.46004
        </DataArray>
        <DataArray type="Float32" Name="OrientationX" NumberOfComponents="3" format="ascii">
                       0.99148                      -0.00563                      -0.13016
                       0.99165                      -0.00543                      -0.12884
                       0.99219                      -0.00471                      -0.12462
                       0.99295                      -0.00356                      -0.11847
                       0.99409                      -0.00157                      -0.10857
                       0.99557                       0.00171                      -0.09404
                       0.99698                       0.00615                      -0.07742
                       0.99815                       0.01201                      -0.05957
                       0.99896                       0.01961                      -0.04127
                       0.99930                       0.02928                      -0.02335
                       0.99913                       0.04124                      -0.00667
                       0.99842                       0.05563                       0.00789
                       0.99719                       0.07240                       0.01936
                       0.99547                       0.09130                       0.02668
                       0.99332                       0.11178                       0.02868
                       0.99125                       0.12947                       0.02554
                       0.98946                       0.14356                       0.01911
                       0.98754                       0.15712                       0.00872
                       0.98654                       0.16353                       0.00191
        </DataArray>
        <DataArray type="Float32" Name="OrientationY" NumberOfComponents="3" format="ascii">
                       0.01124                      -0.99165                       0.12848
                       0.01124                      -0.99166                       0.12836
                       0.01138                      -0.99170                       0.12806
                       0.01168                      -0.99175                       0.12769
                       0.01232                      -0.99181                       0.12713
                       0.01364                      -0.99189                       0.12636
                       0.01586                      -0.99196                       0.12553
                       0.01937                      -0.99201                       0.12470
                       0.02460                      -0.99199                       0.12392
                       0.03194                      -0.99186                       0.12327
                       0.04175                      -0.99155                       0.12283
                       0.05425                      -0.99097                       0.12265
                       0.06950                      -0.99000                       0.12276
                       0.08736                      -0.98854                       0.12313
                       0.10744                      -0.98649                       0.12366
                       0.12537                      -0.98432                       0.12407
                       0.14013                      -0.98230                       0.12427
                       0.15484                      -0.98010                       0.12424
                       0.16203                      -0.97895                       0.12411
        </DataArray>
        <DataArray type="Float32" Name="OrientationZ" NumberOfComponents="3" format="ascii">
                      -0.12980                      -0.12885                      -0.98313
                      -0.12846                      -0.12874                      -0.98332
                      -0.12419                      -0.12848                      -0.98391
                      -0.11795                      -0.12817                      -0.98471
                      -0.10788                      -0.12771                      -0.98593
                      -0.09306                      -0.12708                      -0.98752
                      -0.07603                      -0.12638                      -0.98906
                      -0.05759                      -0.12562                      -0.99041
                      -0.03851                      -0.12481                      -0.99143
                      -0.01956                      -0.12393                      -0.99210
                      -0.00155                      -0.12300                      -0.99241
                       0.01464                      -0.12203                      -0.99242
                       0.02805                      -0.12107                      -0.99225
                       0.03761                      -0.12025                      -0.99203
                       0.04212                      -0.11975                      -0.99191
                       0.04121                      -0.11979                      -0.99194
                       0.03661                      -0.12028                      -0.99206
                       0.02807                      -0.12135                      -0.99221
                       0.02216                      -0.12213                      -0.99227
        </DataArray>
        <DataArray type="Float32" Name="Force" NumberOfComponents="3" format="ascii">
                       0.30790                     -27.16397                       3.51936
                     365.75995                    -203.78199                     -21.07842
                     521.66732                    -541.69161                       5.11261
                     509.62970                    -766.94753                      39.36339
                    6139.91030                     893.80152                    -788.76136
                    8592.69272                    1053.55040                    -947.31298
                   10680.52139                    1068.07204                    -960.19410
                   14154.90963                    1194.83833                    -978.42731
                   15157.34129                    1057.37571                    -725.68893
                   16743.20978                    1123.64082                    -474.98359
                   19522.29810                    1232.04388                    -188.60221
                   20296.30911                    1340.44887                     128.05116
                   19803.44323                    1571.78804                     359.20728
                   18647.02474                    1566.12978                     507.49371
                   15432.60932                    1352.89050                     483.18885
                   11311.69403                     933.59235                     351.22825
                    7024.96672                     471.53804                     199.45113
                    2102.14505                      -0.40192                      59.80390
                  -18957.87274                    -586.92141                    -349.87030
        </DataArray>
        <DataArray type="Float32" Name="Moment" NumberOfComponents="3" format="ascii">
                       0.00000                       0.00000                       0.00000
                       0.00000                       0.00000                       0.00000
                       0.00000                       0.00000                       0.00000
                       0.00000                       0.00000                       0.00000
                     177.74453                     212.46785                    1624.36910
                     374.63976                     519.35077                    3975.79954
                     423.39930                     718.52484                    5508.84619
                     467.53920                    1047.33387                    8042.87632
                     436.31544                    1461.56760                   11242.84502
                     248.95928                    1643.55526                   12663.89684
                      20.17255                    1762.17965                   13599.50800
                    -213.00847                    1855.41592                   14339.54703
                    -328.09893                    1493.25952                   11554.33467
                    -424.74957                    1441.03333                   11159.68600
                    -443.26809                    1342.30039                   10399.24216
                    -401.81977                    1243.75997                    9635.03781
                    -311.14116                    1084.20629                    8395.59942
                    -117.05445                     532.21577                    4118.11492
                     -83.30472                     479.63230                    3709.30002
        </DataArray>
      </PointData>
      <Lines>
        <DataArray type="Int32" Name="connectivity" format="ascii">
      0      1
      1      2
      2      3
      3      4
      4      5
      5      6
      6      7
      7      8
      8      9
      9     10
     10     11
     11     12
     12     13
     13     14
     14     15
     15     16
     16     17
     17     18
        </DataArray>
        <DataArray type="Int32" Name="offsets" format="ascii">
      2
      4
      6
      8
     10
     12
     14
     16
     18
     20
     22
     24
     26
     28
     30
     32
     34
     36
        </DataArray>
      </Lines>
    </Piece>
  </PolyData>
</VTKFile>
