<?xml version="1.0"?>
<VTKFile type="PolyData" version="0.1" byte_order="LittleEndian">
  <PolyData>
    <Piece NumberOfPoints="    625" NumberOfVerts="  0" NumberOfLines="      0"
           NumberOfStrips="  0" NumberOfPolys="    600">
      <Points>
        <DataArray type="Float32" NumberOfComponents="3" format="ascii">
                      -5.00349                       1.49947                      89.96011
                      -5.00349                       1.49947                      89.96011
                      -5.00349                       1.49947                      89.96011
                      -5.00349                       1.49947                      89.96011
                      -5.00349                       1.49947                      89.96011
                      -5.00349                       1.49947                      89.96011
                      -5.00349                       1.49947                      89.96011
                      -5.00349                       1.49947                      89.96011
                      -5.00349                       1.49947                      89.96011
                      -5.00349                       1.49947                      89.96011
                      -5.00349                       1.49947                      89.96011
                      -5.00349                       1.49947                      89.96011
                      -5.00349                       1.49947                      89.96011
                      -5.00349                       1.49947                      89.96011
                      -5.00349                       1.49947                      89.96011
                      -5.00349                       1.49947                      89.96011
                      -5.00349                       1.49947                      89.96011
                      -5.00349                       1.49947                      89.96011
                      -5.00349                       1.49947                      89.96011
                      -5.00349                       1.49947                      89.96011
                      -5.00349                       1.49947                      89.96011
                      -5.00349                       1.49947                      89.96011
                      -5.00349                       1.49947                      89.96011
                      -5.00349                       1.49947                      89.96011
                      -5.00349                       1.49947                      89.96011
                      -4.40600                       1.37451                      89.91118
                      -4.41178                       1.37849                      90.06129
                      -4.45471                       1.38222                      90.20524
                      -4.53211                       1.38547                      90.33401
                      -4.63911                       1.38802                      90.43949
                      -4.76898                       1.38973                      90.51505
                      -4.91358                       1.39048                      90.55596
                      -5.06380                       1.39023                      90.55963
                      -5.21022                       1.38899                      90.52584
                      -5.34363                       1.38684                      90.45672
                      -5.45564                       1.38392                      90.35660
                      -5.53923                       1.38040                      90.23177
                      -5.58914                       1.37652                      90.09009
                      -5.60224                       1.37250                      89.94044
                      -5.57769                       1.36862                      89.79224
                      -5.51704                       1.36510                      89.65480
                      -5.42411                       1.36218                      89.53675
                      -5.30473                       1.36003                      89.44551
                      -5.16641                       1.35879                      89.38681
                      -5.01783                       1.35854                      89.36434
                      -4.86833                       1.35929                      89.37952
                      -4.72730                       1.36100                      89.43138
                      -4.60362                       1.36355                      89.51668
                      -4.50503                       1.36680                      89.63005
                      -4.43775                       1.37053                      89.76436
                      -4.17691                       1.24955                      89.89449
                      -4.18489                       1.25506                      90.10210
                      -4.24428                       1.26022                      90.30122
                      -4.35133                       1.26471                      90.47931
                      -4.49932                       1.26825                      90.62520
                      -4.67896                       1.27061                      90.72972
                      -4.87895                       1.27165                      90.78629
                      -5.08673                       1.27130                      90.79138
                      -5.28924                       1.26959                      90.74465
                      -5.47376                       1.26661                      90.64904
                      -5.62870                       1.26257                      90.51056
                      -5.74431                       1.25770                      90.33791
                      -5.81334                       1.25233                      90.14194
                      -5.83145                       1.24678                      89.93496
                      -5.79750                       1.24140                      89.72998
                      -5.71362                       1.23654                      89.53988
                      -5.58508                       1.23250                      89.37660
                      -5.41997                       1.22952                      89.25040
                      -5.22865                       1.22781                      89.16922
                      -5.02314                       1.22746                      89.13814
                      -4.81637                       1.22850                      89.15913
                      -4.62131                       1.23086                      89.23087
                      -4.45023                       1.23440                      89.34884
                      -4.31388                       1.23889                      89.50564
                      -4.22082                       1.24405                      89.69141
                      -4.01424                       1.12460                      89.88361
                      -4.02379                       1.13119                      90.13204
                      -4.09485                       1.13736                      90.37029
                      -4.22295                       1.14273                      90.58340
                      -4.40003                       1.14697                      90.75797
                      -4.61498                       1.14979                      90.88303
                      -4.85429                       1.15104                      90.95073
                      -5.10291                       1.15062                      90.95681
                      -5.34524                       1.14857                      90.90089
                      -5.56603                       1.14501                      90.78649
                      -5.75143                       1.14017                      90.62079
                      -5.88977                       1.13435                      90.41420
                      -5.97237                       1.12792                      90.17970
                      -5.99404                       1.12128                      89.93204
                      -5.95341                       1.11485                      89.68676
                      -5.85304                       1.10903                      89.45929
                      -5.69924                       1.10419                      89.26391
                      -5.50167                       1.10063                      89.11290
                      -5.27273                       1.09858                      89.01575
                      -5.02683                       1.09816                      88.97857
                      -4.77940                       1.09940                      89.00369
                      -4.54600                       1.10223                      89.08953
                      -4.34129                       1.10646                      89.23069
                      -4.17814                       1.11184                      89.41832
                      -4.06679                       1.11801                      89.64061
                      -3.88855                       0.99964                      89.87596
                      -3.89932                       1.00707                      90.15591
                      -3.97939                       1.01402                      90.42439
                      -4.12374                       1.02008                      90.66453
                      -4.32329                       1.02485                      90.86125
                      -4.56551                       1.02803                      91.00218
                      -4.83518                       1.02944                      91.07847
                      -5.11535                       1.02897                      91.08532
                      -5.38841                       1.02665                      91.02231
                      -5.63722                       1.02264                      90.89339
                      -5.84614                       1.01719                      90.70667
                      -6.00204                       1.01063                      90.47387
                      -6.09512                       1.00338                      90.20962
                      -6.11953                       0.99590                      89.93054
                      -6.07375                       0.98865                      89.65414
                      -5.96065                       0.98210                      89.39781
                      -5.78733                       0.97664                      89.17764
                      -5.56469                       0.97263                      89.00748
                      -5.30671                       0.97032                      88.89800
                      -5.02961                       0.96985                      88.85610
                      -4.75079                       0.97125                      88.88440
                      -4.48778                       0.97444                      88.98113
                      -4.25710                       0.97921                      89.14021
                      -4.07324                       0.98526                      89.35164
                      -3.94776                       0.99222                      89.60214
                      -3.78832                       0.87469                      89.87054
                      -3.80006                       0.88278                      90.17561
                      -3.88731                       0.89036                      90.46818
                      -4.04461                       0.89696                      90.72987
                      -4.26207                       0.90215                      90.94424
                      -4.52603                       0.90563                      91.09781
                      -4.81989                       0.90715                      91.18095
                      -5.12520                       0.90664                      91.18842
                      -5.42277                       0.90412                      91.11975
                      -5.69390                       0.89975                      90.97926
                      -5.92156                       0.89381                      90.77578
                      -6.09144                       0.88666                      90.52210
                      -6.19288                       0.87877                      90.23414
                      -6.21948                       0.87061                      89.93001
                      -6.16959                       0.86271                      89.62882
                      -6.04634                       0.85557                      89.34949
                      -5.85748                       0.84962                      89.10957
                      -5.61486                       0.84525                      88.92413
                      -5.33373                       0.84273                      88.80484
                      -5.03177                       0.84222                      88.75918
                      -4.72793                       0.84375                      88.79002
                      -4.44132                       0.84722                      88.89543
                      -4.18994                       0.85242                      89.06878
                      -3.98959                       0.85902                      89.29918
                      -3.85285                       0.86660                      89.57215
                      -3.70765                       0.74973                      89.86684
                      -3.72016                       0.75836                      90.19211
                      -3.81320                       0.76644                      90.50405
                      -3.98092                       0.77348                      90.78307
                      -4.21278                       0.77902                      91.01164
                      -4.49421                       0.78272                      91.17539
                      -4.80753                       0.78435                      91.26403
                      -5.13306                       0.78380                      91.27199
                      -5.45034                       0.78112                      91.19877
                      -5.73943                       0.77646                      91.04898
                      -5.98217                       0.77012                      90.83203
                      -6.16330                       0.76250                      90.56154
                      -6.27145                       0.75408                      90.25452
                      -6.29982                       0.74539                      89.93025
                      -6.24663                       0.73696                      89.60910
                      -6.11522                       0.72935                      89.31127
                      -5.91384                       0.72301                      89.05546
                      -5.65515                       0.71835                      88.85775
                      -5.35541                       0.71566                      88.73055
                      -5.03344                       0.71512                      88.68186
                      -4.70949                       0.71675                      88.71475
                      -4.40390                       0.72045                      88.82714
                      -4.13587                       0.72599                      89.01197
                      -3.92225                       0.73302                      89.25763
                      -3.77645                       0.74111                      89.54868
                      -3.64306                       0.62478                      89.86453
                      -3.65619                       0.63383                      90.20597
                      -3.75385                       0.64232                      90.53342
                      -3.92990                       0.64970                      90.82630
                      -4.17328                       0.65552                      91.06623
                      -4.46870                       0.65940                      91.23811
                      -4.79759                       0.66111                      91.33115
                      -5.13930                       0.66054                      91.33951
                      -5.47234                       0.65772                      91.26266
                      -5.77579                       0.65283                      91.10543
                      -6.03059                       0.64618                      90.87769
                      -6.22073                       0.63818                      90.59376
                      -6.33425                       0.62934                      90.27148
                      -6.36403                       0.62021                      89.93109
                      -6.30820                       0.61137                      89.59400
                      -6.17025                       0.60338                      89.28136
                      -5.95887                       0.59672                      89.01284
                      -5.68733                       0.59183                      88.80530
                      -5.37269                       0.58901                      88.67179
                      -5.03473                       0.58844                      88.62068
                      -4.69467                       0.59015                      88.65520
                      -4.37390                       0.59404                      88.77317
                      -4.09255                       0.59985                      88.96719
                      -3.86831                       0.60724                      89.22505
                      -3.71528                       0.61572                      89.53057
                      -3.59233                       0.49982                      89.86345
                      -3.60595                       0.50921                      90.21756
                      -3.70724                       0.51801                      90.55716
                      -3.88982                       0.52567                      90.86092
                      -4.14224                       0.53170                      91.10975
                      -4.44863                       0.53573                      91.28802
                      -4.78973                       0.53751                      91.38452
                      -5.14412                       0.53691                      91.39318
                      -5.48953                       0.53399                      91.31348
                      -5.80425                       0.52892                      91.15041
                      -6.06851                       0.52202                      90.91422
                      -6.26571                       0.51372                      90.61975
                      -6.38344                       0.50455                      90.28550
                      -6.41433                       0.49509                      89.93248
                      -6.35642                       0.48592                      89.58286
                      -6.21336                       0.47763                      89.25863
                      -5.99412                       0.47073                      88.98013
                      -5.71250                       0.46566                      88.76489
                      -5.38618                       0.46273                      88.62642
                      -5.03567                       0.46214                      88.57341
                      -4.68299                       0.46391                      88.60921
                      -4.35031                       0.46794                      88.73157
                      -4.05852                       0.47397                      88.93279
                      -3.82595                       0.48163                      89.20023
                      -3.66724                       0.49043                      89.51708
                      -3.55403                       0.37487                      89.86345
                      -3.56802                       0.38451                      90.22711
                      -3.67204                       0.39355                      90.57588
                      -3.85955                       0.40141                      90.88783
                      -4.11878                       0.40761                      91.14338
                      -4.43343                       0.41175                      91.32645
                      -4.78374                       0.41357                      91.42555
                      -5.14769                       0.41296                      91.43446
                      -5.50241                       0.40995                      91.35260
                      -5.82563                       0.40475                      91.18513
                      -6.09702                       0.39766                      90.94257
                      -6.29953                       0.38914                      90.64015
                      -6.42045                       0.37973                      90.29689
                      -6.45217                       0.37001                      89.93434
                      -6.39269                       0.36059                      89.57529
                      -6.24577                       0.35207                      89.24231
                      -6.02062                       0.34499                      88.95630
                      -5.73140                       0.33978                      88.73525
                      -5.39628                       0.33677                      88.59304
                      -5.03631                       0.33616                      88.53861
                      -4.67412                       0.33799                      88.57537
                      -4.33246                       0.34212                      88.70103
                      -4.03279                       0.34832                      88.90768
                      -3.79396                       0.35618                      89.18233
                      -3.63096                       0.36522                      89.50774
                      -3.52719                       0.24991                      89.86445
                      -3.54143                       0.25973                      90.23479
                      -3.64736                       0.26894                      90.58995
                      -3.83832                       0.27694                      90.90763
                      -4.10230                       0.28325                      91.16787
                      -4.42273                       0.28747                      91.35430
                      -4.77946                       0.28932                      91.45522
                      -5.15009                       0.28870                      91.46429
                      -5.51133                       0.28564                      91.38093
                      -5.84047                       0.28034                      91.21038
                      -6.11684                       0.27312                      90.96337
                      -6.32307                       0.26445                      90.65541
                      -6.44621                       0.25486                      90.30584
                      -6.47851                       0.24496                      89.93664
                      -6.41794                       0.23537                      89.57101
                      -6.26832                       0.22670                      89.23191
                      -6.03905                       0.21948                      88.94066
                      -5.74452                       0.21418                      88.71555
                      -5.40325                       0.21112                      88.57073
                      -5.03667                       0.21050                      88.51530
                      -4.66783                       0.21235                      88.55274
                      -4.31990                       0.21657                      88.68070
                      -4.01474                       0.22288                      88.89114
                      -3.77152                       0.23089                      89.17083
                      -3.60553                       0.24009                      89.50221
                      -3.51120                       0.12496                      89.86640
                      -3.52559                       0.13488                      90.24068
                      -3.63265                       0.14418                      90.59964
                      -3.82564                       0.15228                      90.92070
                      -4.09244                       0.15865                      91.18371
                      -4.41628                       0.16291                      91.37213
                      -4.77682                       0.16479                      91.47412
                      -5.15139                       0.16416                      91.48329
                      -5.51648                       0.16107                      91.39904
                      -5.84913                       0.15571                      91.22668
                      -6.12845                       0.14841                      90.97703
                      -6.33688                       0.13965                      90.66579
                      -6.46132                       0.12996                      90.31250
                      -6.49397                       0.11995                      89.93936
                      -6.43276                       0.11026                      89.56983
                      -6.28154                       0.10150                      89.22712
                      -6.04982                       0.09420                      88.93276
                      -5.75216                       0.08884                      88.70526
                      -5.40725                       0.08575                      88.55889
                      -5.03677                       0.08512                      88.50287
                      -4.66399                       0.08700                      88.54071
                      -4.31235                       0.09126                      88.67004
                      -4.00394                       0.09763                      88.88272
                      -3.75813                       0.10573                      89.16539
                      -3.59037                       0.11503                      89.50030
                      -3.50571                       0.00000                      89.86927
                      -3.52015                       0.00996                      90.24486
                      -3.62758                       0.01929                      90.60506
                      -3.82125                       0.02742                      90.92725
                      -4.08898                       0.03382                      91.19118
                      -4.41395                       0.03809                      91.38025
                      -4.77574                       0.03997                      91.48261
                      -5.15163                       0.03934                      91.49180
                      -5.51799                       0.03624                      91.40726
                      -5.85180                       0.03086                      91.23430
                      -6.13209                       0.02354                      90.98378
                      -6.34125                       0.01474                      90.67145
                      -6.46613                       0.00502                      90.31692
                      -6.49889                      -0.00502                      89.94249
                      -6.43747                      -0.01474                      89.57167
                      -6.28572                      -0.02354                      89.22776
                      -6.05319                      -0.03086                      88.93237
                      -5.75449                      -0.03624                      88.70407
                      -5.40838                      -0.03934                      88.55720
                      -5.03660                      -0.03997                      88.50098
                      -4.66253                      -0.03809                      88.53895
                      -4.30966                      -0.03382                      88.66873
                      -4.00017                      -0.02742                      88.88215
                      -3.75350                      -0.01929                      89.16582
                      -3.58516                      -0.00996                      89.50189
                      -3.51062                      -0.12496                      89.87305
                      -3.52501                      -0.11503                      90.24733
                      -3.63207                      -0.10573                      90.60628
                      -3.82506                      -0.09763                      90.92735
                      -4.09185                      -0.09126                      91.19036
                      -4.41570                      -0.08700                      91.37878
                      -4.77623                      -0.08512                      91.48077
                      -5.15081                      -0.08575                      91.48994
                      -5.51590                      -0.08884                      91.40569
                      -5.84855                      -0.09420                      91.23333
                      -6.12786                      -0.10150                      90.98368
                      -6.33629                      -0.11026                      90.67244
                      -6.46074                      -0.11995                      90.31915
                      -6.49338                      -0.12996                      89.94601
                      -6.43218                      -0.13965                      89.57648
                      -6.28096                      -0.14841                      89.23377
                      -6.04924                      -0.15571                      88.93941
                      -5.75157                      -0.16107                      88.71191
                      -5.40666                      -0.16416                      88.56554
                      -5.03618                      -0.16479                      88.50952
                      -4.66341                      -0.16291                      88.54736
                      -4.31177                      -0.15865                      88.67669
                      -4.00336                      -0.15228                      88.88937
                      -3.75755                      -0.14418                      89.17204
                      -3.58979                      -0.13488                      89.50695
                      -3.52603                      -0.24991                      89.87775
                      -3.54027                      -0.24009                      90.24808
                      -3.64620                      -0.23089                      90.60325
                      -3.83715                      -0.22288                      90.92093
                      -4.10114                      -0.21657                      91.18116
                      -4.42156                      -0.21235                      91.36760
                      -4.77830                      -0.21050                      91.46852
                      -5.14893                      -0.21112                      91.47759
                      -5.51016                      -0.21418                      91.39423
                      -5.83931                      -0.21948                      91.22368
                      -6.11568                      -0.22670                      90.97667
                      -6.32191                      -0.23537                      90.66870
                      -6.44504                      -0.24496                      90.31914
                      -6.47734                      -0.25486                      89.94994
                      -6.41678                      -0.26445                      89.58431
                      -6.26716                      -0.27312                      89.24521
                      -6.03788                      -0.28034                      88.95396
                      -5.74335                      -0.28564                      88.72885
                      -5.40208                      -0.28870                      88.58403
                      -5.03551                      -0.28932                      88.52860
                      -4.66667                      -0.28747                      88.56604
                      -4.31874                      -0.28325                      88.69400
                      -4.01357                      -0.27694                      88.90444
                      -3.77035                      -0.26894                      89.18413
                      -3.60436                      -0.25973                      89.51551
                      -3.55229                      -0.37487                      89.88340
                      -3.56627                      -0.36522                      90.24706
                      -3.67029                      -0.35618                      90.59583
                      -3.85781                      -0.34832                      90.90778
                      -4.11703                      -0.34212                      91.16333
                      -4.43169                      -0.33799                      91.34640
                      -4.78199                      -0.33616                      91.44550
                      -5.14594                      -0.33677                      91.45440
                      -5.50067                      -0.33978                      91.37255
                      -5.82388                      -0.34499                      91.20508
                      -6.09527                      -0.35207                      90.96251
                      -6.29779                      -0.36059                      90.66010
                      -6.41870                      -0.37001                      90.31683
                      -6.45042                      -0.37973                      89.95429
                      -6.39095                      -0.38914                      89.59524
                      -6.24402                      -0.39766                      89.26226
                      -6.01888                      -0.40475                      88.97625
                      -5.72966                      -0.40995                      88.75520
                      -5.39454                      -0.41296                      88.61299
                      -5.03457                      -0.41357                      88.55856
                      -4.67237                      -0.41175                      88.59532
                      -4.33071                      -0.40761                      88.72098
                      -4.03105                      -0.40141                      88.92762
                      -3.79221                      -0.39355                      89.20228
                      -3.62921                      -0.38451                      89.52769
                      -3.59001                      -0.49982                      89.89005
                      -3.60362                      -0.49043                      90.24416
                      -3.70491                      -0.48163                      90.58376
                      -3.88750                      -0.47397                      90.88752
                      -4.13992                      -0.46794                      91.13635
                      -4.44630                      -0.46391                      91.31462
                      -4.78741                      -0.46214                      91.41111
                      -5.14180                      -0.46273                      91.41978
                      -5.48720                      -0.46566                      91.34008
                      -5.80192                      -0.47073                      91.17701
                      -6.06618                      -0.47763                      90.94081
                      -6.26338                      -0.48592                      90.64634
                      -6.38112                      -0.49509                      90.31210
                      -6.41200                      -0.50455                      89.95908
                      -6.35409                      -0.51372                      89.60946
                      -6.21103                      -0.52202                      89.28522
                      -5.99180                      -0.52892                      89.00673
                      -5.71018                      -0.53399                      88.79149
                      -5.38386                      -0.53691                      88.65301
                      -5.03335                      -0.53751                      88.60001
                      -4.68067                      -0.53573                      88.63581
                      -4.34798                      -0.53170                      88.75817
                      -4.05619                      -0.52567                      88.95938
                      -3.82363                      -0.51801                      89.22682
                      -3.66491                      -0.50921                      89.54368
                      -3.64015                      -0.62478                      89.89778
                      -3.65328                      -0.61572                      90.23922
                      -3.75094                      -0.60724                      90.56666
                      -3.92699                      -0.59985                      90.85955
                      -4.17037                      -0.59404                      91.09947
                      -4.46579                      -0.59015                      91.27136
                      -4.79468                      -0.58844                      91.36440
                      -5.13639                      -0.58901                      91.37276
                      -5.46943                      -0.59183                      91.29591
                      -5.77288                      -0.59672                      91.13867
                      -6.02769                      -0.60338                      90.91094
                      -6.21782                      -0.61137                      90.62701
                      -6.33135                      -0.62021                      90.30473
                      -6.36113                      -0.62934                      89.96434
                      -6.30529                      -0.63818                      89.62724
                      -6.16735                      -0.64618                      89.31461
                      -5.95596                      -0.65283                      89.04609
                      -5.68442                      -0.65772                      88.83855
                      -5.36978                      -0.66054                      88.70503
                      -5.03182                      -0.66111                      88.65393
                      -4.69177                      -0.65940                      88.68845
                      -4.37099                      -0.65552                      88.80642
                      -4.08964                      -0.64970                      89.00044
                      -3.86540                      -0.64232                      89.25830
                      -3.71237                      -0.63383                      89.56382
                      -3.70416                      -0.74973                      89.90673
                      -3.71667                      -0.74111                      90.23200
                      -3.80971                      -0.73302                      90.54395
                      -3.97743                      -0.72599                      90.82297
                      -4.20929                      -0.72045                      91.05154
                      -4.49072                      -0.71675                      91.21528
                      -4.80404                      -0.71512                      91.30392
                      -5.12957                      -0.71566                      91.31189
                      -5.44685                      -0.71835                      91.23867
                      -5.73594                      -0.72301                      91.08888
                      -5.97868                      -0.72935                      90.87193
                      -6.15981                      -0.73696                      90.60144
                      -6.26796                      -0.74539                      90.29441
                      -6.29633                      -0.75408                      89.97014
                      -6.24314                      -0.76250                      89.64900
                      -6.11172                      -0.77012                      89.35117
                      -5.91035                      -0.77646                      89.09536
                      -5.65166                      -0.78112                      88.89764
                      -5.35192                      -0.78380                      88.77045
                      -5.02995                      -0.78435                      88.72176
                      -4.70600                      -0.78272                      88.75465
                      -4.40040                      -0.77902                      88.86704
                      -4.13238                      -0.77348                      89.05187
                      -3.91876                      -0.76644                      89.29753
                      -3.77296                      -0.75836                      89.58858
                      -3.78425                      -0.87469                      89.91709
                      -3.79598                      -0.86660                      90.22216
                      -3.88324                      -0.85902                      90.51473
                      -4.04054                      -0.85242                      90.77642
                      -4.25800                      -0.84722                      90.99079
                      -4.52195                      -0.84375                      91.14436
                      -4.81582                      -0.84222                      91.22750
                      -5.12112                      -0.84273                      91.23496
                      -5.41869                      -0.84525                      91.16630
                      -5.68983                      -0.84962                      91.02581
                      -5.91749                      -0.85557                      90.82233
                      -6.08737                      -0.86271                      90.56865
                      -6.18880                      -0.87061                      90.28069
                      -6.21541                      -0.87877                      89.97656
                      -6.16552                      -0.88666                      89.67537
                      -6.04227                      -0.89381                      89.39604
                      -5.85340                      -0.89975                      89.15611
                      -5.61078                      -0.90412                      88.97068
                      -5.32966                      -0.90664                      88.85138
                      -5.02769                      -0.90715                      88.80572
                      -4.72386                      -0.90563                      88.83657
                      -4.43725                      -0.90215                      88.94197
                      -4.18587                      -0.89696                      89.11532
                      -3.98552                      -0.89036                      89.34572
                      -3.84878                      -0.88278                      89.61870
                      -3.88389                      -0.99964                      89.92916
                      -3.89466                      -0.99222                      90.20911
                      -3.97473                      -0.98526                      90.47759
                      -4.11908                      -0.97921                      90.71773
                      -4.31864                      -0.97444                      90.91445
                      -4.56086                      -0.97125                      91.05538
                      -4.83052                      -0.96985                      91.13167
                      -5.11069                      -0.97032                      91.13852
                      -5.38376                      -0.97263                      91.07551
                      -5.63257                      -0.97664                      90.94659
                      -5.84149                      -0.98210                      90.75986
                      -5.99738                      -0.98865                      90.52707
                      -6.09046                      -0.99590                      90.26282
                      -6.11488                      -1.00338                      89.98373
                      -6.06910                      -1.01063                      89.70734
                      -5.95600                      -1.01719                      89.45101
                      -5.78268                      -1.02264                      89.23084
                      -5.56004                      -1.02665                      89.06067
                      -5.30206                      -1.02897                      88.95120
                      -5.02496                      -1.02944                      88.90930
                      -4.74614                      -1.02803                      88.93760
                      -4.48313                      -1.02485                      89.03433
                      -4.25244                      -1.02008                      89.19341
                      -4.06859                      -1.01402                      89.40484
                      -3.94311                      -1.00707                      89.65533
                      -4.00900                      -1.12460                      89.94345
                      -4.01856                      -1.11801                      90.19188
                      -4.08961                      -1.11184                      90.43014
                      -4.21771                      -1.10646                      90.64324
                      -4.39480                      -1.10223                      90.81781
                      -4.60975                      -1.09940                      90.94288
                      -4.84905                      -1.09816                      91.01058
                      -5.09768                      -1.09858                      91.01666
                      -5.34000                      -1.10063                      90.96074
                      -5.56080                      -1.10419                      90.84634
                      -5.74619                      -1.10903                      90.68063
                      -5.88454                      -1.11485                      90.47404
                      -5.96714                      -1.12128                      90.23955
                      -5.98880                      -1.12792                      89.99188
                      -5.94818                      -1.13435                      89.74661
                      -5.84781                      -1.14017                      89.51914
                      -5.69400                      -1.14501                      89.32376
                      -5.49643                      -1.14857                      89.17275
                      -5.26750                      -1.15062                      89.07560
                      -5.02159                      -1.15104                      89.03842
                      -4.77417                      -1.14979                      89.06353
                      -4.54077                      -1.14697                      89.14937
                      -4.33606                      -1.14273                      89.29054
                      -4.17290                      -1.13736                      89.47816
                      -4.06155                      -1.13119                      89.70046
                      -4.17109                      -1.24955                      89.96099
                      -4.17908                      -1.24405                      90.16860
                      -4.23846                      -1.23889                      90.36771
                      -4.34551                      -1.23440                      90.54581
                      -4.49350                      -1.23086                      90.69170
                      -4.67314                      -1.22850                      90.79621
                      -4.87313                      -1.22746                      90.85279
                      -5.08091                      -1.22781                      90.85787
                      -5.28342                      -1.22952                      90.81114
                      -5.46794                      -1.23250                      90.71553
                      -5.62288                      -1.23654                      90.57705
                      -5.73849                      -1.24140                      90.40441
                      -5.80753                      -1.24678                      90.20844
                      -5.82563                      -1.25233                      90.00146
                      -5.79168                      -1.25770                      89.79648
                      -5.70780                      -1.26257                      89.60638
                      -5.57927                      -1.26661                      89.44310
                      -5.41415                      -1.26959                      89.31690
                      -5.22283                      -1.27130                      89.23571
                      -5.01732                      -1.27165                      89.20464
                      -4.81055                      -1.27061                      89.22563
                      -4.61549                      -1.26825                      89.29736
                      -4.44441                      -1.26471                      89.41534
                      -4.30806                      -1.26022                      89.57214
                      -4.21501                      -1.25506                      89.75791
                      -4.39960                      -1.37451                      89.98433
                      -4.40538                      -1.37053                      90.13443
                      -4.44831                      -1.36680                      90.27839
                      -4.52571                      -1.36355                      90.40715
                      -4.63271                      -1.36100                      90.51263
                      -4.76258                      -1.35929                      90.58820
                      -4.90718                      -1.35854                      90.62910
                      -5.05740                      -1.35879                      90.63278
                      -5.20382                      -1.36003                      90.59899
                      -5.33723                      -1.36218                      90.52987
                      -5.44924                      -1.36510                      90.42975
                      -5.53283                      -1.36862                      90.30492
                      -5.58274                      -1.37250                      90.16323
                      -5.59584                      -1.37652                      90.01359
                      -5.57129                      -1.38040                      89.86539
                      -5.51064                      -1.38392                      89.72795
                      -5.41771                      -1.38684                      89.60990
                      -5.29833                      -1.38899                      89.51865
                      -5.16001                      -1.39023                      89.45996
                      -5.01143                      -1.39048                      89.43749
                      -4.86193                      -1.38973                      89.45266
                      -4.72091                      -1.38802                      89.50453
                      -4.59722                      -1.38547                      89.58983
                      -4.49863                      -1.38222                      89.70319
                      -4.43135                      -1.37849                      89.83751
                      -4.99651                      -1.49947                      90.03990
                      -4.99651                      -1.49947                      90.03990
                      -4.99651                      -1.49947                      90.03990
                      -4.99651                      -1.49947                      90.03990
                      -4.99651                      -1.49947                      90.03990
                      -4.99651                      -1.49947                      90.03990
                      -4.99651                      -1.49947                      90.03990
                      -4.99651                      -1.49947                      90.03990
                      -4.99651                      -1.49947                      90.03990
                      -4.99651                      -1.49947                      90.03990
                      -4.99651                      -1.49947                      90.03990
                      -4.99651                      -1.49947                      90.03990
                      -4.99651                      -1.49947                      90.03990
                      -4.99651                      -1.49947                      90.03990
                      -4.99651                      -1.49947                      90.03990
                      -4.99651                      -1.49947                      90.03990
                      -4.99651                      -1.49947                      90.03990
                      -4.99651                      -1.49947                      90.03990
                      -4.99651                      -1.49947                      90.03990
                      -4.99651                      -1.49947                      90.03990
                      -4.99651                      -1.49947                      90.03990
                      -4.99651                      -1.49947                      90.03990
                      -4.99651                      -1.49947                      90.03990
                      -4.99651                      -1.49947                      90.03990
                      -4.99651                      -1.49947                      90.03990
        </DataArray>
      </Points>
      <Polys>
        <DataArray type="Int32" Name="connectivity" format="ascii">
      0      1     26     25
      1      2     27     26
      2      3     28     27
      3      4     29     28
      4      5     30     29
      5      6     31     30
      6      7     32     31
      7      8     33     32
      8      9     34     33
      9     10     35     34
     10     11     36     35
     11     12     37     36
     12     13     38     37
     13     14     39     38
     14     15     40     39
     15     16     41     40
     16     17     42     41
     17     18     43     42
     18     19     44     43
     19     20     45     44
     20     21     46     45
     21     22     47     46
     22     23     48     47
     23     24     49     48
     24      0     25     49
     25     26     51     50
     26     27     52     51
     27     28     53     52
     28     29     54     53
     29     30     55     54
     30     31     56     55
     31     32     57     56
     32     33     58     57
     33     34     59     58
     34     35     60     59
     35     36     61     60
     36     37     62     61
     37     38     63     62
     38     39     64     63
     39     40     65     64
     40     41     66     65
     41     42     67     66
     42     43     68     67
     43     44     69     68
     44     45     70     69
     45     46     71     70
     46     47     72     71
     47     48     73     72
     48     49     74     73
     49     25     50     74
     50     51     76     75
     51     52     77     76
     52     53     78     77
     53     54     79     78
     54     55     80     79
     55     56     81     80
     56     57     82     81
     57     58     83     82
     58     59     84     83
     59     60     85     84
     60     61     86     85
     61     62     87     86
     62     63     88     87
     63     64     89     88
     64     65     90     89
     65     66     91     90
     66     67     92     91
     67     68     93     92
     68     69     94     93
     69     70     95     94
     70     71     96     95
     71     72     97     96
     72     73     98     97
     73     74     99     98
     74     50     75     99
     75     76    101    100
     76     77    102    101
     77     78    103    102
     78     79    104    103
     79     80    105    104
     80     81    106    105
     81     82    107    106
     82     83    108    107
     83     84    109    108
     84     85    110    109
     85     86    111    110
     86     87    112    111
     87     88    113    112
     88     89    114    113
     89     90    115    114
     90     91    116    115
     91     92    117    116
     92     93    118    117
     93     94    119    118
     94     95    120    119
     95     96    121    120
     96     97    122    121
     97     98    123    122
     98     99    124    123
     99     75    100    124
    100    101    126    125
    101    102    127    126
    102    103    128    127
    103    104    129    128
    104    105    130    129
    105    106    131    130
    106    107    132    131
    107    108    133    132
    108    109    134    133
    109    110    135    134
    110    111    136    135
    111    112    137    136
    112    113    138    137
    113    114    139    138
    114    115    140    139
    115    116    141    140
    116    117    142    141
    117    118    143    142
    118    119    144    143
    119    120    145    144
    120    121    146    145
    121    122    147    146
    122    123    148    147
    123    124    149    148
    124    100    125    149
    125    126    151    150
    126    127    152    151
    127    128    153    152
    128    129    154    153
    129    130    155    154
    130    131    156    155
    131    132    157    156
    132    133    158    157
    133    134    159    158
    134    135    160    159
    135    136    161    160
    136    137    162    161
    137    138    163    162
    138    139    164    163
    139    140    165    164
    140    141    166    165
    141    142    167    166
    142    143    168    167
    143    144    169    168
    144    145    170    169
    145    146    171    170
    146    147    172    171
    147    148    173    172
    148    149    174    173
    149    125    150    174
    150    151    176    175
    151    152    177    176
    152    153    178    177
    153    154    179    178
    154    155    180    179
    155    156    181    180
    156    157    182    181
    157    158    183    182
    158    159    184    183
    159    160    185    184
    160    161    186    185
    161    162    187    186
    162    163    188    187
    163    164    189    188
    164    165    190    189
    165    166    191    190
    166    167    192    191
    167    168    193    192
    168    169    194    193
    169    170    195    194
    170    171    196    195
    171    172    197    196
    172    173    198    197
    173    174    199    198
    174    150    175    199
    175    176    201    200
    176    177    202    201
    177    178    203    202
    178    179    204    203
    179    180    205    204
    180    181    206    205
    181    182    207    206
    182    183    208    207
    183    184    209    208
    184    185    210    209
    185    186    211    210
    186    187    212    211
    187    188    213    212
    188    189    214    213
    189    190    215    214
    190    191    216    215
    191    192    217    216
    192    193    218    217
    193    194    219    218
    194    195    220    219
    195    196    221    220
    196    197    222    221
    197    198    223    222
    198    199    224    223
    199    175    200    224
    200    201    226    225
    201    202    227    226
    202    203    228    227
    203    204    229    228
    204    205    230    229
    205    206    231    230
    206    207    232    231
    207    208    233    232
    208    209    234    233
    209    210    235    234
    210    211    236    235
    211    212    237    236
    212    213    238    237
    213    214    239    238
    214    215    240    239
    215    216    241    240
    216    217    242    241
    217    218    243    242
    218    219    244    243
    219    220    245    244
    220    221    246    245
    221    222    247    246
    222    223    248    247
    223    224    249    248
    224    200    225    249
    225    226    251    250
    226    227    252    251
    227    228    253    252
    228    229    254    253
    229    230    255    254
    230    231    256    255
    231    232    257    256
    232    233    258    257
    233    234    259    258
    234    235    260    259
    235    236    261    260
    236    237    262    261
    237    238    263    262
    238    239    264    263
    239    240    265    264
    240    241    266    265
    241    242    267    266
    242    243    268    267
    243    244    269    268
    244    245    270    269
    245    246    271    270
    246    247    272    271
    247    248    273    272
    248    249    274    273
    249    225    250    274
    250    251    276    275
    251    252    277    276
    252    253    278    277
    253    254    279    278
    254    255    280    279
    255    256    281    280
    256    257    282    281
    257    258    283    282
    258    259    284    283
    259    260    285    284
    260    261    286    285
    261    262    287    286
    262    263    288    287
    263    264    289    288
    264    265    290    289
    265    266    291    290
    266    267    292    291
    267    268    293    292
    268    269    294    293
    269    270    295    294
    270    271    296    295
    271    272    297    296
    272    273    298    297
    273    274    299    298
    274    250    275    299
    275    276    301    300
    276    277    302    301
    277    278    303    302
    278    279    304    303
    279    280    305    304
    280    281    306    305
    281    282    307    306
    282    283    308    307
    283    284    309    308
    284    285    310    309
    285    286    311    310
    286    287    312    311
    287    288    313    312
    288    289    314    313
    289    290    315    314
    290    291    316    315
    291    292    317    316
    292    293    318    317
    293    294    319    318
    294    295    320    319
    295    296    321    320
    296    297    322    321
    297    298    323    322
    298    299    324    323
    299    275    300    324
    300    301    326    325
    301    302    327    326
    302    303    328    327
    303    304    329    328
    304    305    330    329
    305    306    331    330
    306    307    332    331
    307    308    333    332
    308    309    334    333
    309    310    335    334
    310    311    336    335
    311    312    337    336
    312    313    338    337
    313    314    339    338
    314    315    340    339
    315    316    341    340
    316    317    342    341
    317    318    343    342
    318    319    344    343
    319    320    345    344
    320    321    346    345
    321    322    347    346
    322    323    348    347
    323    324    349    348
    324    300    325    349
    325    326    351    350
    326    327    352    351
    327    328    353    352
    328    329    354    353
    329    330    355    354
    330    331    356    355
    331    332    357    356
    332    333    358    357
    333    334    359    358
    334    335    360    359
    335    336    361    360
    336    337    362    361
    337    338    363    362
    338    339    364    363
    339    340    365    364
    340    341    366    365
    341    342    367    366
    342    343    368    367
    343    344    369    368
    344    345    370    369
    345    346    371    370
    346    347    372    371
    347    348    373    372
    348    349    374    373
    349    325    350    374
    350    351    376    375
    351    352    377    376
    352    353    378    377
    353    354    379    378
    354    355    380    379
    355    356    381    380
    356    357    382    381
    357    358    383    382
    358    359    384    383
    359    360    385    384
    360    361    386    385
    361    362    387    386
    362    363    388    387
    363    364    389    388
    364    365    390    389
    365    366    391    390
    366    367    392    391
    367    368    393    392
    368    369    394    393
    369    370    395    394
    370    371    396    395
    371    372    397    396
    372    373    398    397
    373    374    399    398
    374    350    375    399
    375    376    401    400
    376    377    402    401
    377    378    403    402
    378    379    404    403
    379    380    405    404
    380    381    406    405
    381    382    407    406
    382    383    408    407
    383    384    409    408
    384    385    410    409
    385    386    411    410
    386    387    412    411
    387    388    413    412
    388    389    414    413
    389    390    415    414
    390    391    416    415
    391    392    417    416
    392    393    418    417
    393    394    419    418
    394    395    420    419
    395    396    421    420
    396    397    422    421
    397    398    423    422
    398    399    424    423
    399    375    400    424
    400    401    426    425
    401    402    427    426
    402    403    428    427
    403    404    429    428
    404    405    430    429
    405    406    431    430
    406    407    432    431
    407    408    433    432
    408    409    434    433
    409    410    435    434
    410    411    436    435
    411    412    437    436
    412    413    438    437
    413    414    439    438
    414    415    440    439
    415    416    441    440
    416    417    442    441
    417    418    443    442
    418    419    444    443
    419    420    445    444
    420    421    446    445
    421    422    447    446
    422    423    448    447
    423    424    449    448
    424    400    425    449
    425    426    451    450
    426    427    452    451
    427    428    453    452
    428    429    454    453
    429    430    455    454
    430    431    456    455
    431    432    457    456
    432    433    458    457
    433    434    459    458
    434    435    460    459
    435    436    461    460
    436    437    462    461
    437    438    463    462
    438    439    464    463
    439    440    465    464
    440    441    466    465
    441    442    467    466
    442    443    468    467
    443    444    469    468
    444    445    470    469
    445    446    471    470
    446    447    472    471
    447    448    473    472
    448    449    474    473
    449    425    450    474
    450    451    476    475
    451    452    477    476
    452    453    478    477
    453    454    479    478
    454    455    480    479
    455    456    481    480
    456    457    482    481
    457    458    483    482
    458    459    484    483
    459    460    485    484
    460    461    486    485
    461    462    487    486
    462    463    488    487
    463    464    489    488
    464    465    490    489
    465    466    491    490
    466    467    492    491
    467    468    493    492
    468    469    494    493
    469    470    495    494
    470    471    496    495
    471    472    497    496
    472    473    498    497
    473    474    499    498
    474    450    475    499
    475    476    501    500
    476    477    502    501
    477    478    503    502
    478    479    504    503
    479    480    505    504
    480    481    506    505
    481    482    507    506
    482    483    508    507
    483    484    509    508
    484    485    510    509
    485    486    511    510
    486    487    512    511
    487    488    513    512
    488    489    514    513
    489    490    515    514
    490    491    516    515
    491    492    517    516
    492    493    518    517
    493    494    519    518
    494    495    520    519
    495    496    521    520
    496    497    522    521
    497    498    523    522
    498    499    524    523
    499    475    500    524
    500    501    526    525
    501    502    527    526
    502    503    528    527
    503    504    529    528
    504    505    530    529
    505    506    531    530
    506    507    532    531
    507    508    533    532
    508    509    534    533
    509    510    535    534
    510    511    536    535
    511    512    537    536
    512    513    538    537
    513    514    539    538
    514    515    540    539
    515    516    541    540
    516    517    542    541
    517    518    543    542
    518    519    544    543
    519    520    545    544
    520    521    546    545
    521    522    547    546
    522    523    548    547
    523    524    549    548
    524    500    525    549
    525    526    551    550
    526    527    552    551
    527    528    553    552
    528    529    554    553
    529    530    555    554
    530    531    556    555
    531    532    557    556
    532    533    558    557
    533    534    559    558
    534    535    560    559
    535    536    561    560
    536    537    562    561
    537    538    563    562
    538    539    564    563
    539    540    565    564
    540    541    566    565
    541    542    567    566
    542    543    568    567
    543    544    569    568
    544    545    570    569
    545    546    571    570
    546    547    572    571
    547    548    573    572
    548    549    574    573
    549    525    550    574
    550    551    576    575
    551    552    577    576
    552    553    578    577
    553    554    579    578
    554    555    580    579
    555    556    581    580
    556    557    582    581
    557    558    583    582
    558    559    584    583
    559    560    585    584
    560    561    586    585
    561    562    587    586
    562    563    588    587
    563    564    589    588
    564    565    590    589
    565    566    591    590
    566    567    592    591
    567    568    593    592
    568    569    594    593
    569    570    595    594
    570    571    596    595
    571    572    597    596
    572    573    598    597
    573    574    599    598
    574    550    575    599
    575    576    601    600
    576    577    602    601
    577    578    603    602
    578    579    604    603
    579    580    605    604
    580    581    606    605
    581    582    607    606
    582    583    608    607
    583    584    609    608
    584    585    610    609
    585    586    611    610
    586    587    612    611
    587    588    613    612
    588    589    614    613
    589    590    615    614
    590    591    616    615
    591    592    617    616
    592    593    618    617
    593    594    619    618
    594    595    620    619
    595    596    621    620
    596    597    622    621
    597    598    623    622
    598    599    624    623
    599    575    600    624
        </DataArray>
        <DataArray type="Int32" Name="offsets" format="ascii">
      4
      8
     12
     16
     20
     24
     28
     32
     36
     40
     44
     48
     52
     56
     60
     64
     68
     72
     76
     80
     84
     88
     92
     96
    100
    104
    108
    112
    116
    120
    124
    128
    132
    136
    140
    144
    148
    152
    156
    160
    164
    168
    172
    176
    180
    184
    188
    192
    196
    200
    204
    208
    212
    216
    220
    224
    228
    232
    236
    240
    244
    248
    252
    256
    260
    264
    268
    272
    276
    280
    284
    288
    292
    296
    300
    304
    308
    312
    316
    320
    324
    328
    332
    336
    340
    344
    348
    352
    356
    360
    364
    368
    372
    376
    380
    384
    388
    392
    396
    400
    404
    408
    412
    416
    420
    424
    428
    432
    436
    440
    444
    448
    452
    456
    460
    464
    468
    472
    476
    480
    484
    488
    492
    496
    500
    504
    508
    512
    516
    520
    524
    528
    532
    536
    540
    544
    548
    552
    556
    560
    564
    568
    572
    576
    580
    584
    588
    592
    596
    600
    604
    608
    612
    616
    620
    624
    628
    632
    636
    640
    644
    648
    652
    656
    660
    664
    668
    672
    676
    680
    684
    688
    692
    696
    700
    704
    708
    712
    716
    720
    724
    728
    732
    736
    740
    744
    748
    752
    756
    760
    764
    768
    772
    776
    780
    784
    788
    792
    796
    800
    804
    808
    812
    816
    820
    824
    828
    832
    836
    840
    844
    848
    852
    856
    860
    864
    868
    872
    876
    880
    884
    888
    892
    896
    900
    904
    908
    912
    916
    920
    924
    928
    932
    936
    940
    944
    948
    952
    956
    960
    964
    968
    972
    976
    980
    984
    988
    992
    996
   1000
   1004
   1008
   1012
   1016
   1020
   1024
   1028
   1032
   1036
   1040
   1044
   1048
   1052
   1056
   1060
   1064
   1068
   1072
   1076
   1080
   1084
   1088
   1092
   1096
   1100
   1104
   1108
   1112
   1116
   1120
   1124
   1128
   1132
   1136
   1140
   1144
   1148
   1152
   1156
   1160
   1164
   1168
   1172
   1176
   1180
   1184
   1188
   1192
   1196
   1200
   1204
   1208
   1212
   1216
   1220
   1224
   1228
   1232
   1236
   1240
   1244
   1248
   1252
   1256
   1260
   1264
   1268
   1272
   1276
   1280
   1284
   1288
   1292
   1296
   1300
   1304
   1308
   1312
   1316
   1320
   1324
   1328
   1332
   1336
   1340
   1344
   1348
   1352
   1356
   1360
   1364
   1368
   1372
   1376
   1380
   1384
   1388
   1392
   1396
   1400
   1404
   1408
   1412
   1416
   1420
   1424
   1428
   1432
   1436
   1440
   1444
   1448
   1452
   1456
   1460
   1464
   1468
   1472
   1476
   1480
   1484
   1488
   1492
   1496
   1500
   1504
   1508
   1512
   1516
   1520
   1524
   1528
   1532
   1536
   1540
   1544
   1548
   1552
   1556
   1560
   1564
   1568
   1572
   1576
   1580
   1584
   1588
   1592
   1596
   1600
   1604
   1608
   1612
   1616
   1620
   1624
   1628
   1632
   1636
   1640
   1644
   1648
   1652
   1656
   1660
   1664
   1668
   1672
   1676
   1680
   1684
   1688
   1692
   1696
   1700
   1704
   1708
   1712
   1716
   1720
   1724
   1728
   1732
   1736
   1740
   1744
   1748
   1752
   1756
   1760
   1764
   1768
   1772
   1776
   1780
   1784
   1788
   1792
   1796
   1800
   1804
   1808
   1812
   1816
   1820
   1824
   1828
   1832
   1836
   1840
   1844
   1848
   1852
   1856
   1860
   1864
   1868
   1872
   1876
   1880
   1884
   1888
   1892
   1896
   1900
   1904
   1908
   1912
   1916
   1920
   1924
   1928
   1932
   1936
   1940
   1944
   1948
   1952
   1956
   1960
   1964
   1968
   1972
   1976
   1980
   1984
   1988
   1992
   1996
   2000
   2004
   2008
   2012
   2016
   2020
   2024
   2028
   2032
   2036
   2040
   2044
   2048
   2052
   2056
   2060
   2064
   2068
   2072
   2076
   2080
   2084
   2088
   2092
   2096
   2100
   2104
   2108
   2112
   2116
   2120
   2124
   2128
   2132
   2136
   2140
   2144
   2148
   2152
   2156
   2160
   2164
   2168
   2172
   2176
   2180
   2184
   2188
   2192
   2196
   2200
   2204
   2208
   2212
   2216
   2220
   2224
   2228
   2232
   2236
   2240
   2244
   2248
   2252
   2256
   2260
   2264
   2268
   2272
   2276
   2280
   2284
   2288
   2292
   2296
   2300
   2304
   2308
   2312
   2316
   2320
   2324
   2328
   2332
   2336
   2340
   2344
   2348
   2352
   2356
   2360
   2364
   2368
   2372
   2376
   2380
   2384
   2388
   2392
   2396
   2400
        </DataArray>
      </Polys>
    </Piece>
  </PolyData>
</VTKFile>
