<?xml version="1.0"?>
<VTKFile type="PolyData" version="0.1" byte_order="LittleEndian">
  <PolyData>
    <Piece NumberOfPoints="    625" NumberOfVerts="  0" NumberOfLines="      0"
           NumberOfStrips="  0" NumberOfPolys="    600">
      <Points>
        <DataArray type="Float32" NumberOfComponents="3" format="ascii">
                      -5.04351                       1.41449                      89.50267
                      -5.04351                       1.41449                      89.50267
                      -5.04351                       1.41449                      89.50267
                      -5.04351                       1.41449                      89.50267
                      -5.04351                       1.41449                      89.50267
                      -5.04351                       1.41449                      89.50267
                      -5.04351                       1.41449                      89.50267
                      -5.04351                       1.41449                      89.50267
                      -5.04351                       1.41449                      89.50267
                      -5.04351                       1.41449                      89.50267
                      -5.04351                       1.41449                      89.50267
                      -5.04351                       1.41449                      89.50267
                      -5.04351                       1.41449                      89.50267
                      -5.04351                       1.41449                      89.50267
                      -5.04351                       1.41449                      89.50267
                      -5.04351                       1.41449                      89.50267
                      -5.04351                       1.41449                      89.50267
                      -5.04351                       1.41449                      89.50267
                      -5.04351                       1.41449                      89.50267
                      -5.04351                       1.41449                      89.50267
                      -5.04351                       1.41449                      89.50267
                      -5.04351                       1.41449                      89.50267
                      -5.04351                       1.41449                      89.50267
                      -5.04351                       1.41449                      89.50267
                      -5.04351                       1.41449                      89.50267
                      -4.44269                       1.29661                      89.49187
                      -4.44920                       1.34623                      89.63356
                      -4.49282                       1.39273                      89.76963
                      -4.57082                       1.43319                      89.89153
                      -4.67829                       1.46507                      89.99161
                      -4.80848                       1.48637                      90.06356
                      -4.95322                       1.49574                      90.10288
                      -5.10339                       1.49260                      90.10709
                      -5.24958                       1.47714                      90.07592
                      -5.38259                       1.45034                      90.01134
                      -5.49407                       1.41389                      89.91740
                      -5.57701                       1.37006                      89.80001
                      -5.62620                       1.32162                      89.66654
                      -5.63855                       1.27161                      89.52537
                      -5.61328                       1.22316                      89.38539
                      -5.55199                       1.17934                      89.25538
                      -5.45852                       1.14288                      89.14351
                      -5.33874                       1.11608                      89.05681
                      -5.20019                       1.10063                      89.00073
                      -5.05156                       1.09749                      88.97880
                      -4.90220                       1.10686                      88.99238
                      -4.76149                       1.12815                      89.04064
                      -4.63827                       1.16003                      89.12053
                      -4.54029                       1.20049                      89.22703
                      -4.47370                       1.24699                      89.35346
                      -4.21026                       1.17874                      89.51330
                      -4.21926                       1.24737                      89.70927
                      -4.27960                       1.31168                      89.89748
                      -4.38748                       1.36765                      90.06608
                      -4.53613                       1.41174                      90.20450
                      -4.71620                       1.44119                      90.30402
                      -4.91638                       1.45415                      90.35840
                      -5.12410                       1.44981                      90.36422
                      -5.32629                       1.42843                      90.32111
                      -5.51027                       1.39137                      90.23179
                      -5.66445                       1.34094                      90.10186
                      -5.77917                       1.28033                      89.93949
                      -5.84721                       1.21333                      89.75488
                      -5.86429                       1.14415                      89.55963
                      -5.82934                       1.07715                      89.36602
                      -5.74456                       1.01653                      89.18619
                      -5.61528                       0.96611                      89.03146
                      -5.44961                       0.92904                      88.91155
                      -5.25798                       0.90767                      88.83399
                      -5.05241                       0.90332                      88.80365
                      -4.84582                       0.91629                      88.82244
                      -4.65120                       0.94574                      88.88918
                      -4.48078                       0.98983                      88.99968
                      -4.34526                       1.04579                      89.14699
                      -4.25316                       1.11011                      89.32186
                      -4.04425                       1.06086                      89.54053
                      -4.05503                       1.14298                      89.77504
                      -4.12723                       1.21994                      90.00024
                      -4.25632                       1.28691                      90.20199
                      -4.43418                       1.33967                      90.36761
                      -4.64966                       1.37491                      90.48670
                      -4.88919                       1.39042                      90.55177
                      -5.13774                       1.38522                      90.55873
                      -5.37968                       1.35965                      90.50715
                      -5.59982                       1.31529                      90.40027
                      -5.78432                       1.25496                      90.24480
                      -5.92159                       1.18242                      90.05051
                      -6.00300                       1.10225                      89.82961
                      -6.02344                       1.01948                      89.59598
                      -5.98163                       0.93931                      89.36430
                      -5.88018                       0.86677                      89.14913
                      -5.72548                       0.80643                      88.96398
                      -5.52725                       0.76208                      88.82049
                      -5.29794                       0.73650                      88.72768
                      -5.05195                       0.73131                      88.69138
                      -4.80476                       0.74682                      88.71387
                      -4.57188                       0.78206                      88.79373
                      -4.36795                       0.83482                      88.92595
                      -4.20579                       0.90178                      89.10222
                      -4.09558                       0.97874                      89.31146
                      -3.91523                       0.94299                      89.57101
                      -3.92737                       1.03553                      89.83526
                      -4.00873                       1.12225                      90.08904
                      -4.15420                       1.19771                      90.31639
                      -4.35463                       1.25717                      90.50302
                      -4.59744                       1.29688                      90.63722
                      -4.86737                       1.31436                      90.71054
                      -5.14745                       1.30850                      90.71839
                      -5.42009                       1.27968                      90.66026
                      -5.66816                       1.22970                      90.53982
                      -5.87606                       1.16171                      90.36462
                      -6.03075                       1.07997                      90.14569
                      -6.12249                       0.98963                      89.89676
                      -6.14552                       0.89635                      89.63349
                      -6.09840                       0.80601                      89.37242
                      -5.98408                       0.72427                      89.12994
                      -5.80976                       0.65628                      88.92131
                      -5.58638                       0.60630                      88.75961
                      -5.32797                       0.57748                      88.65503
                      -5.05078                       0.57162                      88.61412
                      -4.77222                       0.58910                      88.63946
                      -4.50980                       0.62881                      88.72945
                      -4.28000                       0.68827                      88.87845
                      -4.09726                       0.76373                      89.07708
                      -3.97307                       0.85045                      89.31287
                      -3.81167                       0.82512                      89.60371
                      -3.82490                       0.92596                      89.89167
                      -3.91356                       1.02046                      90.16822
                      -4.07208                       1.10269                      90.41597
                      -4.29050                       1.16748                      90.61935
                      -4.55509                       1.21076                      90.76558
                      -4.84924                       1.22981                      90.84549
                      -5.15445                       1.22342                      90.85404
                      -5.45155                       1.19202                      90.79070
                      -5.72188                       1.13755                      90.65945
                      -5.94844                       1.06346                      90.46853
                      -6.11700                       0.97439                      90.22995
                      -6.21697                       0.87594                      89.95869
                      -6.24207                       0.77430                      89.67180
                      -6.19073                       0.67585                      89.38730
                      -6.06615                       0.58678                      89.12307
                      -5.87619                       0.51268                      88.89571
                      -5.63276                       0.45822                      88.71951
                      -5.35117                       0.42681                      88.60554
                      -5.04911                       0.42043                      88.56097
                      -4.74556                       0.43947                      88.58858
                      -4.45959                       0.48275                      88.68665
                      -4.20917                       0.54754                      88.84901
                      -4.01004                       0.62977                      89.06547
                      -3.87470                       0.72428                      89.32241
                      -3.72766                       0.70724                      89.63812
                      -3.74177                       0.81476                      89.94516
                      -3.83630                       0.91553                      90.24002
                      -4.00532                       1.00320                      90.50417
                      -4.23820                       1.07228                      90.72102
                      -4.52032                       1.11843                      90.87694
                      -4.83395                       1.13874                      90.96214
                      -5.15937                       1.13193                      90.97126
                      -5.47615                       1.09844                      90.90372
                      -5.76438                       1.04037                      90.76378
                      -6.00595                       0.96137                      90.56022
                      -6.18567                       0.86640                      90.30584
                      -6.29227                       0.76143                      90.01661
                      -6.31903                       0.65306                      89.71072
                      -6.26428                       0.54809                      89.40738
                      -6.13146                       0.45312                      89.12565
                      -5.92891                       0.37412                      88.88323
                      -5.66936                       0.31605                      88.69537
                      -5.36912                       0.28256                      88.57385
                      -5.04705                       0.27575                      88.52632
                      -4.72340                       0.29606                      88.55576
                      -4.41849                       0.34220                      88.66032
                      -4.15149                       0.41128                      88.83344
                      -3.93917                       0.49896                      89.06423
                      -3.79487                       0.59972                      89.33820
                      -3.65973                       0.58937                      89.67394
                      -3.67454                       0.70223                      89.99623
                      -3.77377                       0.80800                      90.30574
                      -3.95118                       0.90004                      90.58303
                      -4.19564                       0.97255                      90.81065
                      -4.49178                       1.02099                      90.97432
                      -4.82099                       1.04230                      91.06375
                      -5.16258                       1.03516                      91.07332
                      -5.49511                       1.00001                      91.00243
                      -5.79766                       0.93905                      90.85553
                      -6.05123                       0.85612                      90.64186
                      -6.23988                       0.75643                      90.37483
                      -6.35177                       0.64625                      90.07124
                      -6.37986                       0.53249                      89.75014
                      -6.32239                       0.42230                      89.43173
                      -6.18297                       0.32262                      89.13600
                      -5.97036                       0.23969                      88.88154
                      -5.69791                       0.17873                      88.68434
                      -5.38275                       0.14358                      88.55678
                      -5.04468                       0.13644                      88.50689
                      -4.70495                       0.15775                      88.53779
                      -4.38489                       0.20619                      88.64755
                      -4.10462                       0.27870                      88.82927
                      -3.88175                       0.37074                      89.07153
                      -3.73028                       0.47651                      89.35911
                      -3.60567                       0.47150                      89.71097
                      -3.62103                       0.58855                      90.04523
                      -3.72394                       0.69825                      90.36623
                      -3.90795                       0.79370                      90.65381
                      -4.16148                       0.86890                      90.88989
                      -4.46861                       0.91914                      91.05963
                      -4.81004                       0.94124                      91.15238
                      -5.16432                       0.93384                      91.16231
                      -5.50919                       0.89738                      91.08878
                      -5.82297                       0.83416                      90.93643
                      -6.08596                       0.74815                      90.71483
                      -6.28162                       0.64476                      90.43789
                      -6.39766                       0.53049                      90.12302
                      -6.42679                       0.41250                      89.79000
                      -6.36719                       0.29823                      89.45977
                      -6.22259                       0.19484                      89.15306
                      -6.00208                       0.10883                      88.88915
                      -5.71952                       0.04561                      88.68463
                      -5.39266                       0.00915                      88.55234
                      -5.04204                       0.00175                      88.50059
                      -4.68969                       0.02385                      88.53265
                      -4.35775                       0.07409                      88.64648
                      -4.06708                       0.14929                      88.83495
                      -3.83593                       0.24474                      89.08620
                      -3.67884                       0.35444                      89.38445
                      -3.56404                       0.35362                      89.74909
                      -3.57981                       0.47383                      90.09237
                      -3.68550                       0.58649                      90.42203
                      -3.87446                       0.68452                      90.71736
                      -4.13484                       0.76175                      90.95981
                      -4.45026                       0.81334                      91.13414
                      -4.80090                       0.83604                      91.22939
                      -5.16474                       0.82844                      91.23958
                      -5.51891                       0.79099                      91.16408
                      -5.84116                       0.72607                      91.00761
                      -6.11124                       0.63774                      90.78003
                      -6.31218                       0.53156                      90.49562
                      -6.43135                       0.41420                      90.17225
                      -6.46127                       0.29304                      89.83026
                      -6.40006                       0.17568                      89.49111
                      -6.25156                       0.06950                      89.17613
                      -6.02510                      -0.01883                      88.90510
                      -5.73492                      -0.08375                      88.69506
                      -5.39924                      -0.12119                      88.55920
                      -5.03916                      -0.12880                      88.50606
                      -4.67730                      -0.10610                      88.53897
                      -4.33641                      -0.05451                      88.65588
                      -4.03789                       0.02273                      88.84943
                      -3.80051                       0.12075                      89.10746
                      -3.63918                       0.23341                      89.41376
                      -3.53386                       0.23575                      89.78821
                      -3.54992                       0.35816                      90.13779
                      -3.65755                       0.47289                      90.47350
                      -3.84999                       0.57271                      90.77425
                      -4.11514                       0.65137                      91.02115
                      -4.43634                       0.70390                      91.19867
                      -4.79342                       0.72702                      91.29567
                      -5.16394                       0.71928                      91.30605
                      -5.52461                       0.68115                      91.22916
                      -5.85277                       0.61503                      91.06983
                      -6.12780                       0.52508                      90.83807
                      -6.33243                       0.41696                      90.54844
                      -6.45379                       0.29744                      90.21914
                      -6.48426                       0.17405                      89.87087
                      -6.42193                       0.05454                      89.52550
                      -6.27070                      -0.05359                      89.20474
                      -6.04009                      -0.14354                      88.92874
                      -5.74458                      -0.20965                      88.71484
                      -5.40274                      -0.24778                      88.57649
                      -5.03605                      -0.25553                      88.52237
                      -4.66756                      -0.23241                      88.55589
                      -4.32040                      -0.17987                      88.67494
                      -4.01641                      -0.10122                      88.87204
                      -3.77467                      -0.00139                      89.13481
                      -3.61038                       0.11333                      89.44673
                      -3.51453                       0.11787                      89.82828
                      -3.53076                       0.24160                      90.18158
                      -3.63954                       0.35754                      90.52087
                      -3.83403                       0.45843                      90.82483
                      -4.10200                       0.53792                      91.07436
                      -4.42663                       0.59102                      91.25378
                      -4.78752                       0.61438                      91.35181
                      -5.16198                       0.60655                      91.36230
                      -5.52649                       0.56802                      91.28459
                      -5.85815                       0.50120                      91.12356
                      -6.13612                       0.41029                      90.88933
                      -6.34293                       0.30101                      90.59661
                      -6.46558                       0.18023                      90.26380
                      -6.49638                       0.05552                      89.91182
                      -6.43338                      -0.06527                      89.56277
                      -6.28054                      -0.17455                      89.23859
                      -6.04747                      -0.26545                      88.95965
                      -5.74881                      -0.33227                      88.74347
                      -5.40333                      -0.37081                      88.60364
                      -5.03273                      -0.37864                      88.54895
                      -4.66031                      -0.35527                      88.58283
                      -4.30946                      -0.30217                      88.70315
                      -4.00222                      -0.22268                      88.90235
                      -3.75791                      -0.12180                      89.16792
                      -3.59187                      -0.00585                      89.48316
                      -3.50571                       0.00000                      89.86927
                      -3.52200                       0.12415                      90.22381
                      -3.63115                       0.24051                      90.56428
                      -3.82632                       0.34175                      90.86930
                      -4.09523                       0.42151                      91.11970
                      -4.42099                       0.47480                      91.29974
                      -4.78314                       0.49824                      91.39812
                      -5.15891                       0.49039                      91.40864
                      -5.52469                       0.45172                      91.33066
                      -5.85751                       0.38466                      91.16907
                      -6.13645                       0.29344                      90.93402
                      -6.34398                       0.18378                      90.64028
                      -6.46706                       0.06257                      90.30631
                      -6.49796                      -0.06257                      89.95310
                      -6.43474                      -0.18378                      89.60283
                      -6.28137                      -0.29344                      89.27752
                      -6.04749                      -0.38466                      88.99760
                      -5.74779                      -0.45172                      88.78067
                      -5.40110                      -0.49039                      88.64036
                      -5.02921                      -0.49824                      88.58547
                      -4.65549                      -0.47480                      88.61947
                      -4.30341                      -0.42151                      88.74021
                      -3.99510                      -0.34175                      88.94011
                      -3.74993                      -0.24051                      89.20660
                      -3.58331                      -0.12415                      89.52295
                      -3.50728                      -0.11787                      89.91117
                      -3.52351                       0.00585                      90.26447
                      -3.63229                       0.12180                      90.60376
                      -3.82677                       0.22268                      90.90772
                      -4.09475                       0.30217                      91.15725
                      -4.41938                       0.35527                      91.33666
                      -4.78026                       0.37864                      91.43470
                      -5.15473                       0.37081                      91.44519
                      -5.51924                       0.33227                      91.36748
                      -5.85090                       0.26545                      91.20645
                      -6.12887                       0.17455                      90.97221
                      -6.33568                       0.06527                      90.67950
                      -6.45833                      -0.05552                      90.34669
                      -6.48912                      -0.18023                      89.99471
                      -6.42612                      -0.30101                      89.64566
                      -6.27329                      -0.41029                      89.32148
                      -6.04022                      -0.50120                      89.04253
                      -5.74156                      -0.56802                      88.82636
                      -5.39608                      -0.60655                      88.68653
                      -5.02548                      -0.61439                      88.63184
                      -4.65306                      -0.59102                      88.66571
                      -4.30221                      -0.53792                      88.78603
                      -3.99497                      -0.45843                      88.98524
                      -3.75066                      -0.35754                      89.25080
                      -3.58462                      -0.24160                      89.56605
                      -3.51936                      -0.23575                      89.95399
                      -3.53542                      -0.11333                      90.30356
                      -3.64305                       0.00139                      90.63928
                      -3.83548                       0.10122                      90.94003
                      -4.10063                       0.17987                      91.18693
                      -4.42184                       0.23241                      91.36445
                      -4.77892                       0.25553                      91.46145
                      -5.14943                       0.24778                      91.47183
                      -5.51010                       0.20965                      91.39494
                      -5.83826                       0.14354                      91.23561
                      -6.11330                       0.05359                      91.00384
                      -6.31793                      -0.05454                      90.71421
                      -6.43929                      -0.17405                      90.38492
                      -6.46976                      -0.29744                      90.03664
                      -6.40742                      -0.41696                      89.69127
                      -6.25620                      -0.52508                      89.37051
                      -6.02558                      -0.61503                      89.09451
                      -5.73008                      -0.68115                      88.88062
                      -5.38824                      -0.71928                      88.74226
                      -5.02155                      -0.72702                      88.68814
                      -4.65305                      -0.70390                      88.72167
                      -4.30590                      -0.65137                      88.84072
                      -4.00190                      -0.57271                      89.03782
                      -3.76017                      -0.47289                      89.30059
                      -3.59588                      -0.35816                      89.61251
                      -3.54228                      -0.35362                      89.99775
                      -3.55805                      -0.23341                      90.34103
                      -3.66374                      -0.12075                      90.67070
                      -3.85271                      -0.02273                      90.96603
                      -4.11308                       0.05451                      91.20848
                      -4.42850                       0.10610                      91.38280
                      -4.77914                       0.12880                      91.47805
                      -5.14298                       0.12119                      91.48825
                      -5.49715                       0.08375                      91.41274
                      -5.81940                       0.01883                      91.25628
                      -6.08948                      -0.06950                      91.02869
                      -6.29042                      -0.17568                      90.74428
                      -6.40960                      -0.29304                      90.42092
                      -6.43952                      -0.41420                      90.07892
                      -6.37830                      -0.53156                      89.73978
                      -6.22980                      -0.63774                      89.42479
                      -6.00335                      -0.72607                      89.15377
                      -5.71316                      -0.79099                      88.94372
                      -5.37749                      -0.82844                      88.80786
                      -5.01741                      -0.83604                      88.75472
                      -4.65555                      -0.81334                      88.78764
                      -4.31465                      -0.76175                      88.90454
                      -4.01613                      -0.68452                      89.09809
                      -3.77875                      -0.58649                      89.35613
                      -3.61742                      -0.47383                      89.66243
                      -3.57667                      -0.47150                      90.04252
                      -3.59202                      -0.35444                      90.37678
                      -3.69493                      -0.24474                      90.69779
                      -3.87894                      -0.14929                      90.98536
                      -4.13247                      -0.07409                      91.22144
                      -4.43960                      -0.02385                      91.39118
                      -4.78104                      -0.00175                      91.48393
                      -5.13531                      -0.00915                      91.49386
                      -5.48018                      -0.04561                      91.42034
                      -5.79396                      -0.10883                      91.26799
                      -6.05695                      -0.19484                      91.04638
                      -6.25261                      -0.29823                      90.76944
                      -6.36865                      -0.41250                      90.45457
                      -6.39779                      -0.53049                      90.12156
                      -6.33818                      -0.64476                      89.79132
                      -6.19358                      -0.74815                      89.48462
                      -5.97308                      -0.83416                      89.22071
                      -5.69052                      -0.89738                      89.01618
                      -5.36366                      -0.93384                      88.88389
                      -5.01304                      -0.94124                      88.83215
                      -4.66069                      -0.91914                      88.86420
                      -4.32874                      -0.86890                      88.97803
                      -4.03807                      -0.79370                      89.16650
                      -3.80692                      -0.69825                      89.41775
                      -3.64983                      -0.58855                      89.71601
                      -3.62347                      -0.58937                      90.08838
                      -3.63828                      -0.47651                      90.41067
                      -3.73751                      -0.37074                      90.72019
                      -3.91492                      -0.27870                      90.99747
                      -4.15938                      -0.20619                      91.22509
                      -4.45552                      -0.15775                      91.38876
                      -4.78473                      -0.13644                      91.47819
                      -5.12633                      -0.14358                      91.48776
                      -5.45885                      -0.17873                      91.41687
                      -5.76140                      -0.23969                      91.26997
                      -6.01497                      -0.32262                      91.05630
                      -6.20362                      -0.42230                      90.78928
                      -6.31551                      -0.53249                      90.48568
                      -6.34361                      -0.64625                      90.16458
                      -6.28614                      -0.75643                      89.84617
                      -6.14671                      -0.85612                      89.55044
                      -5.93410                      -0.93905                      89.29598
                      -5.66165                      -1.00001                      89.09878
                      -5.34649                      -1.03516                      88.97122
                      -5.00842                      -1.04230                      88.92133
                      -4.66869                      -1.02099                      88.95224
                      -4.34863                      -0.97255                      89.06199
                      -4.06836                      -0.90004                      89.24371
                      -3.84549                      -0.80800                      89.48597
                      -3.69402                      -0.70223                      89.77355
                      -3.68415                      -0.70724                      90.13545
                      -3.69826                      -0.59972                      90.44249
                      -3.79279                      -0.49896                      90.73735
                      -3.96181                      -0.41128                      91.00150
                      -4.19469                      -0.34220                      91.21835
                      -4.47681                      -0.29606                      91.37427
                      -4.79044                      -0.27575                      91.45947
                      -5.11586                      -0.28256                      91.46859
                      -5.43264                      -0.31605                      91.40105
                      -5.72087                      -0.37412                      91.26111
                      -5.96244                      -0.45312                      91.05755
                      -6.14216                      -0.54809                      90.80317
                      -6.24875                      -0.65306                      90.51394
                      -6.27552                      -0.76143                      90.20805
                      -6.22077                      -0.86640                      89.90471
                      -6.08794                      -0.96137                      89.62298
                      -5.88540                      -1.04037                      89.38056
                      -5.62585                      -1.09844                      89.19270
                      -5.32561                      -1.13193                      89.07118
                      -5.00354                      -1.13874                      89.02365
                      -4.67989                      -1.11843                      89.05309
                      -4.37498                      -1.07228                      89.15765
                      -4.10798                      -1.00320                      89.33077
                      -3.89566                      -0.91553                      89.56156
                      -3.75136                      -0.81476                      89.83553
                      -3.76091                      -0.82512                      90.18393
                      -3.77414                      -0.72428                      90.47189
                      -3.86280                      -0.62977                      90.74844
                      -4.02132                      -0.54754                      90.99618
                      -4.23973                      -0.48275                      91.19957
                      -4.50433                      -0.43947                      91.34580
                      -4.79847                      -0.42043                      91.42571
                      -5.10369                      -0.42681                      91.43426
                      -5.40079                      -0.45822                      91.37092
                      -5.67112                      -0.51268                      91.23967
                      -5.89768                      -0.58678                      91.04875
                      -6.06624                      -0.67585                      90.81017
                      -6.16621                      -0.77430                      90.53891
                      -6.19131                      -0.87594                      90.25201
                      -6.13996                      -0.97439                      89.96752
                      -6.01539                      -1.06346                      89.70329
                      -5.82542                      -1.13755                      89.47593
                      -5.58200                      -1.19202                      89.29973
                      -5.30041                      -1.22342                      89.18576
                      -4.99834                      -1.22981                      89.14118
                      -4.69479                      -1.21076                      89.16880
                      -4.40882                      -1.16748                      89.26686
                      -4.15841                      -1.10269                      89.42923
                      -3.95927                      -1.02046                      89.64568
                      -3.82394                      -0.92596                      89.90263
                      -3.85721                      -0.94299                      90.23411
                      -3.86935                      -0.85045                      90.49837
                      -3.95071                      -0.76373                      90.75214
                      -4.09618                      -0.68827                      90.97949
                      -4.29662                      -0.62881                      91.16613
                      -4.53943                      -0.58910                      91.30032
                      -4.80935                      -0.57162                      91.37365
                      -5.08943                      -0.57748                      91.38150
                      -5.36208                      -0.60630                      91.32337
                      -5.61014                      -0.65628                      91.20293
                      -5.81805                      -0.72427                      91.02773
                      -5.97273                      -0.80601                      90.80879
                      -6.06447                      -0.89635                      90.55987
                      -6.08751                      -0.98963                      90.29660
                      -6.04039                      -1.07997                      90.03552
                      -5.92607                      -1.16171                      89.79305
                      -5.75174                      -1.22970                      89.58441
                      -5.52836                      -1.27968                      89.42272
                      -5.26996                      -1.30850                      89.31814
                      -4.99277                      -1.31436                      89.27723
                      -4.71421                      -1.29688                      89.30257
                      -4.45178                      -1.25717                      89.39256
                      -4.22199                      -1.19771                      89.54155
                      -4.03925                      -1.12225                      89.74019
                      -3.91506                      -1.03553                      89.97598
                      -3.97899                      -1.06086                      90.28653
                      -3.98976                      -0.97874                      90.52103
                      -4.06196                      -0.90178                      90.74624
                      -4.19105                      -0.83482                      90.94799
                      -4.36892                      -0.78206                      91.11361
                      -4.58439                      -0.74682                      91.23270
                      -4.82393                      -0.73131                      91.29777
                      -5.07247                      -0.73650                      91.30473
                      -5.31442                      -0.76208                      91.25315
                      -5.53456                      -0.80643                      91.14626
                      -5.71906                      -0.86677                      90.99079
                      -5.85632                      -0.93931                      90.79651
                      -5.93774                      -1.01948                      90.57561
                      -5.95818                      -1.10225                      90.34198
                      -5.91636                      -1.18242                      90.11030
                      -5.81491                      -1.25496                      89.89512
                      -5.66022                      -1.31529                      89.70998
                      -5.46198                      -1.35965                      89.56649
                      -5.23267                      -1.38522                      89.47368
                      -4.98669                      -1.39042                      89.43738
                      -4.73949                      -1.37491                      89.45986
                      -4.50662                      -1.33967                      89.53972
                      -4.30269                      -1.28691                      89.67194
                      -4.14053                      -1.21994                      89.84821
                      -4.03032                      -1.14298                      90.05746
                      -4.13774                      -1.17874                      90.34218
                      -4.14674                      -1.11011                      90.53816
                      -4.20708                      -1.04579                      90.72636
                      -4.31496                      -0.98983                      90.89497
                      -4.46361                      -0.94574                      91.03338
                      -4.64368                      -0.91629                      91.13290
                      -4.84387                      -0.90332                      91.18728
                      -5.05158                      -0.90767                      91.19310
                      -5.25378                      -0.92904                      91.14999
                      -5.43775                      -0.96611                      91.06067
                      -5.59194                      -1.01653                      90.93074
                      -5.70665                      -1.07715                      90.76837
                      -5.77469                      -1.14415                      90.58376
                      -5.79177                      -1.21333                      90.38852
                      -5.75682                      -1.28033                      90.19490
                      -5.67205                      -1.34094                      90.01508
                      -5.54276                      -1.39137                      89.86035
                      -5.37710                      -1.42843                      89.74043
                      -5.18546                      -1.44981                      89.66287
                      -4.97989                      -1.45415                      89.63253
                      -4.77330                      -1.44119                      89.65132
                      -4.57869                      -1.41174                      89.71807
                      -4.40826                      -1.36765                      89.82856
                      -4.27274                      -1.31168                      89.97587
                      -4.18064                      -1.24737                      90.15074
                      -4.36292                      -1.29661                      90.40364
                      -4.36943                      -1.24699                      90.54533
                      -4.41305                      -1.20049                      90.68140
                      -4.49105                      -1.16003                      90.80331
                      -4.59852                      -1.12815                      90.90338
                      -4.72871                      -1.10686                      90.97533
                      -4.87345                      -1.09749                      91.01465
                      -5.02362                      -1.10063                      91.01886
                      -5.16981                      -1.11608                      90.98769
                      -5.30282                      -1.14288                      90.92311
                      -5.41430                      -1.17934                      90.82917
                      -5.49724                      -1.22316                      90.71178
                      -5.54643                      -1.27161                      90.57831
                      -5.55878                      -1.32162                      90.43714
                      -5.53351                      -1.37006                      90.29716
                      -5.47222                      -1.41389                      90.16715
                      -5.37875                      -1.45034                      90.05528
                      -5.25897                      -1.47714                      89.96858
                      -5.12042                      -1.49260                      89.91250
                      -4.97179                      -1.49574                      89.89057
                      -4.82243                      -1.48637                      89.90415
                      -4.68172                      -1.46507                      89.95241
                      -4.55850                      -1.43319                      90.03230
                      -4.46052                      -1.39273                      90.13880
                      -4.39393                      -1.34623                      90.26523
                      -4.95649                      -1.41449                      90.49733
                      -4.95649                      -1.41449                      90.49733
                      -4.95649                      -1.41449                      90.49733
                      -4.95649                      -1.41449                      90.49733
                      -4.95649                      -1.41449                      90.49733
                      -4.95649                      -1.41449                      90.49733
                      -4.95649                      -1.41449                      90.49733
                      -4.95649                      -1.41449                      90.49733
                      -4.95649                      -1.41449                      90.49733
                      -4.95649                      -1.41449                      90.49733
                      -4.95649                      -1.41449                      90.49733
                      -4.95649                      -1.41449                      90.49733
                      -4.95649                      -1.41449                      90.49733
                      -4.95649                      -1.41449                      90.49733
                      -4.95649                      -1.41449                      90.49733
                      -4.95649                      -1.41449                      90.49733
                      -4.95649                      -1.41449                      90.49733
                      -4.95649                      -1.41449                      90.49733
                      -4.95649                      -1.41449                      90.49733
                      -4.95649                      -1.41449                      90.49733
                      -4.95649                      -1.41449                      90.49733
                      -4.95649                      -1.41449                      90.49733
                      -4.95649                      -1.41449                      90.49733
                      -4.95649                      -1.41449                      90.49733
                      -4.95649                      -1.41449                      90.49733
        </DataArray>
      </Points>
      <Polys>
        <DataArray type="Int32" Name="connectivity" format="ascii">
      0      1     26     25
      1      2     27     26
      2      3     28     27
      3      4     29     28
      4      5     30     29
      5      6     31     30
      6      7     32     31
      7      8     33     32
      8      9     34     33
      9     10     35     34
     10     11     36     35
     11     12     37     36
     12     13     38     37
     13     14     39     38
     14     15     40     39
     15     16     41     40
     16     17     42     41
     17     18     43     42
     18     19     44     43
     19     20     45     44
     20     21     46     45
     21     22     47     46
     22     23     48     47
     23     24     49     48
     24      0     25     49
     25     26     51     50
     26     27     52     51
     27     28     53     52
     28     29     54     53
     29     30     55     54
     30     31     56     55
     31     32     57     56
     32     33     58     57
     33     34     59     58
     34     35     60     59
     35     36     61     60
     36     37     62     61
     37     38     63     62
     38     39     64     63
     39     40     65     64
     40     41     66     65
     41     42     67     66
     42     43     68     67
     43     44     69     68
     44     45     70     69
     45     46     71     70
     46     47     72     71
     47     48     73     72
     48     49     74     73
     49     25     50     74
     50     51     76     75
     51     52     77     76
     52     53     78     77
     53     54     79     78
     54     55     80     79
     55     56     81     80
     56     57     82     81
     57     58     83     82
     58     59     84     83
     59     60     85     84
     60     61     86     85
     61     62     87     86
     62     63     88     87
     63     64     89     88
     64     65     90     89
     65     66     91     90
     66     67     92     91
     67     68     93     92
     68     69     94     93
     69     70     95     94
     70     71     96     95
     71     72     97     96
     72     73     98     97
     73     74     99     98
     74     50     75     99
     75     76    101    100
     76     77    102    101
     77     78    103    102
     78     79    104    103
     79     80    105    104
     80     81    106    105
     81     82    107    106
     82     83    108    107
     83     84    109    108
     84     85    110    109
     85     86    111    110
     86     87    112    111
     87     88    113    112
     88     89    114    113
     89     90    115    114
     90     91    116    115
     91     92    117    116
     92     93    118    117
     93     94    119    118
     94     95    120    119
     95     96    121    120
     96     97    122    121
     97     98    123    122
     98     99    124    123
     99     75    100    124
    100    101    126    125
    101    102    127    126
    102    103    128    127
    103    104    129    128
    104    105    130    129
    105    106    131    130
    106    107    132    131
    107    108    133    132
    108    109    134    133
    109    110    135    134
    110    111    136    135
    111    112    137    136
    112    113    138    137
    113    114    139    138
    114    115    140    139
    115    116    141    140
    116    117    142    141
    117    118    143    142
    118    119    144    143
    119    120    145    144
    120    121    146    145
    121    122    147    146
    122    123    148    147
    123    124    149    148
    124    100    125    149
    125    126    151    150
    126    127    152    151
    127    128    153    152
    128    129    154    153
    129    130    155    154
    130    131    156    155
    131    132    157    156
    132    133    158    157
    133    134    159    158
    134    135    160    159
    135    136    161    160
    136    137    162    161
    137    138    163    162
    138    139    164    163
    139    140    165    164
    140    141    166    165
    141    142    167    166
    142    143    168    167
    143    144    169    168
    144    145    170    169
    145    146    171    170
    146    147    172    171
    147    148    173    172
    148    149    174    173
    149    125    150    174
    150    151    176    175
    151    152    177    176
    152    153    178    177
    153    154    179    178
    154    155    180    179
    155    156    181    180
    156    157    182    181
    157    158    183    182
    158    159    184    183
    159    160    185    184
    160    161    186    185
    161    162    187    186
    162    163    188    187
    163    164    189    188
    164    165    190    189
    165    166    191    190
    166    167    192    191
    167    168    193    192
    168    169    194    193
    169    170    195    194
    170    171    196    195
    171    172    197    196
    172    173    198    197
    173    174    199    198
    174    150    175    199
    175    176    201    200
    176    177    202    201
    177    178    203    202
    178    179    204    203
    179    180    205    204
    180    181    206    205
    181    182    207    206
    182    183    208    207
    183    184    209    208
    184    185    210    209
    185    186    211    210
    186    187    212    211
    187    188    213    212
    188    189    214    213
    189    190    215    214
    190    191    216    215
    191    192    217    216
    192    193    218    217
    193    194    219    218
    194    195    220    219
    195    196    221    220
    196    197    222    221
    197    198    223    222
    198    199    224    223
    199    175    200    224
    200    201    226    225
    201    202    227    226
    202    203    228    227
    203    204    229    228
    204    205    230    229
    205    206    231    230
    206    207    232    231
    207    208    233    232
    208    209    234    233
    209    210    235    234
    210    211    236    235
    211    212    237    236
    212    213    238    237
    213    214    239    238
    214    215    240    239
    215    216    241    240
    216    217    242    241
    217    218    243    242
    218    219    244    243
    219    220    245    244
    220    221    246    245
    221    222    247    246
    222    223    248    247
    223    224    249    248
    224    200    225    249
    225    226    251    250
    226    227    252    251
    227    228    253    252
    228    229    254    253
    229    230    255    254
    230    231    256    255
    231    232    257    256
    232    233    258    257
    233    234    259    258
    234    235    260    259
    235    236    261    260
    236    237    262    261
    237    238    263    262
    238    239    264    263
    239    240    265    264
    240    241    266    265
    241    242    267    266
    242    243    268    267
    243    244    269    268
    244    245    270    269
    245    246    271    270
    246    247    272    271
    247    248    273    272
    248    249    274    273
    249    225    250    274
    250    251    276    275
    251    252    277    276
    252    253    278    277
    253    254    279    278
    254    255    280    279
    255    256    281    280
    256    257    282    281
    257    258    283    282
    258    259    284    283
    259    260    285    284
    260    261    286    285
    261    262    287    286
    262    263    288    287
    263    264    289    288
    264    265    290    289
    265    266    291    290
    266    267    292    291
    267    268    293    292
    268    269    294    293
    269    270    295    294
    270    271    296    295
    271    272    297    296
    272    273    298    297
    273    274    299    298
    274    250    275    299
    275    276    301    300
    276    277    302    301
    277    278    303    302
    278    279    304    303
    279    280    305    304
    280    281    306    305
    281    282    307    306
    282    283    308    307
    283    284    309    308
    284    285    310    309
    285    286    311    310
    286    287    312    311
    287    288    313    312
    288    289    314    313
    289    290    315    314
    290    291    316    315
    291    292    317    316
    292    293    318    317
    293    294    319    318
    294    295    320    319
    295    296    321    320
    296    297    322    321
    297    298    323    322
    298    299    324    323
    299    275    300    324
    300    301    326    325
    301    302    327    326
    302    303    328    327
    303    304    329    328
    304    305    330    329
    305    306    331    330
    306    307    332    331
    307    308    333    332
    308    309    334    333
    309    310    335    334
    310    311    336    335
    311    312    337    336
    312    313    338    337
    313    314    339    338
    314    315    340    339
    315    316    341    340
    316    317    342    341
    317    318    343    342
    318    319    344    343
    319    320    345    344
    320    321    346    345
    321    322    347    346
    322    323    348    347
    323    324    349    348
    324    300    325    349
    325    326    351    350
    326    327    352    351
    327    328    353    352
    328    329    354    353
    329    330    355    354
    330    331    356    355
    331    332    357    356
    332    333    358    357
    333    334    359    358
    334    335    360    359
    335    336    361    360
    336    337    362    361
    337    338    363    362
    338    339    364    363
    339    340    365    364
    340    341    366    365
    341    342    367    366
    342    343    368    367
    343    344    369    368
    344    345    370    369
    345    346    371    370
    346    347    372    371
    347    348    373    372
    348    349    374    373
    349    325    350    374
    350    351    376    375
    351    352    377    376
    352    353    378    377
    353    354    379    378
    354    355    380    379
    355    356    381    380
    356    357    382    381
    357    358    383    382
    358    359    384    383
    359    360    385    384
    360    361    386    385
    361    362    387    386
    362    363    388    387
    363    364    389    388
    364    365    390    389
    365    366    391    390
    366    367    392    391
    367    368    393    392
    368    369    394    393
    369    370    395    394
    370    371    396    395
    371    372    397    396
    372    373    398    397
    373    374    399    398
    374    350    375    399
    375    376    401    400
    376    377    402    401
    377    378    403    402
    378    379    404    403
    379    380    405    404
    380    381    406    405
    381    382    407    406
    382    383    408    407
    383    384    409    408
    384    385    410    409
    385    386    411    410
    386    387    412    411
    387    388    413    412
    388    389    414    413
    389    390    415    414
    390    391    416    415
    391    392    417    416
    392    393    418    417
    393    394    419    418
    394    395    420    419
    395    396    421    420
    396    397    422    421
    397    398    423    422
    398    399    424    423
    399    375    400    424
    400    401    426    425
    401    402    427    426
    402    403    428    427
    403    404    429    428
    404    405    430    429
    405    406    431    430
    406    407    432    431
    407    408    433    432
    408    409    434    433
    409    410    435    434
    410    411    436    435
    411    412    437    436
    412    413    438    437
    413    414    439    438
    414    415    440    439
    415    416    441    440
    416    417    442    441
    417    418    443    442
    418    419    444    443
    419    420    445    444
    420    421    446    445
    421    422    447    446
    422    423    448    447
    423    424    449    448
    424    400    425    449
    425    426    451    450
    426    427    452    451
    427    428    453    452
    428    429    454    453
    429    430    455    454
    430    431    456    455
    431    432    457    456
    432    433    458    457
    433    434    459    458
    434    435    460    459
    435    436    461    460
    436    437    462    461
    437    438    463    462
    438    439    464    463
    439    440    465    464
    440    441    466    465
    441    442    467    466
    442    443    468    467
    443    444    469    468
    444    445    470    469
    445    446    471    470
    446    447    472    471
    447    448    473    472
    448    449    474    473
    449    425    450    474
    450    451    476    475
    451    452    477    476
    452    453    478    477
    453    454    479    478
    454    455    480    479
    455    456    481    480
    456    457    482    481
    457    458    483    482
    458    459    484    483
    459    460    485    484
    460    461    486    485
    461    462    487    486
    462    463    488    487
    463    464    489    488
    464    465    490    489
    465    466    491    490
    466    467    492    491
    467    468    493    492
    468    469    494    493
    469    470    495    494
    470    471    496    495
    471    472    497    496
    472    473    498    497
    473    474    499    498
    474    450    475    499
    475    476    501    500
    476    477    502    501
    477    478    503    502
    478    479    504    503
    479    480    505    504
    480    481    506    505
    481    482    507    506
    482    483    508    507
    483    484    509    508
    484    485    510    509
    485    486    511    510
    486    487    512    511
    487    488    513    512
    488    489    514    513
    489    490    515    514
    490    491    516    515
    491    492    517    516
    492    493    518    517
    493    494    519    518
    494    495    520    519
    495    496    521    520
    496    497    522    521
    497    498    523    522
    498    499    524    523
    499    475    500    524
    500    501    526    525
    501    502    527    526
    502    503    528    527
    503    504    529    528
    504    505    530    529
    505    506    531    530
    506    507    532    531
    507    508    533    532
    508    509    534    533
    509    510    535    534
    510    511    536    535
    511    512    537    536
    512    513    538    537
    513    514    539    538
    514    515    540    539
    515    516    541    540
    516    517    542    541
    517    518    543    542
    518    519    544    543
    519    520    545    544
    520    521    546    545
    521    522    547    546
    522    523    548    547
    523    524    549    548
    524    500    525    549
    525    526    551    550
    526    527    552    551
    527    528    553    552
    528    529    554    553
    529    530    555    554
    530    531    556    555
    531    532    557    556
    532    533    558    557
    533    534    559    558
    534    535    560    559
    535    536    561    560
    536    537    562    561
    537    538    563    562
    538    539    564    563
    539    540    565    564
    540    541    566    565
    541    542    567    566
    542    543    568    567
    543    544    569    568
    544    545    570    569
    545    546    571    570
    546    547    572    571
    547    548    573    572
    548    549    574    573
    549    525    550    574
    550    551    576    575
    551    552    577    576
    552    553    578    577
    553    554    579    578
    554    555    580    579
    555    556    581    580
    556    557    582    581
    557    558    583    582
    558    559    584    583
    559    560    585    584
    560    561    586    585
    561    562    587    586
    562    563    588    587
    563    564    589    588
    564    565    590    589
    565    566    591    590
    566    567    592    591
    567    568    593    592
    568    569    594    593
    569    570    595    594
    570    571    596    595
    571    572    597    596
    572    573    598    597
    573    574    599    598
    574    550    575    599
    575    576    601    600
    576    577    602    601
    577    578    603    602
    578    579    604    603
    579    580    605    604
    580    581    606    605
    581    582    607    606
    582    583    608    607
    583    584    609    608
    584    585    610    609
    585    586    611    610
    586    587    612    611
    587    588    613    612
    588    589    614    613
    589    590    615    614
    590    591    616    615
    591    592    617    616
    592    593    618    617
    593    594    619    618
    594    595    620    619
    595    596    621    620
    596    597    622    621
    597    598    623    622
    598    599    624    623
    599    575    600    624
        </DataArray>
        <DataArray type="Int32" Name="offsets" format="ascii">
      4
      8
     12
     16
     20
     24
     28
     32
     36
     40
     44
     48
     52
     56
     60
     64
     68
     72
     76
     80
     84
     88
     92
     96
    100
    104
    108
    112
    116
    120
    124
    128
    132
    136
    140
    144
    148
    152
    156
    160
    164
    168
    172
    176
    180
    184
    188
    192
    196
    200
    204
    208
    212
    216
    220
    224
    228
    232
    236
    240
    244
    248
    252
    256
    260
    264
    268
    272
    276
    280
    284
    288
    292
    296
    300
    304
    308
    312
    316
    320
    324
    328
    332
    336
    340
    344
    348
    352
    356
    360
    364
    368
    372
    376
    380
    384
    388
    392
    396
    400
    404
    408
    412
    416
    420
    424
    428
    432
    436
    440
    444
    448
    452
    456
    460
    464
    468
    472
    476
    480
    484
    488
    492
    496
    500
    504
    508
    512
    516
    520
    524
    528
    532
    536
    540
    544
    548
    552
    556
    560
    564
    568
    572
    576
    580
    584
    588
    592
    596
    600
    604
    608
    612
    616
    620
    624
    628
    632
    636
    640
    644
    648
    652
    656
    660
    664
    668
    672
    676
    680
    684
    688
    692
    696
    700
    704
    708
    712
    716
    720
    724
    728
    732
    736
    740
    744
    748
    752
    756
    760
    764
    768
    772
    776
    780
    784
    788
    792
    796
    800
    804
    808
    812
    816
    820
    824
    828
    832
    836
    840
    844
    848
    852
    856
    860
    864
    868
    872
    876
    880
    884
    888
    892
    896
    900
    904
    908
    912
    916
    920
    924
    928
    932
    936
    940
    944
    948
    952
    956
    960
    964
    968
    972
    976
    980
    984
    988
    992
    996
   1000
   1004
   1008
   1012
   1016
   1020
   1024
   1028
   1032
   1036
   1040
   1044
   1048
   1052
   1056
   1060
   1064
   1068
   1072
   1076
   1080
   1084
   1088
   1092
   1096
   1100
   1104
   1108
   1112
   1116
   1120
   1124
   1128
   1132
   1136
   1140
   1144
   1148
   1152
   1156
   1160
   1164
   1168
   1172
   1176
   1180
   1184
   1188
   1192
   1196
   1200
   1204
   1208
   1212
   1216
   1220
   1224
   1228
   1232
   1236
   1240
   1244
   1248
   1252
   1256
   1260
   1264
   1268
   1272
   1276
   1280
   1284
   1288
   1292
   1296
   1300
   1304
   1308
   1312
   1316
   1320
   1324
   1328
   1332
   1336
   1340
   1344
   1348
   1352
   1356
   1360
   1364
   1368
   1372
   1376
   1380
   1384
   1388
   1392
   1396
   1400
   1404
   1408
   1412
   1416
   1420
   1424
   1428
   1432
   1436
   1440
   1444
   1448
   1452
   1456
   1460
   1464
   1468
   1472
   1476
   1480
   1484
   1488
   1492
   1496
   1500
   1504
   1508
   1512
   1516
   1520
   1524
   1528
   1532
   1536
   1540
   1544
   1548
   1552
   1556
   1560
   1564
   1568
   1572
   1576
   1580
   1584
   1588
   1592
   1596
   1600
   1604
   1608
   1612
   1616
   1620
   1624
   1628
   1632
   1636
   1640
   1644
   1648
   1652
   1656
   1660
   1664
   1668
   1672
   1676
   1680
   1684
   1688
   1692
   1696
   1700
   1704
   1708
   1712
   1716
   1720
   1724
   1728
   1732
   1736
   1740
   1744
   1748
   1752
   1756
   1760
   1764
   1768
   1772
   1776
   1780
   1784
   1788
   1792
   1796
   1800
   1804
   1808
   1812
   1816
   1820
   1824
   1828
   1832
   1836
   1840
   1844
   1848
   1852
   1856
   1860
   1864
   1868
   1872
   1876
   1880
   1884
   1888
   1892
   1896
   1900
   1904
   1908
   1912
   1916
   1920
   1924
   1928
   1932
   1936
   1940
   1944
   1948
   1952
   1956
   1960
   1964
   1968
   1972
   1976
   1980
   1984
   1988
   1992
   1996
   2000
   2004
   2008
   2012
   2016
   2020
   2024
   2028
   2032
   2036
   2040
   2044
   2048
   2052
   2056
   2060
   2064
   2068
   2072
   2076
   2080
   2084
   2088
   2092
   2096
   2100
   2104
   2108
   2112
   2116
   2120
   2124
   2128
   2132
   2136
   2140
   2144
   2148
   2152
   2156
   2160
   2164
   2168
   2172
   2176
   2180
   2184
   2188
   2192
   2196
   2200
   2204
   2208
   2212
   2216
   2220
   2224
   2228
   2232
   2236
   2240
   2244
   2248
   2252
   2256
   2260
   2264
   2268
   2272
   2276
   2280
   2284
   2288
   2292
   2296
   2300
   2304
   2308
   2312
   2316
   2320
   2324
   2328
   2332
   2336
   2340
   2344
   2348
   2352
   2356
   2360
   2364
   2368
   2372
   2376
   2380
   2384
   2388
   2392
   2396
   2400
        </DataArray>
      </Polys>
    </Piece>
  </PolyData>
</VTKFile>
