<?xml version="1.0"?>
<VTKFile type="PolyData" version="0.1" byte_order="LittleEndian">
  <PolyData>
    <Piece NumberOfPoints="     19" NumberOfVerts="  0" NumberOfLines="     18"
           NumberOfStrips="  0" NumberOfPolys="      0">
      <Points>
        <DataArray type="Float32" NumberOfComponents="3" format="ascii">
                      -5.19520                       0.14259                      88.51961
                      -5.37231                       0.27601                      87.17056
                      -5.73944                       0.63752                      84.48301
                      -6.10186                       1.04427                      81.79851
                      -6.53285                       1.58031                      78.44155
                      -6.94870                       2.08266                      74.38708
                      -7.27727                       2.45722                      70.31145
                      -7.53560                       2.83088                      66.23026
                      -7.71730                       3.20202                      62.14428
                      -7.82226                       3.57264                      58.05507
                      -7.85450                       3.94646                      53.96440
                      -7.81972                       4.32194                      49.87341
                      -7.72902                       4.69890                      45.78319
                      -7.59782                       5.07699                      41.69442
                      -7.44363                       5.45587                      37.60742
                      -7.31498                       5.77166                      34.20257
                      -7.22312                       6.01609                      31.47825
                      -7.14489                       6.20552                      28.74837
                      -7.12286                       6.34089                      27.38703
        </DataArray>
      </Points>
      <PointData>
        <DataArray type="Float32" Name="TranslationalVelocity" NumberOfComponents="3" format="ascii">
                       0.03904                       4.68654                       0.44626
                       0.07489                       8.95611                       0.86388
                       0.16897                      17.46182                       1.99507
                       0.26995                      25.95073                       3.26734
                       0.39396                      36.55010                       4.94308
                       0.48722                      49.30785                       6.51273
                       0.52281                      62.09003                       7.68294
                       0.53049                      74.85229                       8.84943
                       0.50605                      87.59138                      10.00610
                       0.44730                     100.30369                      11.15833
                       0.35394                     112.98647                      12.31679
                       0.22627                     125.63965                      13.47619
                       0.06718                     138.26473                      14.63584
                      -0.11789                     150.86538                      15.79506
                      -0.32071                     163.44704                      16.95384
                      -0.49544                     173.92363                      17.91875
                      -0.63360                     182.30659                      18.66586
                      -0.77028                     190.70910                      19.24458
                      -0.83003                     194.90182                      19.66049
        </DataArray>
        <DataArray type="Float32" Name="RotationalVelocity" NumberOfComponents="3" format="ascii">
                       3.12964                       0.00000                      -0.27381
                       3.12905                       0.00054                      -0.27369
                       3.12728                       0.00205                      -0.27319
                       3.12495                       0.00414                      -0.27254
                       3.12161                       0.00746                      -0.27165
                       3.11739                       0.01241                      -0.27031
                       3.11325                       0.01820                      -0.26795
                       3.10935                       0.02460                      -0.26355
                       3.10567                       0.03135                      -0.25597
                       3.10214                       0.03817                      -0.24421
                       3.09862                       0.04472                      -0.22766
                       3.09504                       0.05066                      -0.20632
                       3.09137                       0.05558                      -0.18104
                       3.08777                       0.05907                      -0.15377
                       3.08455                       0.06067                      -0.12777
                       3.08254                       0.06026                      -0.11028
                       3.08175                       0.05853                      -0.10180
                       3.08204                       0.05538                      -0.10079
                       3.08271                       0.05322                      -0.10391
        </DataArray>
        <DataArray type="Float32" Name="TranslationalAcceleration" NumberOfComponents="3" format="ascii">
                       1.28321                      -1.40731                      14.66718
                       1.54276                      -1.73672                      17.73040
                       4.50023                      -5.88587                      50.61448
                       7.25449                     -10.21103                      80.76631
                      10.37195                     -15.65045                     115.88800
                      13.59378                     -20.60474                     155.86898
                      16.26211                     -24.24159                     194.83008
                      18.42209                     -27.88175                     233.56403
                      20.18543                     -31.52296                     272.54387
                      21.70019                     -35.16065                     311.90842
                      23.13840                     -38.78465                     351.56105
                      24.69384                     -42.32472                     391.27293
                      26.56729                     -45.73372                     430.77916
                      28.95808                     -48.98691                     469.87860
                      32.05431                     -52.09377                     508.53285
                      35.30751                     -54.61477                     540.55513
                      38.39588                     -56.55990                     566.26204
                      41.98284                     -58.04439                     592.37531
                      43.91880                     -59.22920                     605.63545
        </DataArray>
        <DataArray type="Float32" Name="OrientationX" NumberOfComponents="3" format="ascii">
                       0.99146                       0.00415                      -0.13033
                       0.99163                       0.00404                      -0.12902
                       0.99217                       0.00381                      -0.12484
                       0.99292                       0.00356                      -0.11872
                       0.99406                       0.00328                      -0.10882
                       0.99555                       0.00321                      -0.09418
                       0.99700                       0.00381                      -0.07729
                       0.99825                       0.00556                      -0.05890
                       0.99917                       0.00901                      -0.03971
                       0.99968                       0.01467                      -0.02045
                       0.99973                       0.02300                      -0.00191
                       0.99930                       0.03433                       0.01505
                       0.99837                       0.04885                       0.02948
                       0.99697                       0.06647                       0.04030
                       0.99514                       0.08689                       0.04624
                       0.99332                       0.10553                       0.04661
                       0.99170                       0.12116                       0.04307
                       0.98993                       0.13699                       0.03554
                       0.98900                       0.14483                       0.03012
        </DataArray>
        <DataArray type="Float32" Name="OrientationY" NumberOfComponents="3" format="ascii">
                      -0.00829                      -0.99546                      -0.09479
                      -0.00829                      -0.99546                      -0.09486
                      -0.00814                      -0.99544                      -0.09503
                      -0.00782                      -0.99542                      -0.09525
                      -0.00718                      -0.99540                      -0.09558
                      -0.00588                      -0.99536                      -0.09606
                      -0.00369                      -0.99532                      -0.09661
                      -0.00019                      -0.99527                      -0.09718
                       0.00509                      -0.99520                      -0.09771
                       0.01260                      -0.99509                      -0.09813
                       0.02270                      -0.99489                      -0.09835
                       0.03565                      -0.99452                      -0.09829
                       0.05152                      -0.99386                      -0.09788
                       0.07012                      -0.99280                      -0.09715
                       0.09101                      -0.99119                      -0.09618
                       0.10958                      -0.98940                      -0.09532
                       0.12478                      -0.98765                      -0.09473
                       0.13979                      -0.98567                      -0.09436
                       0.14706                      -0.98462                      -0.09430
        </DataArray>
        <DataArray type="Float32" Name="OrientationZ" NumberOfComponents="3" format="ascii">
                      -0.13013                       0.09506                      -0.98693
                      -0.12882                       0.09513                      -0.98709
                      -0.12463                       0.09530                      -0.98762
                      -0.11852                       0.09550                      -0.98835
                      -0.10863                       0.09579                      -0.98946
                      -0.09405                       0.09619                      -0.99091
                      -0.07730                       0.09660                      -0.99232
                      -0.05916                       0.09702                      -0.99352
                      -0.04040                       0.09743                      -0.99442
                      -0.02179                       0.09784                      -0.99496
                      -0.00417                       0.09828                      -0.99515
                       0.01159                       0.09875                      -0.99504
                       0.02452                       0.09924                      -0.99476
                       0.03355                       0.09968                      -0.99445
                       0.03748                       0.09992                      -0.99429
                       0.03606                       0.09979                      -0.99436
                       0.03106                       0.09932                      -0.99457
                       0.02211                       0.09838                      -0.99490
                       0.01600                       0.09770                      -0.99509
        </DataArray>
        <DataArray type="Float32" Name="Force" NumberOfComponents="3" format="ascii">
                      -0.18015                     -21.62466                      -2.05912
                     353.19103                    -176.80713                     -63.12042
                     492.69508                    -482.34802                    -108.61181
                     477.48445                    -694.45786                    -124.07509
                    5579.75892                     827.67188                    -532.99952
                    7788.93158                     942.66784                    -648.74397
                    9678.04325                     911.36691                    -666.44882
                   12868.09592                     954.12143                    -674.82240
                   13753.10914                     752.72890                    -486.68326
                   15165.66525                     720.74519                    -263.35364
                   17703.39225                     692.80517                      -8.19573
                   18311.39508                     700.80902                     279.79322
                   17729.66058                     836.70565                     516.19451
                   16635.90042                     846.62140                     641.16154
                   13635.05054                     752.26508                     584.96197
                    9686.46218                     487.02035                     397.26289
                    5472.18714                     166.45684                     186.58377
                    1347.05211                     -86.84470                      21.66992
                  -18885.93440                    -171.55981                    -320.08319
        </DataArray>
        <DataArray type="Float32" Name="Moment" NumberOfComponents="3" format="ascii">
                       0.00000                       0.00000                       0.00000
                       0.00000                       0.00000                       0.00000
                       0.00000                       0.00000                       0.00000
                       0.00000                       0.00000                       0.00000
                     180.93177                    -158.43788                    1648.07103
                     363.91946                    -368.14110                    3834.34628
                     414.54968                    -510.24280                    5322.25621
                     462.69106                    -743.84223                    7771.28486
                     442.54807                   -1041.17134                   10895.57107
                     269.67991                   -1174.85551                   12314.63428
                      55.70708                   -1266.24035                   13293.06998
                    -163.60175                   -1337.07203                   14056.12501
                    -277.71903                   -1071.32976                   11275.30733
                    -368.71604                   -1038.46576                   10938.13364
                    -386.28165                    -973.33446                   10255.66734
                    -346.54842                    -907.67550                    9562.64654
                    -259.23988                    -788.81998                    8306.79791
                     -90.22826                    -386.01550                    4061.79443
                     -57.62879                    -340.68499                    3582.88535
        </DataArray>
      </PointData>
      <Lines>
        <DataArray type="Int32" Name="connectivity" format="ascii">
      0      1
      1      2
      2      3
      3      4
      4      5
      5      6
      6      7
      7      8
      8      9
      9     10
     10     11
     11     12
     12     13
     13     14
     14     15
     15     16
     16     17
     17     18
        </DataArray>
        <DataArray type="Int32" Name="offsets" format="ascii">
      2
      4
      6
      8
     10
     12
     14
     16
     18
     20
     22
     24
     26
     28
     30
     32
     34
     36
        </DataArray>
      </Lines>
    </Piece>
  </PolyData>
</VTKFile>
