<?xml version="1.0"?>
<VTKFile type="PolyData" version="0.1" byte_order="LittleEndian">
  <PolyData>
    <Piece NumberOfPoints="    625" NumberOfVerts="  0" NumberOfLines="      0"
           NumberOfStrips="  0" NumberOfPolys="    600">
      <Points>
        <DataArray type="Float32" NumberOfComponents="3" format="ascii">
                      -4.90428                      -1.02166                      91.09410
                      -4.90428                      -1.02166                      91.09410
                      -4.90428                      -1.02166                      91.09410
                      -4.90428                      -1.02166                      91.09410
                      -4.90428                      -1.02166                      91.09410
                      -4.90428                      -1.02166                      91.09410
                      -4.90428                      -1.02166                      91.09410
                      -4.90428                      -1.02166                      91.09410
                      -4.90428                      -1.02166                      91.09410
                      -4.90428                      -1.02166                      91.09410
                      -4.90428                      -1.02166                      91.09410
                      -4.90428                      -1.02166                      91.09410
                      -4.90428                      -1.02166                      91.09410
                      -4.90428                      -1.02166                      91.09410
                      -4.90428                      -1.02166                      91.09410
                      -4.90428                      -1.02166                      91.09410
                      -4.90428                      -1.02166                      91.09410
                      -4.90428                      -1.02166                      91.09410
                      -4.90428                      -1.02166                      91.09410
                      -4.90428                      -1.02166                      91.09410
                      -4.90428                      -1.02166                      91.09410
                      -4.90428                      -1.02166                      91.09410
                      -4.90428                      -1.02166                      91.09410
                      -4.90428                      -1.02166                      91.09410
                      -4.90428                      -1.02166                      91.09410
                      -4.31506                      -0.93652                      90.95068
                      -4.34267                      -1.04568                      90.85117
                      -4.40607                      -1.14797                      90.76119
                      -4.50128                      -1.23699                      90.68640
                      -4.62231                      -1.30712                      90.63150
                      -4.76156                      -1.35397                      90.59994
                      -4.91027                      -1.37458                      90.59370
                      -5.05912                      -1.36767                      90.61317
                      -5.19873                      -1.33367                      90.65713
                      -5.32034                      -1.27472                      90.72282
                      -5.41632                      -1.19452                      90.80611
                      -5.48062                      -1.09810                      90.90177
                      -5.50920                      -0.99153                      91.00378
                      -5.50028                      -0.88151                      91.10574
                      -5.45442                      -0.77494                      91.20124
                      -5.37448                      -0.67852                      91.28428
                      -5.26550                      -0.59832                      91.34964
                      -5.13433                      -0.53936                      91.39322
                      -4.98920                      -0.50536                      91.41227
                      -4.83924                      -0.49845                      91.40560
                      -4.69387                      -0.51907                      91.37363
                      -4.56222                      -0.56592                      91.31837
                      -4.45256                      -0.63605                      91.24328
                      -4.37178                      -0.72506                      91.15310
                      -4.32497                      -0.82736                      91.05348
                      -4.09423                      -0.85138                      90.83949
                      -4.13242                      -1.00236                      90.70185
                      -4.22012                      -1.14385                      90.57740
                      -4.35180                      -1.26697                      90.47395
                      -4.51920                      -1.36397                      90.39802
                      -4.71180                      -1.42876                      90.35436
                      -4.91749                      -1.45728                      90.34573
                      -5.12336                      -1.44772                      90.37267
                      -5.31646                      -1.40070                      90.43347
                      -5.48467                      -1.31916                      90.52433
                      -5.61741                      -1.20822                      90.63953
                      -5.70635                      -1.07487                      90.77184
                      -5.74589                      -0.92747                      90.91294
                      -5.73355                      -0.77529                      91.05396
                      -5.67011                      -0.62789                      91.18605
                      -5.55955                      -0.49454                      91.30090
                      -5.40882                      -0.38360                      91.39130
                      -5.22739                      -0.30206                      91.45157
                      -5.02666                      -0.25504                      91.47792
                      -4.81924                      -0.24548                      91.46870
                      -4.61817                      -0.27400                      91.42448
                      -4.43608                      -0.33879                      91.34804
                      -4.28441                      -0.43579                      91.24420
                      -4.17269                      -0.55891                      91.11946
                      -4.10794                      -0.70040                      90.98167
                      -3.93983                      -0.76624                      90.73411
                      -3.98553                      -0.94690                      90.56941
                      -4.09046                      -1.11621                      90.42049
                      -4.24803                      -1.26353                      90.29671
                      -4.44834                      -1.37960                      90.20585
                      -4.67880                      -1.45713                      90.15361
                      -4.92493                      -1.49125                      90.14329
                      -5.17127                      -1.47982                      90.17552
                      -5.40233                      -1.42355                      90.24828
                      -5.60361                      -1.32598                      90.35700
                      -5.76245                      -1.19324                      90.49484
                      -5.86886                      -1.03366                      90.65316
                      -5.91618                      -0.85729                      90.82200
                      -5.90142                      -0.67519                      90.99074
                      -5.82550                      -0.49882                      91.14880
                      -5.69321                      -0.33925                      91.28623
                      -5.51285                      -0.20651                      91.39440
                      -5.29575                      -0.10894                      91.46652
                      -5.05556                      -0.05267                      91.49805
                      -4.80737                      -0.04123                      91.48701
                      -4.56677                      -0.07535                      91.43410
                      -4.34888                      -0.15289                      91.34264
                      -4.16739                      -0.26896                      91.21837
                      -4.03371                      -0.41628                      91.06911
                      -3.95623                      -0.58558                      90.90424
                      -3.82241                      -0.68110                      90.63196
                      -3.87390                      -0.88468                      90.44637
                      -3.99215                      -1.07547                      90.27856
                      -4.16971                      -1.24148                      90.13907
                      -4.39543                      -1.37228                      90.03668
                      -4.65513                      -1.45965                      89.97782
                      -4.93249                      -1.49810                      89.96618
                      -5.21008                      -1.48521                      90.00250
                      -5.47046                      -1.42180                      90.08449
                      -5.69727                      -1.31185                      90.20700
                      -5.87626                      -1.16227                      90.36234
                      -5.99618                      -0.98245                      90.54074
                      -6.04950                      -0.78370                      90.73100
                      -6.03287                      -0.57851                      90.92116
                      -5.94732                      -0.37975                      91.09926
                      -5.79824                      -0.19994                      91.25413
                      -5.59500                      -0.05035                      91.37603
                      -5.35036                       0.05960                      91.45729
                      -5.07969                       0.12301                      91.49283
                      -4.80001                       0.13589                      91.48039
                      -4.52889                       0.09744                      91.42076
                      -4.28336                       0.01007                      91.31770
                      -4.07884                      -0.12073                      91.17767
                      -3.92820                      -0.28674                      91.00947
                      -3.84089                      -0.47752                      90.82368
                      -3.73045                      -0.59597                      90.53204
                      -3.78657                      -0.81781                      90.32980
                      -3.91542                      -1.02572                      90.14693
                      -4.10891                      -1.20662                      89.99493
                      -4.35489                      -1.34916                      89.88335
                      -4.63789                      -1.44436                      89.81921
                      -4.94013                      -1.48626                      89.80653
                      -5.24263                      -1.47222                      89.84610
                      -5.52638                      -1.40313                      89.93545
                      -5.77354                      -1.28331                      90.06896
                      -5.96859                      -1.12031                      90.23823
                      -6.09927                      -0.92436                      90.43264
                      -6.15737                      -0.70777                      90.63997
                      -6.13924                      -0.48416                      90.84719
                      -6.04602                      -0.26758                      91.04127
                      -5.88357                      -0.07163                      91.21004
                      -5.66209                       0.09138                      91.34287
                      -5.39550                       0.21119                      91.43143
                      -5.10055                       0.28029                      91.47015
                      -4.79577                       0.29433                      91.45660
                      -4.50032                       0.25243                      91.39162
                      -4.23276                       0.15722                      91.27931
                      -4.00990                       0.01469                      91.12671
                      -3.84574                      -0.16621                      90.94343
                      -3.75060                      -0.37412                      90.74096
                      -3.65805                      -0.51083                      90.43383
                      -3.71788                      -0.74737                      90.21819
                      -3.85527                      -0.96904                      90.02322
                      -4.06157                      -1.16193                      89.86115
                      -4.32384                      -1.31390                      89.74219
                      -4.62558                      -1.41541                      89.67379
                      -4.94784                      -1.46009                      89.66027
                      -5.27038                      -1.44512                      89.70247
                      -5.57291                      -1.37144                      89.79773
                      -5.83644                      -1.24369                      89.94008
                      -6.04441                      -1.06989                      90.12057
                      -6.18375                      -0.86097                      90.32785
                      -6.24570                      -0.63004                      90.54891
                      -6.22637                      -0.39162                      90.76985
                      -6.12697                      -0.16069                      90.97679
                      -5.95376                       0.04824                      91.15673
                      -5.71761                       0.22204                      91.29836
                      -5.43336                       0.34979                      91.39279
                      -5.11888                       0.42346                      91.43407
                      -4.79392                       0.43843                      91.41962
                      -4.47890                       0.39376                      91.35034
                      -4.19362                       0.29224                      91.23059
                      -3.95600                       0.14027                      91.06789
                      -3.78097                      -0.05261                      90.87246
                      -3.67952                      -0.27429                      90.65659
                      -3.60172                      -0.42569                      90.33703
                      -3.66452                      -0.67398                      90.11068
                      -3.80874                      -0.90667                      89.90601
                      -4.02530                      -1.10914                      89.73589
                      -4.30059                      -1.26867                      89.61102
                      -4.61733                      -1.37523                      89.53922
                      -4.95561                      -1.42212                      89.52503
                      -5.29417                      -1.40641                      89.56932
                      -5.61174                      -1.32907                      89.66932
                      -5.88836                      -1.19497                      89.81874
                      -6.10666                      -1.01254                      90.00820
                      -6.25292                      -0.79323                      90.22578
                      -6.31795                      -0.55082                      90.45783
                      -6.29766                      -0.30056                      90.68975
                      -6.19333                      -0.05815                      90.90697
                      -6.01151                       0.16116                      91.09585
                      -5.76362                       0.34359                      91.24452
                      -5.46525                       0.47769                      91.34364
                      -5.13514                       0.55503                      91.38697
                      -4.79404                       0.57074                      91.37180
                      -4.46336                       0.52385                      91.29908
                      -4.16391                       0.41729                      91.17338
                      -3.91447                       0.25776                      91.00260
                      -3.73075                       0.05529                      90.79746
                      -3.62426                      -0.17740                      90.57086
                      -3.55926                      -0.34055                      90.24145
                      -3.62440                      -0.59806                      90.00669
                      -3.77397                      -0.83939                      89.79442
                      -3.99857                      -1.04938                      89.61799
                      -4.28409                      -1.21483                      89.48847
                      -4.61258                      -1.32534                      89.41402
                      -4.96342                      -1.37398                      89.39930
                      -5.31455                      -1.35768                      89.44523
                      -5.64391                      -1.27747                      89.54895
                      -5.93080                      -1.13839                      89.70392
                      -6.15721                      -0.94918                      89.90040
                      -6.30890                      -0.72173                      90.12607
                      -6.37634                      -0.47033                      90.36672
                      -6.35529                      -0.21077                      90.60725
                      -6.24709                       0.04063                      90.83254
                      -6.05852                       0.26808                      91.02844
                      -5.80143                       0.45729                      91.18263
                      -5.49198                       0.59637                      91.28542
                      -5.14962                       0.67657                      91.33036
                      -4.79585                       0.69287                      91.31463
                      -4.45290                       0.64424                      91.23921
                      -4.14232                       0.53372                      91.10884
                      -3.88363                       0.36827                      90.93172
                      -3.69308                       0.15829                      90.71897
                      -3.58265                      -0.08304                      90.48395
                      -3.52923                      -0.25541                      90.14695
                      -3.59612                      -0.51987                      89.90585
                      -3.74973                      -0.76771                      89.68786
                      -3.98039                      -0.98336                      89.50667
                      -4.27361                      -1.15328                      89.37366
                      -4.61097                      -1.26677                      89.29719
                      -4.97127                      -1.31672                      89.28207
                      -5.33187                      -1.29998                      89.32925
                      -5.67012                      -1.21761                      89.43576
                      -5.96475                      -1.07478                      89.59491
                      -6.19727                      -0.88047                      89.79670
                      -6.35305                      -0.64688                      90.02845
                      -6.42231                      -0.38869                      90.27560
                      -6.40070                      -0.12213                      90.52262
                      -6.28957                       0.13605                      90.75399
                      -6.09591                       0.36964                      90.95517
                      -5.83189                       0.56395                      91.11352
                      -5.51410                       0.70678                      91.21909
                      -5.16249                       0.78915                      91.26524
                      -4.79918                       0.80589                      91.24909
                      -4.44698                       0.75594                      91.17163
                      -4.12802                       0.64245                      91.03775
                      -3.86235                       0.47254                      90.85584
                      -3.66666                       0.25688                      90.63735
                      -3.55324                       0.00904                      90.39599
                      -3.51066                      -0.17028                      90.05345
                      -3.57878                      -0.43959                      89.80793
                      -3.73520                      -0.69198                      89.58594
                      -3.97009                      -0.91158                      89.40142
                      -4.26869                      -1.08461                      89.26597
                      -4.61224                      -1.20019                      89.18810
                      -4.97916                      -1.25106                      89.17271
                      -5.34638                      -1.23401                      89.22075
                      -5.69083                      -1.15013                      89.32921
                      -5.99087                      -1.00468                      89.49128
                      -6.22765                      -0.80680                      89.69678
                      -6.38629                      -0.56892                      89.93278
                      -6.45682                      -0.30600                      90.18447
                      -6.43482                      -0.03455                      90.43602
                      -6.32165                       0.22837                      90.67163
                      -6.12444                       0.46625                      90.87650
                      -5.85557                       0.66413                      91.03776
                      -5.53195                       0.80958                      91.14526
                      -5.17389                       0.89346                      91.19227
                      -4.80391                       0.91051                      91.17581
                      -4.44524                       0.85964                      91.09694
                      -4.12043                       0.74406                      90.96059
                      -3.84989                       0.57103                      90.77535
                      -3.65061                       0.35142                      90.55285
                      -3.53511                       0.09903                      90.30707
                      -3.50293                      -0.08514                      89.96090
                      -3.57178                      -0.35732                      89.71276
                      -3.72987                      -0.61240                      89.48841
                      -3.96726                      -0.83435                      89.30192
                      -4.26905                      -1.00922                      89.16503
                      -4.61626                      -1.12603                      89.08633
                      -4.98708                      -1.17744                      89.07077
                      -5.35821                      -1.16021                      89.11933
                      -5.70634                      -1.07543                      89.22895
                      -6.00958                      -0.92843                      89.39274
                      -6.24888                      -0.72845                      89.60043
                      -6.40921                      -0.48804                      89.83895
                      -6.48050                      -0.22231                      90.09331
                      -6.45826                       0.05203                      90.34755
                      -6.34388                       0.31776                      90.58567
                      -6.14457                       0.55817                      90.79273
                      -5.87284                       0.75816                      90.95570
                      -5.54576                       0.90516                      91.06435
                      -5.18389                       0.98994                      91.11185
                      -4.80996                       1.00716                      91.09523
                      -4.44748                       0.95575                      91.01551
                      -4.11921                       0.83894                      90.87771
                      -3.84578                       0.66407                      90.69050
                      -3.64437                       0.44212                      90.46562
                      -3.52764                       0.18704                      90.21722
                      -3.50571                       0.00000                      89.86927
                      -3.57480                      -0.27313                      89.62027
                      -3.73344                      -0.52910                      89.39513
                      -3.97166                      -0.75182                      89.20799
                      -4.27450                      -0.92731                      89.07062
                      -4.62292                      -1.04453                      88.99165
                      -4.99504                      -1.09611                      88.97603
                      -5.36747                      -1.07883                      89.02476
                      -5.71681                      -0.99375                      89.13476
                      -6.02111                      -0.84624                      89.29913
                      -6.26125                      -0.64555                      89.50754
                      -6.42214                      -0.40430                      89.74689
                      -6.49367                      -0.13765                      90.00215
                      -6.47135                       0.13765                      90.25727
                      -6.35658                       0.40430                      90.49622
                      -6.15657                       0.64555                      90.70400
                      -5.88389                       0.84624                      90.86754
                      -5.55567                       0.99375                      90.97657
                      -5.19254                       1.07883                      91.02424
                      -4.81731                       1.09611                      91.00755
                      -4.45355                       1.04453                      90.92756
                      -4.12414                       0.92731                      90.78928
                      -3.84975                       0.75182                      90.60141
                      -3.64765                       0.52910                      90.37575
                      -3.53051                       0.27313                      90.12649
                      -3.51888                       0.08514                      89.77855
                      -3.58773                      -0.18704                      89.53041
                      -3.74582                      -0.44212                      89.30606
                      -3.98322                      -0.66407                      89.11957
                      -4.28500                      -0.83894                      88.98268
                      -4.63221                      -0.95575                      88.90398
                      -5.00304                      -1.00716                      88.88842
                      -5.37417                      -0.98994                      88.93698
                      -5.72229                      -0.90516                      89.04660
                      -6.02553                      -0.75816                      89.21039
                      -6.26484                      -0.55817                      89.41808
                      -6.42517                      -0.31776                      89.65660
                      -6.49645                      -0.05203                      89.91096
                      -6.47421                       0.22231                      90.16520
                      -6.35984                       0.48804                      90.40332
                      -6.16052                       0.72845                      90.61037
                      -5.88879                       0.92843                      90.77335
                      -5.56171                       1.07543                      90.88200
                      -5.19984                       1.16021                      90.92950
                      -4.82592                       1.17744                      90.91288
                      -4.46343                       1.12603                      90.83316
                      -4.13516                       1.00922                      90.69536
                      -3.86173                       0.83435                      90.50815
                      -3.66033                       0.61240                      90.28327
                      -3.54360                       0.35732                      90.03487
                      -3.54256                       0.17028                      89.68875
                      -3.61069                      -0.09903                      89.44323
                      -3.76711                      -0.35142                      89.22124
                      -4.00200                      -0.57103                      89.03672
                      -4.30060                      -0.74406                      88.90127
                      -4.64415                      -0.85964                      88.82340
                      -5.01106                      -0.91051                      88.80801
                      -5.37828                      -0.89346                      88.85605
                      -5.72274                      -0.80958                      88.96451
                      -6.02278                      -0.66413                      89.12658
                      -6.25956                      -0.46625                      89.33208
                      -6.41820                      -0.22837                      89.56808
                      -6.48873                       0.03455                      89.81977
                      -6.46672                       0.30600                      90.07132
                      -6.35356                       0.56892                      90.30693
                      -6.15635                       0.80680                      90.51180
                      -5.88748                       1.00468                      90.67306
                      -5.56385                       1.15013                      90.78056
                      -5.20580                       1.23401                      90.82757
                      -4.83581                       1.25106                      90.81111
                      -4.47715                       1.20019                      90.73224
                      -4.15234                       1.08461                      90.59589
                      -3.88180                       0.91158                      90.41065
                      -3.68251                       0.69198                      90.18815
                      -3.56702                       0.43959                      89.94237
                      -3.57709                       0.25541                      89.59990
                      -3.64399                      -0.00904                      89.35880
                      -3.79759                      -0.25688                      89.14081
                      -4.02825                      -0.47254                      88.95962
                      -4.32147                      -0.64245                      88.82661
                      -4.65883                      -0.75594                      88.75014
                      -5.01913                      -0.80589                      88.73502
                      -5.37973                      -0.78915                      88.78220
                      -5.71798                      -0.70678                      88.88871
                      -6.01261                      -0.56395                      89.04786
                      -6.24513                      -0.36964                      89.24965
                      -6.40091                      -0.13605                      89.48140
                      -6.47017                       0.12213                      89.72855
                      -6.44856                       0.38869                      89.97557
                      -6.33743                       0.64688                      90.20694
                      -6.14377                       0.88047                      90.40812
                      -5.87975                       1.07478                      90.56647
                      -5.56196                       1.21761                      90.67204
                      -5.21035                       1.29998                      90.71819
                      -4.84704                       1.31672                      90.70204
                      -4.49484                       1.26677                      90.62458
                      -4.17588                       1.15328                      90.49070
                      -3.91021                       0.98336                      90.30879
                      -3.71452                       0.76771                      90.09030
                      -3.60110                       0.51987                      89.84894
                      -3.62308                       0.34055                      89.51205
                      -3.68821                       0.08304                      89.27729
                      -3.83778                      -0.15829                      89.06502
                      -4.06238                      -0.36827                      88.88859
                      -4.34790                      -0.53372                      88.75907
                      -4.67640                      -0.64424                      88.68462
                      -5.02723                      -0.69287                      88.66990
                      -5.37836                      -0.67657                      88.71583
                      -5.70772                      -0.59637                      88.81955
                      -5.99462                      -0.45729                      88.97452
                      -6.22102                      -0.26808                      89.17100
                      -6.37271                      -0.04063                      89.39667
                      -6.44015                       0.21077                      89.63732
                      -6.41911                       0.47033                      89.87785
                      -6.31090                       0.72173                      90.10314
                      -6.12233                       0.94919                      90.29904
                      -5.86525                       1.13839                      90.45323
                      -5.55580                       1.27747                      90.55602
                      -5.21343                       1.35768                      90.60096
                      -4.85966                       1.37398                      90.58523
                      -4.51671                       1.32534                      90.50981
                      -4.20614                       1.21483                      90.37944
                      -3.94745                       1.04938                      90.20232
                      -3.75690                       0.83939                      89.98956
                      -3.64646                       0.59806                      89.75455
                      -3.68148                       0.42569                      89.42528
                      -3.74429                       0.17740                      89.19893
                      -3.88851                      -0.05529                      88.99426
                      -4.10506                      -0.25776                      88.82414
                      -4.38036                      -0.41729                      88.69927
                      -4.69710                      -0.52385                      88.62747
                      -5.03538                      -0.57074                      88.61328
                      -5.37394                      -0.55503                      88.65757
                      -5.69151                      -0.47769                      88.75757
                      -5.96813                      -0.34359                      88.90699
                      -6.18643                      -0.16116                      89.09645
                      -6.33269                       0.05815                      89.31403
                      -6.39772                       0.30056                      89.54608
                      -6.37743                       0.55082                      89.77800
                      -6.27310                       0.79323                      89.99522
                      -6.09127                       1.01254                      90.18410
                      -5.84339                       1.19497                      90.33277
                      -5.54502                       1.32907                      90.43189
                      -5.21491                       1.40641                      90.47522
                      -4.87380                       1.42212                      90.46005
                      -4.54313                       1.37523                      90.38733
                      -4.24367                       1.26867                      90.26163
                      -3.99424                       1.10914                      90.09085
                      -3.81051                       0.90667                      89.88571
                      -3.70403                       0.67398                      89.65911
                      -3.75377                       0.51083                      89.33973
                      -3.81360                       0.27429                      89.12409
                      -3.95099                       0.05261                      88.92911
                      -4.15729                      -0.14027                      88.76705
                      -4.41956                      -0.29224                      88.64809
                      -4.72130                      -0.39376                      88.57969
                      -5.04357                      -0.43843                      88.56617
                      -5.36610                      -0.42346                      88.60837
                      -5.66863                      -0.34979                      88.70363
                      -5.93217                      -0.22204                      88.84598
                      -6.14013                      -0.04824                      89.02647
                      -6.27947                       0.16069                      89.23375
                      -6.34142                       0.39162                      89.45481
                      -6.32209                       0.63004                      89.67575
                      -6.22269                       0.86097                      89.88269
                      -6.04948                       1.06989                      90.06263
                      -5.81333                       1.24369                      90.20426
                      -5.52909                       1.37144                      90.29869
                      -5.21460                       1.44512                      90.33997
                      -4.88964                       1.46009                      90.32552
                      -4.57462                       1.41541                      90.25624
                      -4.28934                       1.31390                      90.13649
                      -4.05172                       1.16193                      89.97379
                      -3.87669                       0.96904                      89.77836
                      -3.77525                       0.74737                      89.56249
                      -3.84213                       0.59597                      89.25559
                      -3.89824                       0.37412                      89.05334
                      -4.02710                       0.16621                      88.87048
                      -4.22059                      -0.01469                      88.71848
                      -4.46656                      -0.15722                      88.60690
                      -4.74956                      -0.25243                      88.54276
                      -5.05181                      -0.29433                      88.53008
                      -5.35431                      -0.28029                      88.56965
                      -5.63805                      -0.21119                      88.65900
                      -5.88521                      -0.09138                      88.79251
                      -6.08026                       0.07163                      88.96178
                      -6.21094                       0.26758                      89.15619
                      -6.26905                       0.48416                      89.36352
                      -6.25092                       0.70777                      89.57074
                      -6.15770                       0.92436                      89.76482
                      -5.99524                       1.12031                      89.93359
                      -5.77376                       1.28331                      90.06642
                      -5.50717                       1.40313                      90.15498
                      -5.21222                       1.47222                      90.19370
                      -4.90745                       1.48626                      90.18014
                      -4.61200                       1.44436                      90.11517
                      -4.34443                       1.34916                      90.00286
                      -4.12157                       1.20662                      89.85026
                      -3.95741                       1.02572                      89.66698
                      -3.86227                       0.81781                      89.46451
                      -3.95004                       0.68110                      89.17316
                      -4.00153                       0.47752                      88.98757
                      -4.11978                       0.28674                      88.81975
                      -4.29734                       0.12073                      88.68027
                      -4.52306                      -0.01007                      88.57788
                      -4.78276                      -0.09744                      88.51902
                      -5.06012                      -0.13589                      88.50738
                      -5.33771                      -0.12301                      88.54370
                      -5.59809                      -0.05960                      88.62569
                      -5.82490                       0.05036                      88.74820
                      -6.00389                       0.19994                      88.90354
                      -6.12381                       0.37975                      89.08194
                      -6.17713                       0.57851                      89.27220
                      -6.16049                       0.78370                      89.46236
                      -6.07495                       0.98245                      89.64046
                      -5.92587                       1.16227                      89.79533
                      -5.72263                       1.31185                      89.91723
                      -5.47799                       1.42180                      89.99849
                      -5.20732                       1.48521                      90.03403
                      -4.92764                       1.49810                      90.02159
                      -4.65652                       1.45965                      89.96196
                      -4.41099                       1.37228                      89.85890
                      -4.20647                       1.24148                      89.71887
                      -4.05583                       1.07547                      89.55067
                      -3.96852                       0.88468                      89.36488
                      -4.08341                       0.76624                      89.09296
                      -4.12911                       0.58558                      88.92826
                      -4.23404                       0.41628                      88.77934
                      -4.39161                       0.26896                      88.65556
                      -4.59192                       0.15289                      88.56470
                      -4.82238                       0.07535                      88.51246
                      -5.06851                       0.04123                      88.50214
                      -5.31485                       0.05267                      88.53436
                      -5.54592                       0.10894                      88.60713
                      -5.74719                       0.20651                      88.71585
                      -5.90603                       0.33925                      88.85369
                      -6.01245                       0.49882                      89.01201
                      -6.05976                       0.67519                      89.18085
                      -6.04500                       0.85729                      89.34959
                      -5.96908                       1.03366                      89.50765
                      -5.83679                       1.19324                      89.64508
                      -5.65643                       1.32598                      89.75325
                      -5.43933                       1.42355                      89.82537
                      -5.19914                       1.47982                      89.85690
                      -4.95095                       1.49125                      89.84586
                      -4.71035                       1.45713                      89.79295
                      -4.49246                       1.37960                      89.70149
                      -4.31098                       1.26353                      89.57722
                      -4.17729                       1.11621                      89.42796
                      -4.09982                       0.94690                      89.26309
                      -4.25377                       0.85138                      89.01599
                      -4.29196                       0.70040                      88.87835
                      -4.37965                       0.55891                      88.75390
                      -4.51133                       0.43579                      88.65045
                      -4.67873                       0.33879                      88.57452
                      -4.87133                       0.27400                      88.53086
                      -5.07703                       0.24548                      88.52223
                      -5.28289                       0.25504                      88.54917
                      -5.47600                       0.30206                      88.60997
                      -5.64421                       0.38360                      88.70083
                      -5.77695                       0.49454                      88.81603
                      -5.86588                       0.62789                      88.94834
                      -5.90543                       0.77529                      89.08944
                      -5.89309                       0.92747                      89.23046
                      -5.82965                       1.07487                      89.36255
                      -5.71909                       1.20822                      89.47740
                      -5.56836                       1.31916                      89.56780
                      -5.38693                       1.40070                      89.62807
                      -5.18620                       1.44772                      89.65442
                      -4.97878                       1.45728                      89.64520
                      -4.77771                       1.42876                      89.60098
                      -4.59562                       1.36397                      89.52454
                      -4.44395                       1.26697                      89.42070
                      -4.33223                       1.14385                      89.29596
                      -4.26748                       1.00236                      89.15817
                      -4.49055                       0.93652                      88.94483
                      -4.51816                       0.82736                      88.84532
                      -4.58156                       0.72506                      88.75534
                      -4.67677                       0.63605                      88.68055
                      -4.79780                       0.56592                      88.62565
                      -4.93705                       0.51907                      88.59409
                      -5.08576                       0.49845                      88.58785
                      -5.23461                       0.50536                      88.60732
                      -5.37422                       0.53936                      88.65128
                      -5.49583                       0.59832                      88.71697
                      -5.59181                       0.67852                      88.80026
                      -5.65611                       0.77494                      88.89592
                      -5.68469                       0.88151                      88.99793
                      -5.67577                       0.99153                      89.09989
                      -5.62991                       1.09810                      89.19539
                      -5.54997                       1.19452                      89.27843
                      -5.44099                       1.27472                      89.34379
                      -5.30982                       1.33367                      89.38737
                      -5.16469                       1.36767                      89.40642
                      -5.01473                       1.37458                      89.39975
                      -4.86936                       1.35397                      89.36778
                      -4.73770                       1.30712                      89.31252
                      -4.62805                       1.23699                      89.23743
                      -4.54727                       1.14797                      89.14725
                      -4.50046                       1.04568                      89.04763
                      -5.09572                       1.02166                      88.90590
                      -5.09572                       1.02166                      88.90590
                      -5.09572                       1.02166                      88.90590
                      -5.09572                       1.02166                      88.90590
                      -5.09572                       1.02166                      88.90590
                      -5.09572                       1.02166                      88.90590
                      -5.09572                       1.02166                      88.90590
                      -5.09572                       1.02166                      88.90590
                      -5.09572                       1.02166                      88.90590
                      -5.09572                       1.02166                      88.90590
                      -5.09572                       1.02166                      88.90590
                      -5.09572                       1.02166                      88.90590
                      -5.09572                       1.02166                      88.90590
                      -5.09572                       1.02166                      88.90590
                      -5.09572                       1.02166                      88.90590
                      -5.09572                       1.02166                      88.90590
                      -5.09572                       1.02166                      88.90590
                      -5.09572                       1.02166                      88.90590
                      -5.09572                       1.02166                      88.90590
                      -5.09572                       1.02166                      88.90590
                      -5.09572                       1.02166                      88.90590
                      -5.09572                       1.02166                      88.90590
                      -5.09572                       1.02166                      88.90590
                      -5.09572                       1.02166                      88.90590
                      -5.09572                       1.02166                      88.90590
        </DataArray>
      </Points>
      <Polys>
        <DataArray type="Int32" Name="connectivity" format="ascii">
      0      1     26     25
      1      2     27     26
      2      3     28     27
      3      4     29     28
      4      5     30     29
      5      6     31     30
      6      7     32     31
      7      8     33     32
      8      9     34     33
      9     10     35     34
     10     11     36     35
     11     12     37     36
     12     13     38     37
     13     14     39     38
     14     15     40     39
     15     16     41     40
     16     17     42     41
     17     18     43     42
     18     19     44     43
     19     20     45     44
     20     21     46     45
     21     22     47     46
     22     23     48     47
     23     24     49     48
     24      0     25     49
     25     26     51     50
     26     27     52     51
     27     28     53     52
     28     29     54     53
     29     30     55     54
     30     31     56     55
     31     32     57     56
     32     33     58     57
     33     34     59     58
     34     35     60     59
     35     36     61     60
     36     37     62     61
     37     38     63     62
     38     39     64     63
     39     40     65     64
     40     41     66     65
     41     42     67     66
     42     43     68     67
     43     44     69     68
     44     45     70     69
     45     46     71     70
     46     47     72     71
     47     48     73     72
     48     49     74     73
     49     25     50     74
     50     51     76     75
     51     52     77     76
     52     53     78     77
     53     54     79     78
     54     55     80     79
     55     56     81     80
     56     57     82     81
     57     58     83     82
     58     59     84     83
     59     60     85     84
     60     61     86     85
     61     62     87     86
     62     63     88     87
     63     64     89     88
     64     65     90     89
     65     66     91     90
     66     67     92     91
     67     68     93     92
     68     69     94     93
     69     70     95     94
     70     71     96     95
     71     72     97     96
     72     73     98     97
     73     74     99     98
     74     50     75     99
     75     76    101    100
     76     77    102    101
     77     78    103    102
     78     79    104    103
     79     80    105    104
     80     81    106    105
     81     82    107    106
     82     83    108    107
     83     84    109    108
     84     85    110    109
     85     86    111    110
     86     87    112    111
     87     88    113    112
     88     89    114    113
     89     90    115    114
     90     91    116    115
     91     92    117    116
     92     93    118    117
     93     94    119    118
     94     95    120    119
     95     96    121    120
     96     97    122    121
     97     98    123    122
     98     99    124    123
     99     75    100    124
    100    101    126    125
    101    102    127    126
    102    103    128    127
    103    104    129    128
    104    105    130    129
    105    106    131    130
    106    107    132    131
    107    108    133    132
    108    109    134    133
    109    110    135    134
    110    111    136    135
    111    112    137    136
    112    113    138    137
    113    114    139    138
    114    115    140    139
    115    116    141    140
    116    117    142    141
    117    118    143    142
    118    119    144    143
    119    120    145    144
    120    121    146    145
    121    122    147    146
    122    123    148    147
    123    124    149    148
    124    100    125    149
    125    126    151    150
    126    127    152    151
    127    128    153    152
    128    129    154    153
    129    130    155    154
    130    131    156    155
    131    132    157    156
    132    133    158    157
    133    134    159    158
    134    135    160    159
    135    136    161    160
    136    137    162    161
    137    138    163    162
    138    139    164    163
    139    140    165    164
    140    141    166    165
    141    142    167    166
    142    143    168    167
    143    144    169    168
    144    145    170    169
    145    146    171    170
    146    147    172    171
    147    148    173    172
    148    149    174    173
    149    125    150    174
    150    151    176    175
    151    152    177    176
    152    153    178    177
    153    154    179    178
    154    155    180    179
    155    156    181    180
    156    157    182    181
    157    158    183    182
    158    159    184    183
    159    160    185    184
    160    161    186    185
    161    162    187    186
    162    163    188    187
    163    164    189    188
    164    165    190    189
    165    166    191    190
    166    167    192    191
    167    168    193    192
    168    169    194    193
    169    170    195    194
    170    171    196    195
    171    172    197    196
    172    173    198    197
    173    174    199    198
    174    150    175    199
    175    176    201    200
    176    177    202    201
    177    178    203    202
    178    179    204    203
    179    180    205    204
    180    181    206    205
    181    182    207    206
    182    183    208    207
    183    184    209    208
    184    185    210    209
    185    186    211    210
    186    187    212    211
    187    188    213    212
    188    189    214    213
    189    190    215    214
    190    191    216    215
    191    192    217    216
    192    193    218    217
    193    194    219    218
    194    195    220    219
    195    196    221    220
    196    197    222    221
    197    198    223    222
    198    199    224    223
    199    175    200    224
    200    201    226    225
    201    202    227    226
    202    203    228    227
    203    204    229    228
    204    205    230    229
    205    206    231    230
    206    207    232    231
    207    208    233    232
    208    209    234    233
    209    210    235    234
    210    211    236    235
    211    212    237    236
    212    213    238    237
    213    214    239    238
    214    215    240    239
    215    216    241    240
    216    217    242    241
    217    218    243    242
    218    219    244    243
    219    220    245    244
    220    221    246    245
    221    222    247    246
    222    223    248    247
    223    224    249    248
    224    200    225    249
    225    226    251    250
    226    227    252    251
    227    228    253    252
    228    229    254    253
    229    230    255    254
    230    231    256    255
    231    232    257    256
    232    233    258    257
    233    234    259    258
    234    235    260    259
    235    236    261    260
    236    237    262    261
    237    238    263    262
    238    239    264    263
    239    240    265    264
    240    241    266    265
    241    242    267    266
    242    243    268    267
    243    244    269    268
    244    245    270    269
    245    246    271    270
    246    247    272    271
    247    248    273    272
    248    249    274    273
    249    225    250    274
    250    251    276    275
    251    252    277    276
    252    253    278    277
    253    254    279    278
    254    255    280    279
    255    256    281    280
    256    257    282    281
    257    258    283    282
    258    259    284    283
    259    260    285    284
    260    261    286    285
    261    262    287    286
    262    263    288    287
    263    264    289    288
    264    265    290    289
    265    266    291    290
    266    267    292    291
    267    268    293    292
    268    269    294    293
    269    270    295    294
    270    271    296    295
    271    272    297    296
    272    273    298    297
    273    274    299    298
    274    250    275    299
    275    276    301    300
    276    277    302    301
    277    278    303    302
    278    279    304    303
    279    280    305    304
    280    281    306    305
    281    282    307    306
    282    283    308    307
    283    284    309    308
    284    285    310    309
    285    286    311    310
    286    287    312    311
    287    288    313    312
    288    289    314    313
    289    290    315    314
    290    291    316    315
    291    292    317    316
    292    293    318    317
    293    294    319    318
    294    295    320    319
    295    296    321    320
    296    297    322    321
    297    298    323    322
    298    299    324    323
    299    275    300    324
    300    301    326    325
    301    302    327    326
    302    303    328    327
    303    304    329    328
    304    305    330    329
    305    306    331    330
    306    307    332    331
    307    308    333    332
    308    309    334    333
    309    310    335    334
    310    311    336    335
    311    312    337    336
    312    313    338    337
    313    314    339    338
    314    315    340    339
    315    316    341    340
    316    317    342    341
    317    318    343    342
    318    319    344    343
    319    320    345    344
    320    321    346    345
    321    322    347    346
    322    323    348    347
    323    324    349    348
    324    300    325    349
    325    326    351    350
    326    327    352    351
    327    328    353    352
    328    329    354    353
    329    330    355    354
    330    331    356    355
    331    332    357    356
    332    333    358    357
    333    334    359    358
    334    335    360    359
    335    336    361    360
    336    337    362    361
    337    338    363    362
    338    339    364    363
    339    340    365    364
    340    341    366    365
    341    342    367    366
    342    343    368    367
    343    344    369    368
    344    345    370    369
    345    346    371    370
    346    347    372    371
    347    348    373    372
    348    349    374    373
    349    325    350    374
    350    351    376    375
    351    352    377    376
    352    353    378    377
    353    354    379    378
    354    355    380    379
    355    356    381    380
    356    357    382    381
    357    358    383    382
    358    359    384    383
    359    360    385    384
    360    361    386    385
    361    362    387    386
    362    363    388    387
    363    364    389    388
    364    365    390    389
    365    366    391    390
    366    367    392    391
    367    368    393    392
    368    369    394    393
    369    370    395    394
    370    371    396    395
    371    372    397    396
    372    373    398    397
    373    374    399    398
    374    350    375    399
    375    376    401    400
    376    377    402    401
    377    378    403    402
    378    379    404    403
    379    380    405    404
    380    381    406    405
    381    382    407    406
    382    383    408    407
    383    384    409    408
    384    385    410    409
    385    386    411    410
    386    387    412    411
    387    388    413    412
    388    389    414    413
    389    390    415    414
    390    391    416    415
    391    392    417    416
    392    393    418    417
    393    394    419    418
    394    395    420    419
    395    396    421    420
    396    397    422    421
    397    398    423    422
    398    399    424    423
    399    375    400    424
    400    401    426    425
    401    402    427    426
    402    403    428    427
    403    404    429    428
    404    405    430    429
    405    406    431    430
    406    407    432    431
    407    408    433    432
    408    409    434    433
    409    410    435    434
    410    411    436    435
    411    412    437    436
    412    413    438    437
    413    414    439    438
    414    415    440    439
    415    416    441    440
    416    417    442    441
    417    418    443    442
    418    419    444    443
    419    420    445    444
    420    421    446    445
    421    422    447    446
    422    423    448    447
    423    424    449    448
    424    400    425    449
    425    426    451    450
    426    427    452    451
    427    428    453    452
    428    429    454    453
    429    430    455    454
    430    431    456    455
    431    432    457    456
    432    433    458    457
    433    434    459    458
    434    435    460    459
    435    436    461    460
    436    437    462    461
    437    438    463    462
    438    439    464    463
    439    440    465    464
    440    441    466    465
    441    442    467    466
    442    443    468    467
    443    444    469    468
    444    445    470    469
    445    446    471    470
    446    447    472    471
    447    448    473    472
    448    449    474    473
    449    425    450    474
    450    451    476    475
    451    452    477    476
    452    453    478    477
    453    454    479    478
    454    455    480    479
    455    456    481    480
    456    457    482    481
    457    458    483    482
    458    459    484    483
    459    460    485    484
    460    461    486    485
    461    462    487    486
    462    463    488    487
    463    464    489    488
    464    465    490    489
    465    466    491    490
    466    467    492    491
    467    468    493    492
    468    469    494    493
    469    470    495    494
    470    471    496    495
    471    472    497    496
    472    473    498    497
    473    474    499    498
    474    450    475    499
    475    476    501    500
    476    477    502    501
    477    478    503    502
    478    479    504    503
    479    480    505    504
    480    481    506    505
    481    482    507    506
    482    483    508    507
    483    484    509    508
    484    485    510    509
    485    486    511    510
    486    487    512    511
    487    488    513    512
    488    489    514    513
    489    490    515    514
    490    491    516    515
    491    492    517    516
    492    493    518    517
    493    494    519    518
    494    495    520    519
    495    496    521    520
    496    497    522    521
    497    498    523    522
    498    499    524    523
    499    475    500    524
    500    501    526    525
    501    502    527    526
    502    503    528    527
    503    504    529    528
    504    505    530    529
    505    506    531    530
    506    507    532    531
    507    508    533    532
    508    509    534    533
    509    510    535    534
    510    511    536    535
    511    512    537    536
    512    513    538    537
    513    514    539    538
    514    515    540    539
    515    516    541    540
    516    517    542    541
    517    518    543    542
    518    519    544    543
    519    520    545    544
    520    521    546    545
    521    522    547    546
    522    523    548    547
    523    524    549    548
    524    500    525    549
    525    526    551    550
    526    527    552    551
    527    528    553    552
    528    529    554    553
    529    530    555    554
    530    531    556    555
    531    532    557    556
    532    533    558    557
    533    534    559    558
    534    535    560    559
    535    536    561    560
    536    537    562    561
    537    538    563    562
    538    539    564    563
    539    540    565    564
    540    541    566    565
    541    542    567    566
    542    543    568    567
    543    544    569    568
    544    545    570    569
    545    546    571    570
    546    547    572    571
    547    548    573    572
    548    549    574    573
    549    525    550    574
    550    551    576    575
    551    552    577    576
    552    553    578    577
    553    554    579    578
    554    555    580    579
    555    556    581    580
    556    557    582    581
    557    558    583    582
    558    559    584    583
    559    560    585    584
    560    561    586    585
    561    562    587    586
    562    563    588    587
    563    564    589    588
    564    565    590    589
    565    566    591    590
    566    567    592    591
    567    568    593    592
    568    569    594    593
    569    570    595    594
    570    571    596    595
    571    572    597    596
    572    573    598    597
    573    574    599    598
    574    550    575    599
    575    576    601    600
    576    577    602    601
    577    578    603    602
    578    579    604    603
    579    580    605    604
    580    581    606    605
    581    582    607    606
    582    583    608    607
    583    584    609    608
    584    585    610    609
    585    586    611    610
    586    587    612    611
    587    588    613    612
    588    589    614    613
    589    590    615    614
    590    591    616    615
    591    592    617    616
    592    593    618    617
    593    594    619    618
    594    595    620    619
    595    596    621    620
    596    597    622    621
    597    598    623    622
    598    599    624    623
    599    575    600    624
        </DataArray>
        <DataArray type="Int32" Name="offsets" format="ascii">
      4
      8
     12
     16
     20
     24
     28
     32
     36
     40
     44
     48
     52
     56
     60
     64
     68
     72
     76
     80
     84
     88
     92
     96
    100
    104
    108
    112
    116
    120
    124
    128
    132
    136
    140
    144
    148
    152
    156
    160
    164
    168
    172
    176
    180
    184
    188
    192
    196
    200
    204
    208
    212
    216
    220
    224
    228
    232
    236
    240
    244
    248
    252
    256
    260
    264
    268
    272
    276
    280
    284
    288
    292
    296
    300
    304
    308
    312
    316
    320
    324
    328
    332
    336
    340
    344
    348
    352
    356
    360
    364
    368
    372
    376
    380
    384
    388
    392
    396
    400
    404
    408
    412
    416
    420
    424
    428
    432
    436
    440
    444
    448
    452
    456
    460
    464
    468
    472
    476
    480
    484
    488
    492
    496
    500
    504
    508
    512
    516
    520
    524
    528
    532
    536
    540
    544
    548
    552
    556
    560
    564
    568
    572
    576
    580
    584
    588
    592
    596
    600
    604
    608
    612
    616
    620
    624
    628
    632
    636
    640
    644
    648
    652
    656
    660
    664
    668
    672
    676
    680
    684
    688
    692
    696
    700
    704
    708
    712
    716
    720
    724
    728
    732
    736
    740
    744
    748
    752
    756
    760
    764
    768
    772
    776
    780
    784
    788
    792
    796
    800
    804
    808
    812
    816
    820
    824
    828
    832
    836
    840
    844
    848
    852
    856
    860
    864
    868
    872
    876
    880
    884
    888
    892
    896
    900
    904
    908
    912
    916
    920
    924
    928
    932
    936
    940
    944
    948
    952
    956
    960
    964
    968
    972
    976
    980
    984
    988
    992
    996
   1000
   1004
   1008
   1012
   1016
   1020
   1024
   1028
   1032
   1036
   1040
   1044
   1048
   1052
   1056
   1060
   1064
   1068
   1072
   1076
   1080
   1084
   1088
   1092
   1096
   1100
   1104
   1108
   1112
   1116
   1120
   1124
   1128
   1132
   1136
   1140
   1144
   1148
   1152
   1156
   1160
   1164
   1168
   1172
   1176
   1180
   1184
   1188
   1192
   1196
   1200
   1204
   1208
   1212
   1216
   1220
   1224
   1228
   1232
   1236
   1240
   1244
   1248
   1252
   1256
   1260
   1264
   1268
   1272
   1276
   1280
   1284
   1288
   1292
   1296
   1300
   1304
   1308
   1312
   1316
   1320
   1324
   1328
   1332
   1336
   1340
   1344
   1348
   1352
   1356
   1360
   1364
   1368
   1372
   1376
   1380
   1384
   1388
   1392
   1396
   1400
   1404
   1408
   1412
   1416
   1420
   1424
   1428
   1432
   1436
   1440
   1444
   1448
   1452
   1456
   1460
   1464
   1468
   1472
   1476
   1480
   1484
   1488
   1492
   1496
   1500
   1504
   1508
   1512
   1516
   1520
   1524
   1528
   1532
   1536
   1540
   1544
   1548
   1552
   1556
   1560
   1564
   1568
   1572
   1576
   1580
   1584
   1588
   1592
   1596
   1600
   1604
   1608
   1612
   1616
   1620
   1624
   1628
   1632
   1636
   1640
   1644
   1648
   1652
   1656
   1660
   1664
   1668
   1672
   1676
   1680
   1684
   1688
   1692
   1696
   1700
   1704
   1708
   1712
   1716
   1720
   1724
   1728
   1732
   1736
   1740
   1744
   1748
   1752
   1756
   1760
   1764
   1768
   1772
   1776
   1780
   1784
   1788
   1792
   1796
   1800
   1804
   1808
   1812
   1816
   1820
   1824
   1828
   1832
   1836
   1840
   1844
   1848
   1852
   1856
   1860
   1864
   1868
   1872
   1876
   1880
   1884
   1888
   1892
   1896
   1900
   1904
   1908
   1912
   1916
   1920
   1924
   1928
   1932
   1936
   1940
   1944
   1948
   1952
   1956
   1960
   1964
   1968
   1972
   1976
   1980
   1984
   1988
   1992
   1996
   2000
   2004
   2008
   2012
   2016
   2020
   2024
   2028
   2032
   2036
   2040
   2044
   2048
   2052
   2056
   2060
   2064
   2068
   2072
   2076
   2080
   2084
   2088
   2092
   2096
   2100
   2104
   2108
   2112
   2116
   2120
   2124
   2128
   2132
   2136
   2140
   2144
   2148
   2152
   2156
   2160
   2164
   2168
   2172
   2176
   2180
   2184
   2188
   2192
   2196
   2200
   2204
   2208
   2212
   2216
   2220
   2224
   2228
   2232
   2236
   2240
   2244
   2248
   2252
   2256
   2260
   2264
   2268
   2272
   2276
   2280
   2284
   2288
   2292
   2296
   2300
   2304
   2308
   2312
   2316
   2320
   2324
   2328
   2332
   2336
   2340
   2344
   2348
   2352
   2356
   2360
   2364
   2368
   2372
   2376
   2380
   2384
   2388
   2392
   2396
   2400
        </DataArray>
      </Polys>
    </Piece>
  </PolyData>
</VTKFile>
