<?xml version="1.0"?>
<VTKFile type="PolyData" version="0.1" byte_order="LittleEndian">
  <PolyData>
    <Piece NumberOfPoints="    625" NumberOfVerts="  0" NumberOfLines="      0"
           NumberOfStrips="  0" NumberOfPolys="    600">
      <Points>
        <DataArray type="Float32" NumberOfComponents="3" format="ascii">
                      -4.88136                      -0.63013                      91.35605
                      -4.88136                      -0.63013                      91.35605
                      -4.88136                      -0.63013                      91.35605
                      -4.88136                      -0.63013                      91.35605
                      -4.88136                      -0.63013                      91.35605
                      -4.88136                      -0.63013                      91.35605
                      -4.88136                      -0.63013                      91.35605
                      -4.88136                      -0.63013                      91.35605
                      -4.88136                      -0.63013                      91.35605
                      -4.88136                      -0.63013                      91.35605
                      -4.88136                      -0.63013                      91.35605
                      -4.88136                      -0.63013                      91.35605
                      -4.88136                      -0.63013                      91.35605
                      -4.88136                      -0.63013                      91.35605
                      -4.88136                      -0.63013                      91.35605
                      -4.88136                      -0.63013                      91.35605
                      -4.88136                      -0.63013                      91.35605
                      -4.88136                      -0.63013                      91.35605
                      -4.88136                      -0.63013                      91.35605
                      -4.88136                      -0.63013                      91.35605
                      -4.88136                      -0.63013                      91.35605
                      -4.88136                      -0.63013                      91.35605
                      -4.88136                      -0.63013                      91.35605
                      -4.88136                      -0.63013                      91.35605
                      -4.88136                      -0.63013                      91.35605
                      -4.29405                      -0.57762                      91.19080
                      -4.31827                      -0.71291                      91.13005
                      -4.37849                      -0.83970                      91.07640
                      -4.47094                      -0.95002                      91.03322
                      -4.58979                      -1.03695                      91.00323
                      -4.72758                      -1.09501                      90.98831
                      -4.87566                      -1.12056                      90.98939
                      -5.02471                      -1.11200                      91.00641
                      -5.16538                      -1.06986                      91.03829
                      -5.28883                      -0.99679                      91.08305
                      -5.38729                      -0.89738                      91.13786
                      -5.45459                      -0.77788                      91.19927
                      -5.48649                      -0.64580                      91.26344
                      -5.48099                      -0.50943                      91.32633
                      -5.43843                      -0.37735                      91.38398
                      -5.36149                      -0.25785                      91.43278
                      -5.25500                      -0.15844                      91.46965
                      -5.12566                      -0.08538                      91.49229
                      -4.98159                      -0.04324                      91.49927
                      -4.83184                      -0.03467                      91.49014
                      -4.68583                      -0.06023                      91.46550
                      -4.55272                      -0.11829                      91.42687
                      -4.44089                      -0.20521                      91.37669
                      -4.35735                      -0.31554                      91.31812
                      -4.30735                      -0.44233                      91.25483
                      -4.07513                      -0.52511                      91.05778
                      -4.10863                      -0.71223                      90.97375
                      -4.19193                      -0.88760                      90.89955
                      -4.31979                      -1.04019                      90.83983
                      -4.48417                      -1.16042                      90.79835
                      -4.67476                      -1.24073                      90.77770
                      -4.87957                      -1.27607                      90.77920
                      -5.08573                      -1.26423                      90.80274
                      -5.28030                      -1.20594                      90.84684
                      -5.45104                      -1.10488                      90.90874
                      -5.58723                      -0.96738                      90.98455
                      -5.68031                      -0.80210                      91.06950
                      -5.72443                      -0.61941                      91.15825
                      -5.71682                      -0.43080                      91.24523
                      -5.65796                      -0.24811                      91.32497
                      -5.55154                      -0.08283                      91.39246
                      -5.40426                       0.05466                      91.44347
                      -5.22536                       0.15573                      91.47478
                      -5.02609                       0.21401                      91.48443
                      -4.81897                       0.22585                      91.47181
                      -4.61701                       0.19051                      91.43772
                      -4.43291                       0.11020                      91.38429
                      -4.27823                      -0.01002                      91.31489
                      -4.16268                      -0.16261                      91.23388
                      -4.09353                      -0.33798                      91.14634
                      -3.92264                      -0.47260                      90.93057
                      -3.96273                      -0.69651                      90.83003
                      -4.06240                      -0.90635                      90.74124
                      -4.21539                      -1.08894                      90.66978
                      -4.41209                      -1.23280                      90.62014
                      -4.64014                      -1.32890                      90.59543
                      -4.88521                      -1.37119                      90.59722
                      -5.13191                      -1.35702                      90.62539
                      -5.36472                      -1.28727                      90.67817
                      -5.56903                      -1.16634                      90.75224
                      -5.73199                      -1.00182                      90.84294
                      -5.84337                      -0.80404                      90.94459
                      -5.89616                      -0.58544                      91.05079
                      -5.88706                      -0.35975                      91.15487
                      -5.81662                      -0.14115                      91.25029
                      -5.68929                       0.05663                      91.33105
                      -5.51305                       0.22115                      91.39208
                      -5.29899                       0.34208                      91.42955
                      -5.06054                       0.41182                      91.44109
                      -4.81271                       0.42599                      91.42599
                      -4.57105                       0.38370                      91.38520
                      -4.35075                       0.28761                      91.32127
                      -4.16566                       0.14375                      91.23823
                      -4.02740                      -0.03884                      91.14129
                      -3.94466                      -0.24868                      91.03654
                      -3.80713                      -0.42009                      90.80659
                      -3.85230                      -0.67241                      90.69330
                      -3.96462                      -0.90887                      90.59324
                      -4.13702                      -1.11463                      90.51271
                      -4.35868                      -1.27674                      90.45678
                      -4.61566                      -1.38503                      90.42894
                      -4.89183                      -1.43268                      90.43096
                      -5.16982                      -1.41671                      90.46270
                      -5.43217                      -1.33812                      90.52217
                      -5.66240                      -1.20185                      90.60564
                      -5.84604                      -1.01645                      90.70785
                      -5.97154                      -0.79358                      90.82240
                      -6.03104                      -0.54725                      90.94207
                      -6.02077                      -0.29292                      91.05935
                      -5.94141                      -0.04659                      91.16687
                      -5.79791                       0.17628                      91.25788
                      -5.59932                       0.36168                      91.32666
                      -5.35809                       0.49795                      91.36888
                      -5.08940                       0.57654                      91.38189
                      -4.81012                       0.59251                      91.36488
                      -4.53780                       0.54485                      91.31891
                      -4.28955                       0.43657                      91.24687
                      -4.08098                       0.27445                      91.15329
                      -3.92518                       0.06870                      91.04405
                      -3.83194                      -0.16777                      90.92601
                      -3.71708                      -0.36758                      90.68484
                      -3.76631                      -0.64253                      90.56138
                      -3.88870                      -0.90022                      90.45235
                      -4.07657                      -1.12443                      90.36460
                      -4.31812                      -1.30109                      90.30364
                      -4.59816                      -1.41909                      90.27331
                      -4.89910                      -1.47103                      90.27551
                      -5.20204                      -1.45362                      90.31010
                      -5.48793                      -1.36798                      90.37490
                      -5.73882                      -1.21948                      90.46586
                      -5.93893                      -1.01745                      90.57725
                      -6.07570                      -0.77459                      90.70207
                      -6.14053                      -0.50615                      90.83248
                      -6.12935                      -0.22900                      90.96028
                      -6.04286                       0.03944                      91.07745
                      -5.88649                       0.28230                      91.17663
                      -5.67007                       0.48433                      91.25157
                      -5.40721                       0.63283                      91.29758
                      -5.11440                       0.71847                      91.31176
                      -4.81007                       0.73588                      91.29322
                      -4.51331                       0.68394                      91.24313
                      -4.24279                       0.56594                      91.16463
                      -4.01550                       0.38928                      91.06265
                      -3.84572                       0.16507                      90.94361
                      -3.74412                      -0.09262                      90.81498
                      -3.64659                      -0.31506                      90.56481
                      -3.69907                      -0.60823                      90.43317
                      -3.82957                      -0.88298                      90.31692
                      -4.02989                      -1.12205                      90.22335
                      -4.28743                      -1.31041                      90.15836
                      -4.58602                      -1.43622                      90.12602
                      -4.90689                      -1.49159                      90.12836
                      -5.22989                      -1.47304                      90.16524
                      -5.53472                      -1.38173                      90.23434
                      -5.80222                      -1.22339                      90.33132
                      -6.01558                      -1.00798                      90.45008
                      -6.16141                      -0.74903                      90.58317
                      -6.23053                      -0.46281                      90.72222
                      -6.21861                      -0.16731                      90.85849
                      -6.12639                       0.11890                      90.98342
                      -5.95967                       0.37785                      91.08916
                      -5.72892                       0.59326                      91.16907
                      -5.44865                       0.75160                      91.21812
                      -5.13645                       0.84291                      91.23324
                      -4.81196                       0.86147                      91.21348
                      -4.49555                       0.80610                      91.16006
                      -4.20711                       0.68028                      91.07636
                      -3.96477                       0.49192                      90.96763
                      -3.78374                       0.25285                      90.84071
                      -3.67541                      -0.02189                      90.70356
                      -3.59217                      -0.26255                      90.44618
                      -3.64726                      -0.57029                      90.30800
                      -3.78424                      -0.85869                      90.18597
                      -3.99451                      -1.10964                      90.08776
                      -4.26485                      -1.30736                      90.01953
                      -4.57828                      -1.43942                      89.98558
                      -4.91510                      -1.49755                      89.98804
                      -5.25415                      -1.47807                      90.02676
                      -5.57412                      -1.38222                      90.09929
                      -5.85491                      -1.21601                      90.20109
                      -6.07888                      -0.98990                      90.32575
                      -6.23195                      -0.71808                      90.46545
                      -6.30451                      -0.41765                      90.61141
                      -6.29200                      -0.10746                      90.75445
                      -6.19520                       0.19298                      90.88559
                      -6.02019                       0.46479                      90.99659
                      -5.77798                       0.69091                      91.08047
                      -5.48377                       0.85711                      91.13196
                      -5.15607                       0.95296                      91.14783
                      -4.81545                       0.97244                      91.12708
                      -4.48332                       0.91432                      91.07101
                      -4.18055                       0.78225                      90.98315
                      -3.92616                       0.58453                      90.86902
                      -3.73614                       0.33359                      90.73579
                      -3.62243                       0.04518                      90.59183
                      -3.55162                      -0.21004                      90.32876
                      -3.60876                      -0.52921                      90.18545
                      -3.75083                      -0.82831                      90.05889
                      -3.96891                      -1.08857                      89.95703
                      -4.24928                      -1.29363                      89.88628
                      -4.57435                      -1.43061                      89.85107
                      -4.92367                      -1.49089                      89.85362
                      -5.27530                      -1.47069                      89.89377
                      -5.60716                      -1.37128                      89.96900
                      -5.89837                      -1.19890                      90.07457
                      -6.13066                      -0.96439                      90.20387
                      -6.28941                      -0.68249                      90.34875
                      -6.36467                      -0.37089                      90.50013
                      -6.35169                      -0.04919                      90.64848
                      -6.25129                       0.26240                      90.78449
                      -6.06979                       0.54431                      90.89960
                      -5.81858                       0.77882                      90.98660
                      -5.51346                       0.95119                      91.04000
                      -5.17358                       1.05060                      91.05646
                      -4.82032                       1.07080                      91.03494
                      -4.47586                       1.01052                      90.97679
                      -4.16185                       0.87355                      90.88567
                      -3.89802                       0.66849                      90.76730
                      -3.70094                       0.40823                      90.62912
                      -3.58301                       0.10912                      90.47982
                      -3.52350                      -0.15753                      90.21243
                      -3.58218                      -0.48531                      90.06526
                      -3.72808                      -0.79248                      89.93528
                      -3.95204                      -1.05977                      89.83067
                      -4.23998                      -1.27036                      89.75801
                      -4.57382                      -1.41103                      89.72185
                      -4.93256                      -1.47293                      89.72447
                      -5.29369                      -1.45219                      89.76570
                      -5.63449                      -1.35010                      89.84296
                      -5.93357                      -1.17307                      89.95139
                      -6.17212                      -0.93223                      90.08417
                      -6.33516                      -0.64272                      90.23296
                      -6.41244                      -0.32272                      90.38842
                      -6.39911                       0.00766                      90.54078
                      -6.29601                       0.32766                      90.68045
                      -6.10961                       0.61717                      90.79868
                      -5.85162                       0.85801                      90.88802
                      -5.53826                       1.03503                      90.94286
                      -5.18922                       1.13712                      90.95977
                      -4.82642                       1.15787                      90.93767
                      -4.47267                       1.09596                      90.87795
                      -4.15019                       0.95529                      90.78437
                      -3.87924                       0.74470                      90.66281
                      -3.67685                       0.47742                      90.52090
                      -3.55573                       0.17024                      90.36756
                      -3.50684                      -0.10502                      90.09711
                      -3.56659                      -0.43881                      89.94723
                      -3.71517                      -0.75163                      89.81487
                      -3.94324                      -1.02381                      89.70834
                      -4.23647                      -1.23827                      89.63434
                      -4.57643                      -1.38152                      89.59752
                      -4.94176                      -1.44456                      89.60019
                      -5.30951                      -1.42344                      89.64218
                      -5.65656                      -1.31947                      89.72085
                      -5.96113                      -1.13919                      89.83127
                      -6.20406                      -0.89394                      89.96649
                      -6.37009                      -0.59911                      90.11801
                      -6.44879                      -0.27324                      90.27632
                      -6.43521                       0.06320                      90.43147
                      -6.33022                       0.38907                      90.57372
                      -6.14040                       0.68390                      90.69411
                      -5.87768                       0.92915                      90.78509
                      -5.55857                       1.10943                      90.84094
                      -5.20312                       1.21339                      90.85815
                      -4.83367                       1.23452                      90.83565
                      -4.47342                       1.17147                      90.77483
                      -4.14502                       1.02823                      90.67954
                      -3.86910                       0.81377                      90.55574
                      -3.66300                       0.54158                      90.41123
                      -3.53966                       0.22877                      90.25508
                      -3.50102                      -0.05251                      89.98273
                      -3.56141                      -0.38986                      89.83125
                      -3.71158                      -0.70601                      89.69748
                      -3.94208                      -0.98109                      89.58982
                      -4.23843                      -1.19783                      89.51503
                      -4.58201                      -1.34261                      89.47782
                      -4.95123                      -1.40633                      89.48051
                      -5.32290                      -1.38498                      89.52295
                      -5.67366                      -1.27990                      89.60247
                      -5.98147                      -1.09771                      89.71406
                      -6.22699                      -0.84984                      89.85072
                      -6.39479                      -0.55187                      90.00386
                      -6.47433                      -0.22252                      90.16386
                      -6.46061                       0.11750                      90.32066
                      -6.35449                       0.44685                      90.46442
                      -6.16265                       0.74482                      90.58609
                      -5.89713                       0.99268                      90.67804
                      -5.57462                       1.17488                      90.73449
                      -5.21538                       1.27995                      90.75189
                      -4.84199                       1.30130                      90.72914
                      -4.47791                       1.23759                      90.66768
                      -4.14601                       1.09281                      90.57137
                      -3.86715                       0.87607                      90.44625
                      -3.65885                       0.60098                      90.30020
                      -3.53419                       0.28484                      90.14239
                      -3.50571                       0.00000                      89.86927
                      -3.56631                      -0.33852                      89.71727
                      -3.71700                      -0.65578                      89.58303
                      -3.94830                      -0.93182                      89.47499
                      -4.24569                      -1.14932                      89.39994
                      -4.59047                      -1.29460                      89.36260
                      -4.96098                      -1.35854                      89.36530
                      -5.33395                      -1.33712                      89.40789
                      -5.68593                      -1.23167                      89.48768
                      -5.99481                      -1.04884                      89.59966
                      -6.24119                      -0.80011                      89.73680
                      -6.40958                      -0.50110                      89.89047
                      -6.48939                      -0.17061                      90.05103
                      -6.47563                       0.17061                      90.20838
                      -6.36914                       0.50110                      90.35264
                      -6.17663                       0.80011                      90.47474
                      -5.91018                       1.04884                      90.56701
                      -5.58655                       1.23167                      90.62365
                      -5.22606                       1.33712                      90.64111
                      -4.85136                       1.35854                      90.61829
                      -4.48601                       1.29460                      90.55661
                      -4.15295                       1.14932                      90.45996
                      -3.87311                       0.93182                      90.33441
                      -3.66409                       0.65578                      90.18785
                      -3.53900                       0.33852                      90.02949
                      -3.52079                       0.05251                      89.75672
                      -3.58119                      -0.28484                      89.60525
                      -3.73135                      -0.60098                      89.47148
                      -3.96185                      -0.87607                      89.36381
                      -4.25820                      -1.09281                      89.28903
                      -4.60178                      -1.23759                      89.25181
                      -4.97101                      -1.30130                      89.25451
                      -5.34267                      -1.27995                      89.29694
                      -5.69343                      -1.17488                      89.37646
                      -6.00124                      -0.99268                      89.48805
                      -6.24676                      -0.74482                      89.62471
                      -6.41456                      -0.44685                      89.77785
                      -6.49410                      -0.11750                      89.93785
                      -6.48038                       0.22252                      90.09465
                      -6.37427                       0.55187                      90.23841
                      -6.18242                       0.84984                      90.36008
                      -5.91690                       1.09771                      90.45203
                      -5.59439                       1.27990                      90.50848
                      -5.23516                       1.38498                      90.52588
                      -4.86177                       1.40633                      90.50313
                      -4.49768                       1.34261                      90.44167
                      -4.16578                       1.19783                      90.34536
                      -3.88692                       0.98109                      90.22025
                      -3.67862                       0.70601                      90.07419
                      -3.55397                       0.38986                      89.91638
                      -3.54638                       0.10502                      89.64509
                      -3.60614                      -0.22877                      89.49521
                      -3.75472                      -0.54158                      89.36285
                      -3.98279                      -0.81377                      89.25633
                      -4.27601                      -1.02822                      89.18233
                      -4.61597                      -1.17147                      89.14550
                      -4.98130                      -1.23452                      89.14817
                      -5.34905                      -1.21339                      89.19016
                      -5.69611                      -1.10943                      89.26884
                      -6.00067                      -0.92915                      89.37925
                      -6.24360                      -0.68390                      89.51447
                      -6.40963                      -0.38907                      89.66600
                      -6.48833                      -0.06320                      89.82431
                      -6.47476                       0.27324                      89.97946
                      -6.36976                       0.59911                      90.12170
                      -6.17994                       0.89394                      90.24209
                      -5.91722                       1.13919                      90.33307
                      -5.59812                       1.31947                      90.38892
                      -5.24267                       1.42344                      90.40614
                      -4.87321                       1.44456                      90.38363
                      -4.51297                       1.38152                      90.32282
                      -4.18457                       1.23827                      90.22752
                      -3.90865                       1.02381                      90.10373
                      -3.70254                       0.75163                      89.95922
                      -3.57920                       0.43881                      89.80307
                      -3.58282                       0.15753                      89.53441
                      -3.64150                      -0.17024                      89.38723
                      -3.78740                      -0.47742                      89.25726
                      -4.01136                      -0.74470                      89.15265
                      -4.29930                      -0.95529                      89.07998
                      -4.63313                      -1.09596                      89.04383
                      -4.99188                      -1.15787                      89.04645
                      -5.35301                      -1.13712                      89.08768
                      -5.69381                      -1.03503                      89.16494
                      -5.99288                      -0.85801                      89.27336
                      -6.23144                      -0.61717                      89.40614
                      -6.39448                      -0.32766                      89.55494
                      -6.47176                      -0.00766                      89.71040
                      -6.45843                       0.32272                      89.86275
                      -6.35532                       0.64272                      90.00243
                      -6.16892                       0.93223                      90.12065
                      -5.91094                       1.17307                      90.20999
                      -5.59758                       1.35010                      90.26484
                      -5.24854                       1.45219                      90.28174
                      -4.88574                       1.47293                      90.25964
                      -4.53199                       1.41103                      90.19993
                      -4.20951                       1.27036                      90.10635
                      -3.93856                       1.05977                      89.98478
                      -3.73617                       0.79248                      89.84288
                      -3.61505                       0.48531                      89.68954
                      -3.63072                       0.21004                      89.42473
                      -3.68785                      -0.10912                      89.28142
                      -3.82992                      -0.40823                      89.15486
                      -4.04800                      -0.66849                      89.05300
                      -4.32838                      -0.87355                      88.98224
                      -4.65344                      -1.01052                      88.94704
                      -5.00276                      -1.07080                      88.94959
                      -5.35440                      -1.05060                      88.98974
                      -5.68625                      -0.95119                      89.06496
                      -5.97747                      -0.77882                      89.17054
                      -6.20975                      -0.54431                      89.29984
                      -6.36851                      -0.26240                      89.44472
                      -6.44376                       0.04919                      89.59610
                      -6.43078                       0.37089                      89.74445
                      -6.33038                       0.68249                      89.88046
                      -6.14888                       0.96439                      89.99557
                      -5.89767                       1.19890                      90.08257
                      -5.59255                       1.37128                      90.13597
                      -5.25267                       1.47069                      90.15243
                      -4.89941                       1.49089                      90.13091
                      -4.55495                       1.43061                      90.07276
                      -4.24094                       1.29363                      89.98164
                      -3.97711                       1.08857                      89.86327
                      -3.78003                       0.82831                      89.72509
                      -3.66210                       0.52921                      89.57579
                      -3.69103                       0.26255                      89.31614
                      -3.74613                      -0.04518                      89.17796
                      -3.88311                      -0.33359                      89.05593
                      -4.09338                      -0.58453                      88.95772
                      -4.36372                      -0.78225                      88.88949
                      -4.67715                      -0.91432                      88.85554
                      -5.01397                      -0.97244                      88.85800
                      -5.35301                      -0.95296                      88.89672
                      -5.67299                      -0.85711                      88.96925
                      -5.95378                      -0.69091                      89.07105
                      -6.17775                      -0.46479                      89.19571
                      -6.33082                      -0.19298                      89.33541
                      -6.40338                       0.10746                      89.48137
                      -6.39087                       0.41765                      89.62441
                      -6.29406                       0.71808                      89.75555
                      -6.11906                       0.98990                      89.86655
                      -5.87684                       1.21601                      89.95043
                      -5.58264                       1.38222                      90.00192
                      -5.25493                       1.47807                      90.01779
                      -4.91431                       1.49755                      89.99704
                      -4.58218                       1.43942                      89.94097
                      -4.27941                       1.30736                      89.85312
                      -4.02503                       1.10964                      89.73898
                      -3.83501                       0.85869                      89.60575
                      -3.72129                       0.57029                      89.46179
                      -3.76523                       0.31506                      89.20876
                      -3.81771                       0.02189                      89.07712
                      -3.94821                      -0.25285                      88.96087
                      -4.14852                      -0.49192                      88.86731
                      -4.40607                      -0.68028                      88.80231
                      -4.70466                      -0.80610                      88.76997
                      -5.02553                      -0.86147                      88.77231
                      -5.34853                      -0.84291                      88.80919
                      -5.65335                      -0.75160                      88.87829
                      -5.92085                      -0.59326                      88.97527
                      -6.13422                      -0.37785                      89.09404
                      -6.28005                      -0.11890                      89.22712
                      -6.34917                       0.16731                      89.36617
                      -6.33725                       0.46281                      89.50244
                      -6.24503                       0.74903                      89.62737
                      -6.07831                       1.00798                      89.73311
                      -5.84756                       1.22339                      89.81302
                      -5.56728                       1.38173                      89.86208
                      -5.25509                       1.47304                      89.87720
                      -4.93060                       1.49159                      89.85743
                      -4.61419                       1.43622                      89.80402
                      -4.32575                       1.31041                      89.72032
                      -4.08341                       1.12205                      89.61159
                      -3.90238                       0.88298                      89.48466
                      -3.79405                       0.60823                      89.34751
                      -3.85549                       0.36758                      89.10279
                      -3.90472                       0.09262                      88.97933
                      -4.02711                      -0.16507                      88.87030
                      -4.21498                      -0.38928                      88.78254
                      -4.45653                      -0.56594                      88.72159
                      -4.73657                      -0.68394                      88.69125
                      -5.03752                      -0.73588                      88.69345
                      -5.34045                      -0.71847                      88.72804
                      -5.62634                      -0.63283                      88.79285
                      -5.87723                      -0.48433                      88.88381
                      -6.07734                      -0.28230                      88.99519
                      -6.21411                      -0.03944                      89.12001
                      -6.27894                       0.22900                      89.25042
                      -6.26776                       0.50615                      89.37823
                      -6.18127                       0.77459                      89.49540
                      -6.02490                       1.01745                      89.59457
                      -5.80849                       1.21948                      89.66952
                      -5.54562                       1.36798                      89.71553
                      -5.25282                       1.45362                      89.72971
                      -4.94848                       1.47103                      89.71117
                      -4.65172                       1.41909                      89.66107
                      -4.38120                       1.30109                      89.58257
                      -4.15391                       1.12443                      89.48060
                      -3.98413                       0.90022                      89.36155
                      -3.88253                       0.64253                      89.23292
                      -3.96531                       0.42009                      88.99853
                      -4.01049                       0.16777                      88.88523
                      -4.12280                      -0.06870                      88.78518
                      -4.29520                      -0.27445                      88.70465
                      -4.51686                      -0.43657                      88.64871
                      -4.77385                      -0.54485                      88.62088
                      -5.05001                      -0.59251                      88.62289
                      -5.32800                      -0.57654                      88.65464
                      -5.59036                      -0.49795                      88.71411
                      -5.82058                      -0.36168                      88.79757
                      -6.00422                      -0.17628                      88.89979
                      -6.12973                       0.04659                      89.01433
                      -6.18922                       0.29292                      89.13401
                      -6.17896                       0.54725                      89.25129
                      -6.09959                       0.79358                      89.35881
                      -5.95610                       1.01645                      89.44982
                      -5.75750                       1.20185                      89.51859
                      -5.51628                       1.33812                      89.56081
                      -5.24759                       1.41671                      89.57383
                      -4.96830                       1.43268                      89.55681
                      -4.69599                       1.38503                      89.51084
                      -4.44774                       1.27674                      89.43881
                      -4.23916                       1.11463                      89.34523
                      -4.08336                       0.90887                      89.23599
                      -3.99013                       0.67241                      89.11795
                      -4.10060                       0.47260                      88.89650
                      -4.14068                       0.24868                      88.79596
                      -4.24035                       0.03884                      88.70717
                      -4.39335                      -0.14375                      88.63571
                      -4.59005                      -0.28761                      88.58607
                      -4.81810                      -0.38370                      88.56136
                      -5.06317                      -0.42599                      88.56315
                      -5.30987                      -0.41182                      88.59132
                      -5.54268                      -0.34208                      88.64410
                      -5.74699                      -0.22115                      88.71817
                      -5.90995                      -0.05663                      88.80887
                      -6.02133                       0.14115                      88.91052
                      -6.07412                       0.35975                      89.01672
                      -6.06501                       0.58544                      89.12080
                      -5.99458                       0.80404                      89.21622
                      -5.86725                       1.00182                      89.29698
                      -5.69101                       1.16634                      89.35801
                      -5.47694                       1.28727                      89.39547
                      -5.23850                       1.35702                      89.40702
                      -4.99066                       1.37119                      89.39192
                      -4.74901                       1.32890                      89.35113
                      -4.52871                       1.23280                      89.28720
                      -4.34361                       1.08894                      89.20416
                      -4.20535                       0.90635                      89.10722
                      -4.12262                       0.69651                      89.00247
                      -4.27287                       0.52511                      88.79770
                      -4.30637                       0.33798                      88.71368
                      -4.38966                       0.16261                      88.63947
                      -4.51752                       0.01002                      88.57975
                      -4.68190                      -0.11020                      88.53827
                      -4.87249                      -0.19051                      88.51762
                      -5.07730                      -0.22585                      88.51912
                      -5.28346                      -0.21401                      88.54266
                      -5.47803                      -0.15573                      88.58677
                      -5.64877                      -0.05466                      88.64867
                      -5.78496                       0.08283                      88.72447
                      -5.87804                       0.24811                      88.80942
                      -5.92216                       0.43080                      88.89817
                      -5.91455                       0.61941                      88.98515
                      -5.85569                       0.80210                      89.06489
                      -5.74927                       0.96738                      89.13238
                      -5.60199                       1.10488                      89.18339
                      -5.42309                       1.20594                      89.21470
                      -5.22382                       1.26423                      89.22435
                      -5.01670                       1.27607                      89.21173
                      -4.81475                       1.24073                      89.17764
                      -4.63064                       1.16042                      89.12422
                      -4.47596                       1.04019                      89.05482
                      -4.36041                       0.88760                      88.97380
                      -4.29127                       0.71223                      88.88626
                      -4.51156                       0.57762                      88.70471
                      -4.53578                       0.44233                      88.64396
                      -4.59600                       0.31554                      88.59032
                      -4.68844                       0.20521                      88.54714
                      -4.80729                       0.11829                      88.51714
                      -4.94508                       0.06023                      88.50222
                      -5.09316                       0.03467                      88.50330
                      -5.24222                       0.04324                      88.52032
                      -5.38289                       0.08538                      88.55221
                      -5.50633                       0.15844                      88.59696
                      -5.60480                       0.25785                      88.65177
                      -5.67209                       0.37735                      88.71319
                      -5.70399                       0.50943                      88.77735
                      -5.69849                       0.64580                      88.84024
                      -5.65593                       0.77788                      88.89789
                      -5.57900                       0.89738                      88.94669
                      -5.47251                       0.99679                      88.98357
                      -5.34317                       1.06986                      89.00620
                      -5.19910                       1.11200                      89.01318
                      -5.04935                       1.12056                      89.00406
                      -4.90333                       1.09501                      88.97941
                      -4.77023                       1.03695                      88.94078
                      -4.65839                       0.95002                      88.89061
                      -4.57485                       0.83970                      88.83203
                      -4.52486                       0.71291                      88.76874
                      -5.11864                       0.63013                      88.64396
                      -5.11864                       0.63013                      88.64396
                      -5.11864                       0.63013                      88.64396
                      -5.11864                       0.63013                      88.64396
                      -5.11864                       0.63013                      88.64396
                      -5.11864                       0.63013                      88.64396
                      -5.11864                       0.63013                      88.64396
                      -5.11864                       0.63013                      88.64396
                      -5.11864                       0.63013                      88.64396
                      -5.11864                       0.63013                      88.64396
                      -5.11864                       0.63013                      88.64396
                      -5.11864                       0.63013                      88.64396
                      -5.11864                       0.63013                      88.64396
                      -5.11864                       0.63013                      88.64396
                      -5.11864                       0.63013                      88.64396
                      -5.11864                       0.63013                      88.64396
                      -5.11864                       0.63013                      88.64396
                      -5.11864                       0.63013                      88.64396
                      -5.11864                       0.63013                      88.64396
                      -5.11864                       0.63013                      88.64396
                      -5.11864                       0.63013                      88.64396
                      -5.11864                       0.63013                      88.64396
                      -5.11864                       0.63013                      88.64396
                      -5.11864                       0.63013                      88.64396
                      -5.11864                       0.63013                      88.64396
        </DataArray>
      </Points>
      <Polys>
        <DataArray type="Int32" Name="connectivity" format="ascii">
      0      1     26     25
      1      2     27     26
      2      3     28     27
      3      4     29     28
      4      5     30     29
      5      6     31     30
      6      7     32     31
      7      8     33     32
      8      9     34     33
      9     10     35     34
     10     11     36     35
     11     12     37     36
     12     13     38     37
     13     14     39     38
     14     15     40     39
     15     16     41     40
     16     17     42     41
     17     18     43     42
     18     19     44     43
     19     20     45     44
     20     21     46     45
     21     22     47     46
     22     23     48     47
     23     24     49     48
     24      0     25     49
     25     26     51     50
     26     27     52     51
     27     28     53     52
     28     29     54     53
     29     30     55     54
     30     31     56     55
     31     32     57     56
     32     33     58     57
     33     34     59     58
     34     35     60     59
     35     36     61     60
     36     37     62     61
     37     38     63     62
     38     39     64     63
     39     40     65     64
     40     41     66     65
     41     42     67     66
     42     43     68     67
     43     44     69     68
     44     45     70     69
     45     46     71     70
     46     47     72     71
     47     48     73     72
     48     49     74     73
     49     25     50     74
     50     51     76     75
     51     52     77     76
     52     53     78     77
     53     54     79     78
     54     55     80     79
     55     56     81     80
     56     57     82     81
     57     58     83     82
     58     59     84     83
     59     60     85     84
     60     61     86     85
     61     62     87     86
     62     63     88     87
     63     64     89     88
     64     65     90     89
     65     66     91     90
     66     67     92     91
     67     68     93     92
     68     69     94     93
     69     70     95     94
     70     71     96     95
     71     72     97     96
     72     73     98     97
     73     74     99     98
     74     50     75     99
     75     76    101    100
     76     77    102    101
     77     78    103    102
     78     79    104    103
     79     80    105    104
     80     81    106    105
     81     82    107    106
     82     83    108    107
     83     84    109    108
     84     85    110    109
     85     86    111    110
     86     87    112    111
     87     88    113    112
     88     89    114    113
     89     90    115    114
     90     91    116    115
     91     92    117    116
     92     93    118    117
     93     94    119    118
     94     95    120    119
     95     96    121    120
     96     97    122    121
     97     98    123    122
     98     99    124    123
     99     75    100    124
    100    101    126    125
    101    102    127    126
    102    103    128    127
    103    104    129    128
    104    105    130    129
    105    106    131    130
    106    107    132    131
    107    108    133    132
    108    109    134    133
    109    110    135    134
    110    111    136    135
    111    112    137    136
    112    113    138    137
    113    114    139    138
    114    115    140    139
    115    116    141    140
    116    117    142    141
    117    118    143    142
    118    119    144    143
    119    120    145    144
    120    121    146    145
    121    122    147    146
    122    123    148    147
    123    124    149    148
    124    100    125    149
    125    126    151    150
    126    127    152    151
    127    128    153    152
    128    129    154    153
    129    130    155    154
    130    131    156    155
    131    132    157    156
    132    133    158    157
    133    134    159    158
    134    135    160    159
    135    136    161    160
    136    137    162    161
    137    138    163    162
    138    139    164    163
    139    140    165    164
    140    141    166    165
    141    142    167    166
    142    143    168    167
    143    144    169    168
    144    145    170    169
    145    146    171    170
    146    147    172    171
    147    148    173    172
    148    149    174    173
    149    125    150    174
    150    151    176    175
    151    152    177    176
    152    153    178    177
    153    154    179    178
    154    155    180    179
    155    156    181    180
    156    157    182    181
    157    158    183    182
    158    159    184    183
    159    160    185    184
    160    161    186    185
    161    162    187    186
    162    163    188    187
    163    164    189    188
    164    165    190    189
    165    166    191    190
    166    167    192    191
    167    168    193    192
    168    169    194    193
    169    170    195    194
    170    171    196    195
    171    172    197    196
    172    173    198    197
    173    174    199    198
    174    150    175    199
    175    176    201    200
    176    177    202    201
    177    178    203    202
    178    179    204    203
    179    180    205    204
    180    181    206    205
    181    182    207    206
    182    183    208    207
    183    184    209    208
    184    185    210    209
    185    186    211    210
    186    187    212    211
    187    188    213    212
    188    189    214    213
    189    190    215    214
    190    191    216    215
    191    192    217    216
    192    193    218    217
    193    194    219    218
    194    195    220    219
    195    196    221    220
    196    197    222    221
    197    198    223    222
    198    199    224    223
    199    175    200    224
    200    201    226    225
    201    202    227    226
    202    203    228    227
    203    204    229    228
    204    205    230    229
    205    206    231    230
    206    207    232    231
    207    208    233    232
    208    209    234    233
    209    210    235    234
    210    211    236    235
    211    212    237    236
    212    213    238    237
    213    214    239    238
    214    215    240    239
    215    216    241    240
    216    217    242    241
    217    218    243    242
    218    219    244    243
    219    220    245    244
    220    221    246    245
    221    222    247    246
    222    223    248    247
    223    224    249    248
    224    200    225    249
    225    226    251    250
    226    227    252    251
    227    228    253    252
    228    229    254    253
    229    230    255    254
    230    231    256    255
    231    232    257    256
    232    233    258    257
    233    234    259    258
    234    235    260    259
    235    236    261    260
    236    237    262    261
    237    238    263    262
    238    239    264    263
    239    240    265    264
    240    241    266    265
    241    242    267    266
    242    243    268    267
    243    244    269    268
    244    245    270    269
    245    246    271    270
    246    247    272    271
    247    248    273    272
    248    249    274    273
    249    225    250    274
    250    251    276    275
    251    252    277    276
    252    253    278    277
    253    254    279    278
    254    255    280    279
    255    256    281    280
    256    257    282    281
    257    258    283    282
    258    259    284    283
    259    260    285    284
    260    261    286    285
    261    262    287    286
    262    263    288    287
    263    264    289    288
    264    265    290    289
    265    266    291    290
    266    267    292    291
    267    268    293    292
    268    269    294    293
    269    270    295    294
    270    271    296    295
    271    272    297    296
    272    273    298    297
    273    274    299    298
    274    250    275    299
    275    276    301    300
    276    277    302    301
    277    278    303    302
    278    279    304    303
    279    280    305    304
    280    281    306    305
    281    282    307    306
    282    283    308    307
    283    284    309    308
    284    285    310    309
    285    286    311    310
    286    287    312    311
    287    288    313    312
    288    289    314    313
    289    290    315    314
    290    291    316    315
    291    292    317    316
    292    293    318    317
    293    294    319    318
    294    295    320    319
    295    296    321    320
    296    297    322    321
    297    298    323    322
    298    299    324    323
    299    275    300    324
    300    301    326    325
    301    302    327    326
    302    303    328    327
    303    304    329    328
    304    305    330    329
    305    306    331    330
    306    307    332    331
    307    308    333    332
    308    309    334    333
    309    310    335    334
    310    311    336    335
    311    312    337    336
    312    313    338    337
    313    314    339    338
    314    315    340    339
    315    316    341    340
    316    317    342    341
    317    318    343    342
    318    319    344    343
    319    320    345    344
    320    321    346    345
    321    322    347    346
    322    323    348    347
    323    324    349    348
    324    300    325    349
    325    326    351    350
    326    327    352    351
    327    328    353    352
    328    329    354    353
    329    330    355    354
    330    331    356    355
    331    332    357    356
    332    333    358    357
    333    334    359    358
    334    335    360    359
    335    336    361    360
    336    337    362    361
    337    338    363    362
    338    339    364    363
    339    340    365    364
    340    341    366    365
    341    342    367    366
    342    343    368    367
    343    344    369    368
    344    345    370    369
    345    346    371    370
    346    347    372    371
    347    348    373    372
    348    349    374    373
    349    325    350    374
    350    351    376    375
    351    352    377    376
    352    353    378    377
    353    354    379    378
    354    355    380    379
    355    356    381    380
    356    357    382    381
    357    358    383    382
    358    359    384    383
    359    360    385    384
    360    361    386    385
    361    362    387    386
    362    363    388    387
    363    364    389    388
    364    365    390    389
    365    366    391    390
    366    367    392    391
    367    368    393    392
    368    369    394    393
    369    370    395    394
    370    371    396    395
    371    372    397    396
    372    373    398    397
    373    374    399    398
    374    350    375    399
    375    376    401    400
    376    377    402    401
    377    378    403    402
    378    379    404    403
    379    380    405    404
    380    381    406    405
    381    382    407    406
    382    383    408    407
    383    384    409    408
    384    385    410    409
    385    386    411    410
    386    387    412    411
    387    388    413    412
    388    389    414    413
    389    390    415    414
    390    391    416    415
    391    392    417    416
    392    393    418    417
    393    394    419    418
    394    395    420    419
    395    396    421    420
    396    397    422    421
    397    398    423    422
    398    399    424    423
    399    375    400    424
    400    401    426    425
    401    402    427    426
    402    403    428    427
    403    404    429    428
    404    405    430    429
    405    406    431    430
    406    407    432    431
    407    408    433    432
    408    409    434    433
    409    410    435    434
    410    411    436    435
    411    412    437    436
    412    413    438    437
    413    414    439    438
    414    415    440    439
    415    416    441    440
    416    417    442    441
    417    418    443    442
    418    419    444    443
    419    420    445    444
    420    421    446    445
    421    422    447    446
    422    423    448    447
    423    424    449    448
    424    400    425    449
    425    426    451    450
    426    427    452    451
    427    428    453    452
    428    429    454    453
    429    430    455    454
    430    431    456    455
    431    432    457    456
    432    433    458    457
    433    434    459    458
    434    435    460    459
    435    436    461    460
    436    437    462    461
    437    438    463    462
    438    439    464    463
    439    440    465    464
    440    441    466    465
    441    442    467    466
    442    443    468    467
    443    444    469    468
    444    445    470    469
    445    446    471    470
    446    447    472    471
    447    448    473    472
    448    449    474    473
    449    425    450    474
    450    451    476    475
    451    452    477    476
    452    453    478    477
    453    454    479    478
    454    455    480    479
    455    456    481    480
    456    457    482    481
    457    458    483    482
    458    459    484    483
    459    460    485    484
    460    461    486    485
    461    462    487    486
    462    463    488    487
    463    464    489    488
    464    465    490    489
    465    466    491    490
    466    467    492    491
    467    468    493    492
    468    469    494    493
    469    470    495    494
    470    471    496    495
    471    472    497    496
    472    473    498    497
    473    474    499    498
    474    450    475    499
    475    476    501    500
    476    477    502    501
    477    478    503    502
    478    479    504    503
    479    480    505    504
    480    481    506    505
    481    482    507    506
    482    483    508    507
    483    484    509    508
    484    485    510    509
    485    486    511    510
    486    487    512    511
    487    488    513    512
    488    489    514    513
    489    490    515    514
    490    491    516    515
    491    492    517    516
    492    493    518    517
    493    494    519    518
    494    495    520    519
    495    496    521    520
    496    497    522    521
    497    498    523    522
    498    499    524    523
    499    475    500    524
    500    501    526    525
    501    502    527    526
    502    503    528    527
    503    504    529    528
    504    505    530    529
    505    506    531    530
    506    507    532    531
    507    508    533    532
    508    509    534    533
    509    510    535    534
    510    511    536    535
    511    512    537    536
    512    513    538    537
    513    514    539    538
    514    515    540    539
    515    516    541    540
    516    517    542    541
    517    518    543    542
    518    519    544    543
    519    520    545    544
    520    521    546    545
    521    522    547    546
    522    523    548    547
    523    524    549    548
    524    500    525    549
    525    526    551    550
    526    527    552    551
    527    528    553    552
    528    529    554    553
    529    530    555    554
    530    531    556    555
    531    532    557    556
    532    533    558    557
    533    534    559    558
    534    535    560    559
    535    536    561    560
    536    537    562    561
    537    538    563    562
    538    539    564    563
    539    540    565    564
    540    541    566    565
    541    542    567    566
    542    543    568    567
    543    544    569    568
    544    545    570    569
    545    546    571    570
    546    547    572    571
    547    548    573    572
    548    549    574    573
    549    525    550    574
    550    551    576    575
    551    552    577    576
    552    553    578    577
    553    554    579    578
    554    555    580    579
    555    556    581    580
    556    557    582    581
    557    558    583    582
    558    559    584    583
    559    560    585    584
    560    561    586    585
    561    562    587    586
    562    563    588    587
    563    564    589    588
    564    565    590    589
    565    566    591    590
    566    567    592    591
    567    568    593    592
    568    569    594    593
    569    570    595    594
    570    571    596    595
    571    572    597    596
    572    573    598    597
    573    574    599    598
    574    550    575    599
    575    576    601    600
    576    577    602    601
    577    578    603    602
    578    579    604    603
    579    580    605    604
    580    581    606    605
    581    582    607    606
    582    583    608    607
    583    584    609    608
    584    585    610    609
    585    586    611    610
    586    587    612    611
    587    588    613    612
    588    589    614    613
    589    590    615    614
    590    591    616    615
    591    592    617    616
    592    593    618    617
    593    594    619    618
    594    595    620    619
    595    596    621    620
    596    597    622    621
    597    598    623    622
    598    599    624    623
    599    575    600    624
        </DataArray>
        <DataArray type="Int32" Name="offsets" format="ascii">
      4
      8
     12
     16
     20
     24
     28
     32
     36
     40
     44
     48
     52
     56
     60
     64
     68
     72
     76
     80
     84
     88
     92
     96
    100
    104
    108
    112
    116
    120
    124
    128
    132
    136
    140
    144
    148
    152
    156
    160
    164
    168
    172
    176
    180
    184
    188
    192
    196
    200
    204
    208
    212
    216
    220
    224
    228
    232
    236
    240
    244
    248
    252
    256
    260
    264
    268
    272
    276
    280
    284
    288
    292
    296
    300
    304
    308
    312
    316
    320
    324
    328
    332
    336
    340
    344
    348
    352
    356
    360
    364
    368
    372
    376
    380
    384
    388
    392
    396
    400
    404
    408
    412
    416
    420
    424
    428
    432
    436
    440
    444
    448
    452
    456
    460
    464
    468
    472
    476
    480
    484
    488
    492
    496
    500
    504
    508
    512
    516
    520
    524
    528
    532
    536
    540
    544
    548
    552
    556
    560
    564
    568
    572
    576
    580
    584
    588
    592
    596
    600
    604
    608
    612
    616
    620
    624
    628
    632
    636
    640
    644
    648
    652
    656
    660
    664
    668
    672
    676
    680
    684
    688
    692
    696
    700
    704
    708
    712
    716
    720
    724
    728
    732
    736
    740
    744
    748
    752
    756
    760
    764
    768
    772
    776
    780
    784
    788
    792
    796
    800
    804
    808
    812
    816
    820
    824
    828
    832
    836
    840
    844
    848
    852
    856
    860
    864
    868
    872
    876
    880
    884
    888
    892
    896
    900
    904
    908
    912
    916
    920
    924
    928
    932
    936
    940
    944
    948
    952
    956
    960
    964
    968
    972
    976
    980
    984
    988
    992
    996
   1000
   1004
   1008
   1012
   1016
   1020
   1024
   1028
   1032
   1036
   1040
   1044
   1048
   1052
   1056
   1060
   1064
   1068
   1072
   1076
   1080
   1084
   1088
   1092
   1096
   1100
   1104
   1108
   1112
   1116
   1120
   1124
   1128
   1132
   1136
   1140
   1144
   1148
   1152
   1156
   1160
   1164
   1168
   1172
   1176
   1180
   1184
   1188
   1192
   1196
   1200
   1204
   1208
   1212
   1216
   1220
   1224
   1228
   1232
   1236
   1240
   1244
   1248
   1252
   1256
   1260
   1264
   1268
   1272
   1276
   1280
   1284
   1288
   1292
   1296
   1300
   1304
   1308
   1312
   1316
   1320
   1324
   1328
   1332
   1336
   1340
   1344
   1348
   1352
   1356
   1360
   1364
   1368
   1372
   1376
   1380
   1384
   1388
   1392
   1396
   1400
   1404
   1408
   1412
   1416
   1420
   1424
   1428
   1432
   1436
   1440
   1444
   1448
   1452
   1456
   1460
   1464
   1468
   1472
   1476
   1480
   1484
   1488
   1492
   1496
   1500
   1504
   1508
   1512
   1516
   1520
   1524
   1528
   1532
   1536
   1540
   1544
   1548
   1552
   1556
   1560
   1564
   1568
   1572
   1576
   1580
   1584
   1588
   1592
   1596
   1600
   1604
   1608
   1612
   1616
   1620
   1624
   1628
   1632
   1636
   1640
   1644
   1648
   1652
   1656
   1660
   1664
   1668
   1672
   1676
   1680
   1684
   1688
   1692
   1696
   1700
   1704
   1708
   1712
   1716
   1720
   1724
   1728
   1732
   1736
   1740
   1744
   1748
   1752
   1756
   1760
   1764
   1768
   1772
   1776
   1780
   1784
   1788
   1792
   1796
   1800
   1804
   1808
   1812
   1816
   1820
   1824
   1828
   1832
   1836
   1840
   1844
   1848
   1852
   1856
   1860
   1864
   1868
   1872
   1876
   1880
   1884
   1888
   1892
   1896
   1900
   1904
   1908
   1912
   1916
   1920
   1924
   1928
   1932
   1936
   1940
   1944
   1948
   1952
   1956
   1960
   1964
   1968
   1972
   1976
   1980
   1984
   1988
   1992
   1996
   2000
   2004
   2008
   2012
   2016
   2020
   2024
   2028
   2032
   2036
   2040
   2044
   2048
   2052
   2056
   2060
   2064
   2068
   2072
   2076
   2080
   2084
   2088
   2092
   2096
   2100
   2104
   2108
   2112
   2116
   2120
   2124
   2128
   2132
   2136
   2140
   2144
   2148
   2152
   2156
   2160
   2164
   2168
   2172
   2176
   2180
   2184
   2188
   2192
   2196
   2200
   2204
   2208
   2212
   2216
   2220
   2224
   2228
   2232
   2236
   2240
   2244
   2248
   2252
   2256
   2260
   2264
   2268
   2272
   2276
   2280
   2284
   2288
   2292
   2296
   2300
   2304
   2308
   2312
   2316
   2320
   2324
   2328
   2332
   2336
   2340
   2344
   2348
   2352
   2356
   2360
   2364
   2368
   2372
   2376
   2380
   2384
   2388
   2392
   2396
   2400
        </DataArray>
      </Polys>
    </Piece>
  </PolyData>
</VTKFile>
