<?xml version="1.0"?>
<VTKFile type="PolyData" version="0.1" byte_order="LittleEndian">
  <PolyData>
    <Piece NumberOfPoints="     19" NumberOfVerts="  0" NumberOfLines="     18"
           NumberOfStrips="  0" NumberOfPolys="      0">
      <Points>
        <DataArray type="Float32" NumberOfComponents="3" format="ascii">
                      -5.18093                       0.69428                      88.68272
                      -5.34500                       1.33005                      87.48357
                      -5.68341                       2.68528                      85.13043
                      -6.01638                       4.08045                      82.79674
                      -6.41105                       5.84870                      79.88809
                      -6.79026                       7.84495                      76.31926
                      -7.08937                       9.72606                      72.68159
                      -7.32156                      11.60444                      69.03720
                      -7.48053                      13.47828                      65.38610
                      -7.56608                      15.34912                      61.73051
                      -7.58195                      17.22014                      58.07349
                      -7.53370                      19.08998                      54.41562
                      -7.43226                      20.95867                      50.75799
                      -7.29287                      22.82632                      47.10135
                      -7.13290                      24.69316                      43.44612
                      -7.00128                      26.24843                      40.40088
                      -6.90859                      27.48542                      37.96132
                      -6.83326                      28.67365                      35.49625
                      -6.81119                      29.30462                      34.28245
        </DataArray>
      </Points>
      <PointData>
        <DataArray type="Float32" Name="TranslationalVelocity" NumberOfComponents="3" format="ascii">
                       0.19010                       4.17216                       2.17285
                       0.36417                       7.96935                       4.16229
                       0.73597                      15.42274                       8.40128
                       1.11818                      22.81007                      12.76288
                       1.59864                      32.00564                      18.28727
                       2.12945                      43.24941                      24.51883
                       2.60999                      54.67399                      30.38563
                       3.06575                      66.08888                      36.23840
                       3.49308                      77.49307                      42.07115
                       3.89182                      88.88094                      47.88852
                       4.26575                     100.24582                      53.70060
                       4.62140                     111.58978                      59.50379
                       4.97058                     122.91508                      65.29955
                       5.33074                     134.22665                      71.09033
                       5.72586                     145.53094                      76.87978
                       6.10572                     154.95364                      81.70689
                       6.45333                     162.50993                      85.55065
                       6.82982                     170.15410                      89.24802
                       7.06425                     173.92501                      91.21488
        </DataArray>
        <DataArray type="Float32" Name="RotationalVelocity" NumberOfComponents="3" format="ascii">
                       3.12964                       0.00000                      -0.27381
                       3.12907                      -0.00001                      -0.27375
                       3.12769                       0.00028                      -0.27382
                       3.12601                       0.00112                      -0.27391
                       3.12359                       0.00305                      -0.27386
                       3.12032                       0.00694                      -0.27365
                       3.11691                       0.01275                      -0.27379
                       3.11361                       0.02056                      -0.27523
                       3.11067                       0.03036                      -0.27917
                       3.10835                       0.04191                      -0.28689
                       3.10684                       0.05475                      -0.29962
                       3.10629                       0.06816                      -0.31839
                       3.10678                       0.08109                      -0.34388
                       3.10828                       0.09218                      -0.37624
                       3.11066                       0.09967                      -0.41498
                       3.11312                       0.10179                      -0.45114
                       3.11524                       0.09955                      -0.48188
                       3.11733                       0.09289                      -0.51323
                       3.11830                       0.08762                      -0.52879
        </DataArray>
        <DataArray type="Float32" Name="TranslationalAcceleration" NumberOfComponents="3" format="ascii">
                       1.14237                      -6.85229                      13.05735
                       1.38741                      -8.31145                      15.78028
                       3.97060                     -24.58223                      44.69809
                       6.44572                     -39.95741                      71.02482
                       9.55164                     -58.17318                     101.56259
                      13.47886                     -77.63702                     136.84262
                      17.66929                     -95.36262                     171.72940
                      21.95685                    -112.91734                     206.45661
                      26.21402                    -130.54020                     241.45122
                      30.34838                    -148.35628                     276.82702
                      34.37162                    -166.40194                     312.48239
                      38.49478                    -184.59997                     348.22236
                      43.19017                    -202.86635                     383.81795
                      49.27128                    -221.13621                     419.10307
                      57.96923                    -239.39560                     454.06649
                      68.54992                    -254.66741                     483.11894
                      80.05686                    -266.92437                     506.53733
                      95.36340                    -278.89805                     530.61154
                     104.44666                    -285.38289                     542.68910
        </DataArray>
        <DataArray type="Float32" Name="OrientationX" NumberOfComponents="3" format="ascii">
                       0.99188                       0.02021                      -0.12558
                       0.99203                       0.01963                      -0.12447
                       0.99251                       0.01788                      -0.12088
                       0.99318                       0.01540                      -0.11561
                       0.99419                       0.01146                      -0.10705
                       0.99553                       0.00589                      -0.09427
                       0.99685                       0.00000                      -0.07930
                       0.99802                      -0.00551                      -0.06261
                       0.99895                      -0.00992                      -0.04465
                       0.99959                      -0.01249                      -0.02589
                       0.99990                      -0.01251                      -0.00687
                       0.99989                      -0.00934                       0.01176
                       0.99957                      -0.00244                       0.02920
                       0.99897                       0.00861                       0.04444
                       0.99813                       0.02402                       0.05624
                       0.99724                       0.04015                       0.06248
                       0.99640                       0.05525                       0.06424
                       0.99544                       0.07216                       0.06246
                       0.99489                       0.08123                       0.06004
        </DataArray>
        <DataArray type="Float32" Name="OrientationY" NumberOfComponents="3" format="ascii">
                      -0.04038                      -0.88620                      -0.46153
                      -0.04037                      -0.88621                      -0.46151
                      -0.04023                      -0.88625                      -0.46146
                      -0.03997                      -0.88629                      -0.46140
                      -0.03946                      -0.88635                      -0.46133
                      -0.03844                      -0.88641                      -0.46130
                      -0.03670                      -0.88646                      -0.46134
                      -0.03384                      -0.88651                      -0.46146
                      -0.02944                      -0.88658                      -0.46163
                      -0.02304                      -0.88669                      -0.46178
                      -0.01427                      -0.88685                      -0.46185
                      -0.00285                      -0.88702                      -0.46172
                       0.01132                      -0.88716                      -0.46132
                       0.02813                      -0.88717                      -0.46058
                       0.04724                      -0.88690                      -0.45953
                       0.06441                      -0.88636                      -0.45849
                       0.07862                      -0.88565                      -0.45765
                       0.09280                      -0.88466                      -0.45691
                       0.09974                      -0.88405                      -0.45662
        </DataArray>
        <DataArray type="Float32" Name="OrientationZ" NumberOfComponents="3" format="ascii">
                      -0.12062                       0.46286                      -0.87819
                      -0.11937                       0.46286                      -0.87836
                      -0.11538                       0.46286                      -0.87889
                      -0.10957                       0.46287                      -0.87963
                      -0.10017                       0.46287                      -0.88075
                      -0.08628                       0.46286                      -0.88222
                      -0.07030                       0.46280                      -0.88367
                      -0.05297                       0.46267                      -0.88495
                      -0.03501                       0.46246                      -0.88595
                      -0.01719                       0.46219                      -0.88661
                      -0.00032                       0.46190                      -0.88693
                       0.01475                       0.46163                      -0.88695
                       0.02703                       0.46145                      -0.88676
                       0.03547                       0.46136                      -0.88650
                       0.03884                       0.46133                      -0.88638
                       0.03697                       0.46125                      -0.88650
                       0.03161                       0.46106                      -0.88681
                       0.02228                       0.46062                      -0.88732
                       0.01598                       0.46027                      -0.88763
        </DataArray>
        <DataArray type="Float32" Name="Force" NumberOfComponents="3" format="ascii">
                      -0.59554                     -13.07033                      -6.80700
                     354.46654                    -125.84732                    -114.49105
                     504.77771                    -383.12949                    -268.09448
                     493.35846                    -581.83691                    -367.77636
                    6015.02023                     845.63661                    -239.31417
                    8261.16040                     898.04672                    -336.25212
                   10424.00218                     837.49701                    -389.96815
                   13987.97760                     803.37771                    -416.36585
                   15162.85951                     527.02623                    -323.38655
                   16926.02391                     378.83833                    -130.09836
                   19830.47023                     179.13302                      86.67067
                   20801.32620                      52.00183                     372.96800
                   20496.06110                     146.47096                     700.37450
                   19534.54240                     114.62481                     839.90469
                   16539.10096                      92.94781                     771.71098
                   12536.50353                      43.17890                     544.40106
                    8280.04329                     -27.80485                     280.34309
                    3214.73357                     -86.89330                      35.60447
                  -17000.43214                     615.56171                      13.25228
        </DataArray>
        <DataArray type="Float32" Name="Moment" NumberOfComponents="3" format="ascii">
                       0.00000                       0.00000                       0.00000
                       0.00000                       0.00000                       0.00000
                       0.00000                       0.00000                       0.00000
                       0.00000                       0.00000                       0.00000
                     204.52564                    -945.87373                    1798.30710
                     357.70790                   -1921.10893                    3657.48399
                     398.99644                   -2630.51611                    5016.02590
                     432.18326                   -3781.44960                    7223.06464
                     395.66190                   -5235.81398                   10018.82888
                     218.19156                   -5878.68229                   11268.74641
                       4.04417                   -6305.39432                   12106.82458
                    -212.31950                   -6639.50930                   12767.29822
                    -317.49755                   -5414.15497                   10423.66018
                    -403.72103                   -5244.53035                   10105.50240
                    -412.24291                   -4889.19162                    9423.95132
                    -362.87862                   -4522.25875                    8715.07361
                    -270.63235                   -3946.66914                    7601.79607
                     -93.68420                   -1937.91563                    3729.24674
                     -61.41597                   -1769.43164                    3402.91243
        </DataArray>
      </PointData>
      <Lines>
        <DataArray type="Int32" Name="connectivity" format="ascii">
      0      1
      1      2
      2      3
      3      4
      4      5
      5      6
      6      7
      7      8
      8      9
      9     10
     10     11
     11     12
     12     13
     13     14
     14     15
     15     16
     16     17
     17     18
        </DataArray>
        <DataArray type="Int32" Name="offsets" format="ascii">
      2
      4
      6
      8
     10
     12
     14
     16
     18
     20
     22
     24
     26
     28
     30
     32
     34
     36
        </DataArray>
      </Lines>
    </Piece>
  </PolyData>
</VTKFile>
