<?xml version="1.0"?>
<VTKFile type="PolyData" version="0.1" byte_order="LittleEndian">
  <PolyData>
    <Piece NumberOfPoints="     19" NumberOfVerts="  0" NumberOfLines="     18"
           NumberOfStrips="  0" NumberOfPolys="      0">
      <Points>
        <DataArray type="Float32" NumberOfComponents="3" format="ascii">
                      -4.96703                      -0.98867                      91.12759
                      -4.93627                      -1.89263                      92.15279
                      -4.89248                      -3.77276                      94.14048
                      -4.84450                      -5.68898                      96.09696
                      -4.75973                      -8.10861                      98.52137
                      -4.53899                     -10.91176                     101.51355
                      -4.21144                     -13.62353                     104.57850
                      -3.80020                     -16.33806                     107.63147
                      -3.29649                     -19.05258                     110.67109
                      -2.69811                     -21.76693                     113.69420
                      -2.00723                     -24.48239                     116.69724
                      -1.22762                     -27.19648                     119.68054
                      -0.36882                     -29.90829                     122.64477
                       0.55498                     -32.61749                     125.59187
                       1.52701                     -35.32442                     128.52457
                       2.35722                     -37.57936                     130.96092
                       3.02317                     -39.37771                     132.91304
                       3.68988                     -41.13625                     134.90093
                       4.00766                     -42.04746                     135.86962
        </DataArray>
      </Points>
      <PointData>
        <DataArray type="Float32" Name="TranslationalVelocity" NumberOfComponents="3" format="ascii">
                      -0.27070                      -3.53796                      -3.09417
                      -0.51817                      -6.75546                      -5.92379
                      -1.03319                     -12.99162                     -11.81100
                      -1.55864                     -19.13428                     -17.81436
                      -2.22333                     -26.75762                     -25.40002
                      -2.99593                     -36.20524                     -34.19549
                      -3.74737                     -45.91870                     -42.71136
                      -4.50568                     -55.62561                     -51.24181
                      -5.27250                     -65.32333                     -59.77640
                      -6.05059                     -75.00156                     -68.31275
                      -6.84341                     -84.64744                     -76.85260
                      -7.65353                     -94.26002                     -85.38592
                      -8.48408                    -103.83784                     -93.90760
                      -9.33837                    -113.38248                    -102.41456
                     -10.21984                    -122.89771                    -110.90613
                     -10.97833                    -130.81103                    -117.97246
                     -11.59961                    -137.15342                    -123.60301
                     -12.22362                    -143.61067                    -129.10413
                     -12.55182                    -146.75620                    -131.95333
        </DataArray>
        <DataArray type="Float32" Name="RotationalVelocity" NumberOfComponents="3" format="ascii">
                       3.12964                       0.00000                      -0.27381
                       3.13016                       0.00001                      -0.27386
                       3.13148                       0.00005                      -0.27409
                       3.13308                       0.00013                      -0.27450
                       3.13525                       0.00031                      -0.27531
                       3.13788                       0.00059                      -0.27675
                       3.14024                       0.00085                      -0.27875
                       3.14215                       0.00098                      -0.28136
                       3.14350                       0.00083                      -0.28462
                       3.14421                       0.00026                      -0.28856
                       3.14429                      -0.00083                      -0.29318
                       3.14377                      -0.00253                      -0.29850
                       3.14272                      -0.00486                      -0.30446
                       3.14125                      -0.00777                      -0.31103
                       3.13947                      -0.01111                      -0.31811
                       3.13783                      -0.01404                      -0.32431
                       3.13648                      -0.01633                      -0.32942
                       3.13511                      -0.01843                      -0.33461
                       3.13444                      -0.01936                      -0.33721
        </DataArray>
        <DataArray type="Float32" Name="TranslationalAcceleration" NumberOfComponents="3" format="ascii">
                      -0.96872                       9.75775                     -11.07255
                      -1.16625                      11.83555                     -13.37279
                      -3.27283                      34.60290                     -37.63786
                      -5.15841                      55.98134                     -59.60022
                      -7.30397                      81.31546                     -84.99151
                      -9.78750                     109.28377                    -114.71369
                     -12.29409                     135.70718                    -144.48657
                     -14.87505                     162.13439                    -174.14486
                     -17.63559                     188.85478                    -204.02623
                     -20.65585                     215.96011                    -234.18768
                     -23.98810                     243.39520                    -264.49569
                     -27.65835                     270.97310                    -294.74825
                     -31.65876                     298.49308                    -324.71269
                     -35.94527                     325.79682                    -354.21358
                     -40.43304                     352.83504                    -383.20499
                     -44.23542                     375.24821                    -407.08995
                     -47.25456                     393.17060                    -426.23438
                     -50.25998                     410.91464                    -445.93608
                     -51.64771                     420.24905                    -455.68918
        </DataArray>
        <DataArray type="Float32" Name="OrientationX" NumberOfComponents="3" format="ascii">
                       0.99810                      -0.02878                      -0.05442
                       0.99807                      -0.02780                      -0.05559
                       0.99793                      -0.02474                      -0.05943
                       0.99767                      -0.02035                      -0.06511
                       0.99714                      -0.01341                      -0.07443
                       0.99607                      -0.00346                      -0.08849
                       0.99442                       0.00751                      -0.10526
                       0.99207                       0.01875                      -0.12431
                       0.98895                       0.02955                      -0.14529
                       0.98504                       0.03915                      -0.16782
                       0.98039                       0.04683                      -0.19145
                       0.97511                       0.05185                      -0.21559
                       0.96943                       0.05347                      -0.23948
                       0.96368                       0.05092                      -0.26215
                       0.95833                       0.04343                      -0.28234
                       0.95454                       0.03297                      -0.29626
                       0.95224                       0.02135                      -0.30462
                       0.95079                       0.00656                      -0.30976
                       0.95044                      -0.00208                      -0.31091
        </DataArray>
        <DataArray type="Float32" Name="OrientationY" NumberOfComponents="3" format="ascii">
                       0.05750                       0.75149                       0.65723
                       0.05754                       0.75130                       0.65745
                       0.05780                       0.75080                       0.65800
                       0.05829                       0.75017                       0.65867
                       0.05931                       0.74926                       0.65961
                       0.06131                       0.74810                       0.66075
                       0.06441                       0.74695                       0.66176
                       0.06891                       0.74591                       0.66247
                       0.07510                       0.74508                       0.66274
                       0.08326                       0.74452                       0.66239
                       0.09358                       0.74428                       0.66128
                       0.10618                       0.74437                       0.65927
                       0.12104                       0.74478                       0.65625
                       0.13802                       0.74540                       0.65218
                       0.15684                       0.74609                       0.64711
                       0.17355                       0.74658                       0.64226
                       0.18738                       0.74681                       0.63809
                       0.20134                       0.74680                       0.63383
                       0.20829                       0.74669                       0.63173
        </DataArray>
        <DataArray type="Float32" Name="OrientationZ" NumberOfComponents="3" format="ascii">
                       0.02198                      -0.65911                       0.75172
                       0.02349                      -0.65937                       0.75145
                       0.02834                      -0.66007                       0.75067
                       0.03544                      -0.66093                       0.74961
                       0.04692                      -0.66214                       0.74791
                       0.06391                      -0.66358                       0.74537
                       0.08359                      -0.66484                       0.74229
                       0.10514                      -0.66578                       0.73870
                       0.12783                      -0.66632                       0.73462
                       0.15087                      -0.66646                       0.73012
                       0.17346                      -0.66623                       0.72530
                       0.19466                      -0.66575                       0.72034
                       0.21344                      -0.66517                       0.71554
                       0.22861                      -0.66467                       0.71130
                       0.23875                      -0.66443                       0.70819
                       0.24236                      -0.66448                       0.70691
                       0.24111                      -0.66470                       0.70714
                       0.23549                      -0.66501                       0.70873
                       0.23084                      -0.66517                       0.71011
        </DataArray>
        <DataArray type="Float32" Name="Force" NumberOfComponents="3" format="ascii">
                       2.14241                      28.00012                      24.48786
                     502.36455                     172.51865                     135.57839
                     688.24991                     441.55820                     361.43237
                     661.51259                     612.28789                     506.38276
                    7040.73115                    -898.39818                   -1232.22573
                    9609.74467                   -1008.34257                   -1712.56327
                   11660.43415                    -824.36331                   -2039.35981
                   15123.17474                    -628.49408                   -2702.61088
                   15977.11892                    -205.11615                   -2949.22230
                   17584.76593                     109.45091                   -3513.27791
                   20340.77878                     534.68589                   -4348.34507
                   21332.55969                     838.98858                   -4958.48201
                   21635.12680                     871.94619                   -5599.54046
                   20446.50410                     976.97455                   -5610.69817
                   17355.53159                     927.31297                   -4936.32871
                   13489.80851                     786.47989                   -3850.87987
                    9499.19334                     596.03786                   -2656.11418
                    4130.08649                     311.37981                   -1073.30854
                  -19441.62279                   -1945.73192                    4486.67910
        </DataArray>
        <DataArray type="Float32" Name="Moment" NumberOfComponents="3" format="ascii">
                       0.00000                       0.00000                       0.00000
                       0.00000                       0.00000                       0.00000
                       0.00000                       0.00000                       0.00000
                       0.00000                       0.00000                       0.00000
                     -84.27987                    1180.02328                   -1341.89914
                    -276.13319                    2837.22444                   -3220.00580
                    -496.53106                    3899.41023                   -4415.25738
                    -901.74447                    5626.26550                   -6354.34196
                   -1515.12827                    7766.80480                   -8748.23225
                   -2007.19718                    8702.74574                   -9775.36368
                   -2472.63570                    9304.28708                  -10422.46282
                   -2927.49909                    9790.19183                  -10938.26494
                   -2646.51511                    8049.10618                   -8972.04027
                   -2741.89832                    7765.82564                   -8639.78418
                   -2646.09496                    7162.14869                   -7957.90424
                   -2469.84472                    6580.32807                   -7308.05364
                   -2149.20819                    5756.81588                   -6394.47809
                   -1034.42369                    2839.79192                   -3156.59971
                    -876.44704                    2456.72114                   -2732.40668
        </DataArray>
      </PointData>
      <Lines>
        <DataArray type="Int32" Name="connectivity" format="ascii">
      0      1
      1      2
      2      3
      3      4
      4      5
      5      6
      6      7
      7      8
      8      9
      9     10
     10     11
     11     12
     12     13
     13     14
     14     15
     15     16
     16     17
     17     18
        </DataArray>
        <DataArray type="Int32" Name="offsets" format="ascii">
      2
      4
      6
      8
     10
     12
     14
     16
     18
     20
     22
     24
     26
     28
     30
     32
     34
     36
        </DataArray>
      </Lines>
    </Piece>
  </PolyData>
</VTKFile>
