<?xml version="1.0"?>
<VTKFile type="PolyData" version="0.1" byte_order="LittleEndian">
  <PolyData>
    <Piece NumberOfPoints="     19" NumberOfVerts="  0" NumberOfLines="     18"
           NumberOfStrips="  0" NumberOfPolys="      0">
      <Points>
        <DataArray type="Float32" NumberOfComponents="3" format="ascii">
                      -4.93615                      -0.23210                      91.48056
                      -4.87706                      -0.44722                      92.82939
                      -4.77228                      -0.97202                      95.51293
                      -4.66103                      -1.54276                      98.18952
                      -4.49537                      -2.28532                     101.53044
                      -4.18290                      -3.03932                     105.55490
                      -3.76837                      -3.66947                     109.59087
                      -3.26932                      -4.30156                     113.61738
                      -2.67719                      -4.93369                     117.63160
                      -1.98978                      -5.56754                     121.63072
                      -1.20920                      -6.20644                     125.61238
                      -0.33933                      -6.84861                     129.57555
                       0.61035                      -7.49369                     133.52033
                       1.62579                      -8.14135                     137.44830
                       2.69051                      -8.79147                     141.36206
                       3.59912                      -9.33499                     144.61619
                       4.32837                      -9.76302                     147.21882
                       5.05665                     -10.13794                     149.82997
                       5.40786                     -10.36656                     151.13154
        </DataArray>
      </Points>
      <PointData>
        <DataArray type="Float32" Name="TranslationalVelocity" NumberOfComponents="3" format="ascii">
                      -0.06355                      -4.65109                      -0.72640
                      -0.12237                      -8.88971                      -1.39982
                      -0.26515                     -17.32361                      -3.04362
                      -0.41957                     -25.74431                      -4.83310
                      -0.61947                     -36.27334                      -7.16447
                      -0.82015                     -49.00462                      -9.53649
                      -0.98454                     -61.81978                     -11.52307
                      -1.14726                     -74.64805                     -13.51905
                      -1.30755                     -87.48178                     -15.51834
                      -1.46547                    -100.31096                     -17.52621
                      -1.62129                    -113.12542                     -19.55319
                      -1.77346                    -125.91847                     -21.59375
                      -1.92035                    -138.68546                     -23.64697
                      -2.05973                    -151.42526                     -25.71209
                      -2.18876                    -164.13974                     -27.78930
                      -2.28538                    -174.72164                     -29.52980
                      -2.35173                    -183.18774                     -30.90355
                      -2.39314                    -191.68256                     -32.11191
                      -2.42133                    -195.91439                     -32.84779
        </DataArray>
        <DataArray type="Float32" Name="RotationalVelocity" NumberOfComponents="3" format="ascii">
                       3.12964                      -0.00000                      -0.27381
                       3.13039                       0.00011                      -0.27389
                       3.13246                       0.00045                      -0.27418
                       3.13509                       0.00094                      -0.27477
                       3.13880                       0.00168                      -0.27601
                       3.14340                       0.00272                      -0.27833
                       3.14778                       0.00384                      -0.28138
                       3.15172                       0.00500                      -0.28486
                       3.15513                       0.00618                      -0.28834
                       3.15807                       0.00739                      -0.29135
                       3.16062                       0.00866                      -0.29345
                       3.16292                       0.01008                      -0.29431
                       3.16513                       0.01175                      -0.29374
                       3.16733                       0.01381                      -0.29177
                       3.16954                       0.01645                      -0.28872
                       3.17133                       0.01922                      -0.28585
                       3.17264                       0.02195                      -0.28373
                       3.17371                       0.02521                      -0.28225
                       3.17411                       0.02708                      -0.28191
        </DataArray>
        <DataArray type="Float32" Name="TranslationalAcceleration" NumberOfComponents="3" format="ascii">
                      -1.27351                       2.29077                     -14.55624
                      -1.54112                       2.80906                     -17.60778
                      -4.39438                       8.98402                     -50.26284
                      -7.01313                      15.21426                     -80.25267
                     -10.08293                      22.93357                    -115.28585
                     -13.64153                      30.53956                    -155.43308
                     -17.21097                      36.80115                    -194.84248
                     -20.88433                      43.10569                    -234.21298
                     -24.72247                      49.49605                    -273.99801
                     -28.74193                      55.99395                    -314.31271
                     -32.91815                      62.59674                    -355.03620
                     -37.18917                      69.22565                    -395.92212
                     -41.45864                      75.80841                    -436.69295
                     -45.59944                      82.28155                    -477.14350
                     -49.45687                      88.60853                    -517.23803
                     -52.31654                      93.76991                    -550.54473
                     -54.29628                      97.76817                    -577.34744
                     -55.91064                     101.20466                    -604.65962
                     -56.58919                     103.35059                    -618.52457
        </DataArray>
        <DataArray type="Float32" Name="OrientationX" NumberOfComponents="3" format="ascii">
                       0.99900                      -0.00676                      -0.04414
                       0.99894                      -0.00654                      -0.04567
                       0.99870                      -0.00596                      -0.05057
                       0.99832                      -0.00521                      -0.05776
                       0.99758                      -0.00416                      -0.06940
                       0.99623                      -0.00297                      -0.08667
                       0.99429                      -0.00228                      -0.10673
                       0.99166                      -0.00251                      -0.12883
                       0.98833                      -0.00414                      -0.15229
                       0.98429                      -0.00761                      -0.17639
                       0.97963                      -0.01334                      -0.20038
                       0.97449                      -0.02166                      -0.22337
                       0.96913                      -0.03280                      -0.24436
                       0.96389                      -0.04685                      -0.26214
                       0.95926                      -0.06375                      -0.27525
                       0.95622                      -0.07980                      -0.28156
                       0.95465                      -0.09382                      -0.28257
                       0.95405                      -0.10868                      -0.27925
                       0.95416                      -0.11634                      -0.27575
        </DataArray>
        <DataArray type="Float32" Name="OrientationY" NumberOfComponents="3" format="ascii">
                       0.01350                       0.98793                       0.15429
                       0.01353                       0.98791                       0.15446
                       0.01374                       0.98784                       0.15490
                       0.01415                       0.98775                       0.15542
                       0.01498                       0.98762                       0.15616
                       0.01661                       0.98745                       0.15707
                       0.01921                       0.98727                       0.15787
                       0.02308                       0.98710                       0.15841
                       0.02856                       0.98694                       0.15853
                       0.03596                       0.98678                       0.15805
                       0.04551                       0.98658                       0.15681
                       0.05738                       0.98630                       0.15467
                       0.07158                       0.98585                       0.15155
                       0.08798                       0.98515                       0.14744
                       0.10628                       0.98408                       0.14246
                       0.12261                       0.98284                       0.13783
                       0.13613                       0.98159                       0.13400
                       0.14976                       0.98011                       0.13023
                       0.15652                       0.97929                       0.12844
        </DataArray>
        <DataArray type="Float32" Name="OrientationZ" NumberOfComponents="3" format="ascii">
                       0.04257                      -0.15474                       0.98704
                       0.04411                      -0.15492                       0.98694
                       0.04904                      -0.15539                       0.98664
                       0.05625                      -0.15598                       0.98616
                       0.06790                      -0.15682                       0.98529
                       0.08511                      -0.15792                       0.98378
                       0.10501                      -0.15902                       0.98168
                       0.12677                      -0.16006                       0.97893
                       0.14964                      -0.16102                       0.97554
                       0.17286                      -0.16191                       0.97155
                       0.19560                      -0.16273                       0.96709
                       0.21696                      -0.16354                       0.96238
                       0.23594                      -0.16436                       0.95777
                       0.25134                      -0.16518                       0.95370
                       0.26179                      -0.16591                       0.95076
                       0.26573                      -0.16632                       0.94959
                       0.26479                      -0.16638                       0.94984
                       0.25954                      -0.16606                       0.95135
                       0.25509                      -0.16571                       0.95261
        </DataArray>
        <DataArray type="Float32" Name="Force" NumberOfComponents="3" format="ascii">
                       0.36297                      26.56405                       4.14872
                     485.22802                     216.81506                      12.30894
                     650.88436                     558.25221                      55.21517
                     615.92900                     776.53713                      86.75058
                    7130.39877                   -1111.31628                    -665.99968
                    9655.25168                   -1347.70095                   -1047.39687
                   11708.15609                   -1257.86285                   -1450.55180
                   15170.71544                   -1269.42188                   -2164.51956
                   16039.90495                    -988.24177                   -2615.69350
                   17668.31271                    -928.11934                   -3288.66418
                   20428.60913                    -859.57245                   -4264.85203
                   21400.76682                    -852.77065                   -4955.39608
                   21628.94623                   -1121.50270                   -5500.28405
                   20676.70918                   -1121.07906                   -5620.29964
                   17750.84650                    -957.16237                   -5032.80493
                   13948.48957                    -712.73550                   -4010.61158
                    9958.25545                    -444.78598                   -2842.50132
                    4532.19570                    -122.26920                   -1253.97984
                  -17693.79075                    -171.32441                    4703.28072
        </DataArray>
        <DataArray type="Float32" Name="Moment" NumberOfComponents="3" format="ascii">
                       0.00000                       0.00000                       0.00000
                       0.00000                       0.00000                       0.00000
                       0.00000                       0.00000                       0.00000
                       0.00000                       0.00000                       0.00000
                    -126.95190                     289.43922                   -1842.15735
                    -356.87253                     649.10873                   -4124.98707
                    -611.31939                     901.00290                   -5715.59107
                   -1068.83202                    1304.01138                   -8256.00621
                   -1747.65229                    1804.07885                  -11398.52307
                   -2272.02846                    2026.75576                  -12778.43469
                   -2760.60232                    2171.24941                  -13660.87534
                   -3234.73589                    2287.45200                  -14363.43317
                   -2905.91961                    1884.36610                  -11811.26286
                   -3005.50729                    1824.78428                  -11421.05078
                   -2895.92798                    1684.81900                  -10534.44731
                   -2700.84039                    1546.85469                   -9668.13703
                   -2354.26595                    1353.36760                   -8459.57062
                   -1137.88451                     668.01813                   -4177.73329
                    -984.85003                     588.74961                   -3683.56986
        </DataArray>
      </PointData>
      <Lines>
        <DataArray type="Int32" Name="connectivity" format="ascii">
      0      1
      1      2
      2      3
      3      4
      4      5
      5      6
      6      7
      7      8
      8      9
      9     10
     10     11
     11     12
     12     13
     13     14
     14     15
     15     16
     16     17
     17     18
        </DataArray>
        <DataArray type="Int32" Name="offsets" format="ascii">
      2
      4
      6
      8
     10
     12
     14
     16
     18
     20
     22
     24
     26
     28
     30
     32
     34
     36
        </DataArray>
      </Lines>
    </Piece>
  </PolyData>
</VTKFile>
