<?xml version="1.0"?>
<VTKFile type="PolyData" version="0.1" byte_order="LittleEndian">
  <PolyData>
    <Piece NumberOfPoints="     19" NumberOfVerts="  0" NumberOfLines="     18"
           NumberOfStrips="  0" NumberOfPolys="      0">
      <Points>
        <DataArray type="Float32" NumberOfComponents="3" format="ascii">
                      -5.04963                      -1.48791                      90.18350
                      -5.09430                      -2.84454                      90.34686
                      -5.20451                      -5.56886                      90.57885
                      -5.31253                      -8.29953                      90.76299
                      -5.42490                     -11.71827                      90.95991
                      -5.43900                     -15.80818                      91.32122
                      -5.34554                     -19.88500                      91.79423
                      -5.17185                     -23.96121                      92.25371
                      -4.90957                     -28.03454                      92.70054
                      -4.55698                     -32.10313                      93.13264
                      -4.11682                     -36.16560                      93.54688
                      -3.59320                     -40.22035                      93.94554
                      -2.99607                     -44.26672                      94.33024
                      -2.33998                     -48.30504                      94.70325
                      -1.64203                     -52.33645                      95.06698
                      -1.04544                     -55.69268                      95.36550
                      -0.56950                     -58.37631                      95.61091
                      -0.09426                     -61.05487                      95.91007
                       0.12534                     -62.40023                      96.02012
        </DataArray>
      </Points>
      <PointData>
        <DataArray type="Float32" Name="TranslationalVelocity" NumberOfComponents="3" format="ascii">
                      -0.40740                      -0.56070                      -4.65661
                      -0.77909                      -1.05974                      -8.90237
                      -1.52701                      -1.75565                     -17.42802
                      -2.27934                      -2.30234                     -25.97268
                      -3.22647                      -2.88760                     -36.66884
                      -4.36921                      -4.01413                     -49.46180
                      -5.52137                      -5.51990                     -62.20952
                      -6.68881                      -7.00621                     -74.95002
                      -7.87273                      -8.47890                     -87.67530
                      -9.07394                      -9.93288                    -100.37880
                     -10.29280                     -11.35831                    -113.05572
                     -11.52888                     -12.76187                    -125.70072
                     -12.78123                     -14.14617                    -138.31190
                     -14.04832                     -15.51418                    -150.89075
                     -15.32786                     -16.86831                    -163.44177
                     -16.40183                     -17.98845                    -173.88693
                     -17.26396                     -18.90526                    -182.23737
                     -18.12541                     -19.98936                    -190.57160
                     -18.55829                     -20.40263                    -194.75761
        </DataArray>
        <DataArray type="Float32" Name="RotationalVelocity" NumberOfComponents="3" format="ascii">
                       3.12964                      -0.00000                      -0.27381
                       3.12959                      -0.00004                      -0.27403
                       3.12935                      -0.00015                      -0.27477
                       3.12897                      -0.00034                      -0.27589
                       3.12835                      -0.00073                      -0.27772
                       3.12743                      -0.00143                      -0.28052
                       3.12636                      -0.00232                      -0.28388
                       3.12515                      -0.00327                      -0.28772
                       3.12380                      -0.00413                      -0.29196
                       3.12230                      -0.00470                      -0.29652
                       3.12064                      -0.00481                      -0.30127
                       3.11884                      -0.00431                      -0.30607
                       3.11694                      -0.00313                      -0.31073
                       3.11502                      -0.00124                      -0.31501
                       3.11323                       0.00124                      -0.31858
                       3.11195                       0.00362                      -0.32077
                       3.11119                       0.00559                      -0.32178
                       3.11077                       0.00746                      -0.32197
                       3.11072                       0.00830                      -0.32170
        </DataArray>
        <DataArray type="Float32" Name="TranslationalAcceleration" NumberOfComponents="3" format="ascii">
                      -0.15352                      14.68505                      -1.75478
                      -0.17972                      17.76756                      -2.08433
                      -0.42524                      50.94936                      -5.00532
                      -0.58854                      81.52244                      -7.13213
                      -0.71273                     117.26747                      -9.17291
                      -0.91410                     157.76517                     -12.66695
                      -1.17463                     197.06002                     -17.20480
                      -1.41717                     236.20614                     -21.64346
                      -1.68021                     275.66658                     -26.04989
                      -2.00168                     315.57249                     -30.41382
                      -2.41896                     355.81811                     -34.67917
                      -2.97279                     396.15113                     -38.82292
                      -3.69980                     436.28199                     -42.80274
                      -4.63210                     475.98133                     -46.58326
                      -5.79533                     515.17511                     -50.14595
                      -6.95944                     547.57254                     -52.95533
                      -8.02050                     573.49977                     -55.19805
                      -9.23156                     599.65537                     -57.92954
                      -9.85193                     612.98267                     -58.88720
        </DataArray>
        <DataArray type="Float32" Name="OrientationX" NumberOfComponents="3" format="ascii">
                       0.99570                      -0.04331                      -0.08190
                       0.99574                      -0.04184                      -0.08212
                       0.99586                      -0.03715                      -0.08294
                       0.99598                      -0.03032                      -0.08426
                       0.99606                      -0.01930                      -0.08659
                       0.99589                      -0.00306                      -0.09047
                       0.99529                       0.01563                      -0.09567
                       0.99410                       0.03596                      -0.10236
                       0.99220                       0.05714                      -0.11076
                       0.98955                       0.07837                      -0.12106
                       0.98613                       0.09881                      -0.13339
                       0.98201                       0.11751                      -0.14782
                       0.97735                       0.13343                      -0.16428
                       0.97238                       0.14537                      -0.18258
                       0.96746                       0.15194                      -0.20234
                       0.96365                       0.15235                      -0.21949
                       0.96100                       0.14841                      -0.23336
                       0.95884                       0.14003                      -0.24703
                       0.95797                       0.13398                      -0.25367
        </DataArray>
        <DataArray type="Float32" Name="OrientationY" NumberOfComponents="3" format="ascii">
                       0.08654                       0.11910                       0.98910
                       0.08657                       0.11875                       0.98914
                       0.08678                       0.11784                       0.98923
                       0.08725                       0.11671                       0.98933
                       0.08824                       0.11510                       0.98943
                       0.09023                       0.11304                       0.98948
                       0.09336                       0.11103                       0.98942
                       0.09790                       0.10924                       0.98918
                       0.10416                       0.10783                       0.98870
                       0.11238                       0.10694                       0.98789
                       0.12278                       0.10669                       0.98668
                       0.13544                       0.10715                       0.98497
                       0.15039                       0.10836                       0.98267
                       0.16747                       0.11028                       0.97969
                       0.18641                       0.11277                       0.97598
                       0.20327                       0.11510                       0.97233
                       0.21725                       0.11700                       0.96908
                       0.23142                       0.11878                       0.96558
                       0.23848                       0.11958                       0.96376
        </DataArray>
        <DataArray type="Float32" Name="OrientationZ" NumberOfComponents="3" format="ascii">
                      -0.03308                      -0.99194                       0.12233
                      -0.03163                      -0.99204                       0.12186
                      -0.02698                      -0.99234                       0.12058
                      -0.02016                      -0.99270                       0.11889
                      -0.00913                      -0.99317                       0.11635
                       0.00719                      -0.99359                       0.11285
                       0.02609                      -0.99369                       0.10905
                       0.04675                      -0.99336                       0.10507
                       0.06843                      -0.99253                       0.10104
                       0.09037                      -0.99117                       0.09702
                       0.11172                      -0.98937                       0.09308
                       0.13158                      -0.98727                       0.08931
                       0.14892                      -0.98512                       0.08584
                       0.16255                      -0.98321                       0.08289
                       0.17111                      -0.98194                       0.08077
                       0.17340                      -0.98160                       0.07995
                       0.17112                      -0.98198                       0.08019
                       0.16455                      -0.98300                       0.08149
                       0.15946                      -0.98374                       0.08260
        </DataArray>
        <DataArray type="Float32" Name="Force" NumberOfComponents="3" format="ascii">
                       3.89223                       5.35681                      44.48841
                     510.09765                      10.90886                     220.45237
                     706.28349                      51.11233                     572.08517
                     684.24953                      83.32506                     794.67868
                    6906.97144                    -258.33756                   -1627.34446
                    9411.89834                    -173.85543                   -2063.67742
                   11478.13945                      44.72411                   -2246.55047
                   14983.33273                     405.50596                   -2702.65034
                   15919.15147                     813.73723                   -2648.95361
                   17578.83792                    1300.52686                   -2910.28935
                   20422.86951                    1971.91859                   -3329.01513
                   21465.82781                    2508.20216                   -3613.80092
                   21650.59341                    2885.41360                   -4038.91564
                   20370.07589                    2999.73136                   -3914.85189
                   17176.68412                    2682.69963                   -3352.30091
                   13214.90205                    2101.50109                   -2536.07577
                    9141.13143                    1439.50234                   -1677.29675
                    3732.52304                     572.76947                    -577.46518
                  -19917.64147                   -3014.52495                    2453.00188
        </DataArray>
        <DataArray type="Float32" Name="Moment" NumberOfComponents="3" format="ascii">
                       0.00000                       0.00000                       0.00000
                       0.00000                       0.00000                       0.00000
                       0.00000                       0.00000                       0.00000
                       0.00000                       0.00000                       0.00000
                      16.19674                    1830.02905                    -221.76917
                     -34.09545                    4382.39814                    -524.69761
                    -160.81409                    5955.83828                    -703.06766
                    -410.68212                    8551.42932                    -993.73980
                    -826.17645                   11780.30580                   -1346.17484
                   -1218.55261                   13162.70939                   -1478.30033
                   -1609.10820                   14047.45080                   -1550.66206
                   -1992.38566                   14744.53606                   -1601.06503
                   -1850.43255                   12075.92566                   -1292.15936
                   -1948.79553                   11628.70838                   -1229.70469
                   -1893.25135                   10716.56802                   -1124.73418
                   -1763.71863                    9846.28253                   -1031.27654
                   -1521.18804                    8607.31927                    -903.31278
                    -719.69144                    4238.85784                    -447.43218
                    -604.99423                    3679.85060                    -390.15733
        </DataArray>
      </PointData>
      <Lines>
        <DataArray type="Int32" Name="connectivity" format="ascii">
      0      1
      1      2
      2      3
      3      4
      4      5
      5      6
      6      7
      7      8
      8      9
      9     10
     10     11
     11     12
     12     13
     13     14
     14     15
     15     16
     16     17
     17     18
        </DataArray>
        <DataArray type="Int32" Name="offsets" format="ascii">
      2
      4
      6
      8
     10
     12
     14
     16
     18
     20
     22
     24
     26
     28
     30
     32
     34
     36
        </DataArray>
      </Lines>
    </Piece>
  </PolyData>
</VTKFile>
